# Exported from Wings 3D 0.98.29b
newmtl locks
Ns 100.000
d 1.00000
illum 2
Kd 1.00000e-3 1.00000e-3 1.00000e-3
Ka 1.00000e-3 1.00000e-3 1.00000e-3
Ks 1.00000e-3 1.00000e-3 1.00000e-3
Ke 0.00000e+0 0.00000e+0 0.00000e+0

newmtl wood
Ns 10.6667
d 1.00000
illum 2
Kd 0.553333 0.264908 0.00000e+0
Ka 0.553333 0.264908 0.00000e+0
Ks 0.553333 0.264908 0.00000e+0
Ke 0.00000e+0 0.00000e+0 0.00000e+0

