# Exported from Wings 3D 0.98.29b
newmtl lettuce
Ns 100.000
d 1.00000
illum 2
Kd 0.366667 0.953333 0.380000
Ka 0.366667 0.953333 0.380000
Ks 0.366667 0.953333 0.380000
Ke 0.00000e+0 0.00000e+0 0.00000e+0

