# Exported from Wings 3D 0.98.29b
mtllib pie.mtl
o sphere4_cut7
#64 vertices, 50 faces
v 0.22753439 0.97198317 -0.52668923
v 0.24367167 0.97198317 -0.46815538
v 0.25113104 0.97198317 -0.41645000
v 0.24877687 0.97198317 -0.37944476
v 0.23696756 0.97198317 -0.36277338
v 0.21750097 0.97198317 -0.36897392
v 0.19334072 0.97198317 -0.39710241
v 0.16816498 0.97198317 -0.44287654
v 0.14580653 0.97198317 -0.49932760
v 0.12966925 0.97198317 -0.55786145
v 0.12220988 0.97198317 -0.60956683
v 0.12456405 0.97198317 -0.64657207
v 0.13637336 0.97198317 -0.66324345
v 0.15583995 0.97198317 -0.65704291
v 0.18000020 0.97198317 -0.62891442
v 0.20517594 0.97198317 -0.58314029
v 0.26217716 0.95044463 -0.53828726
v 0.29199497 0.95044463 -0.43013081
v 0.30577808 0.95044463 -0.33459173
v 0.30142814 0.95044463 -0.26621497
v 0.27960738 0.95044463 -0.23541027
v 0.24363782 0.95044463 -0.24686738
v 0.19899549 0.95044463 -0.29884204
v 0.15247679 0.95044463 -0.38342160
v 0.11116377 0.95044463 -0.48772957
v 8.1345953e-2 0.95044463 -0.59588602
v 6.7562841e-2 0.95044463 -0.69142510
v 7.1912784e-2 0.95044463 -0.75980186
v 9.3733544e-2 0.95044463 -0.79060656
v 0.12970311 0.95044463 -0.77914945
v 0.17434543 0.95044463 -0.72717478
v 0.22086413 0.95044463 -0.64259523
v 0.28532471 0.91820993 -0.54603681
v 0.32428356 0.91820993 -0.40472360
v 0.34229207 0.91820993 -0.27989578
v 0.33660859 0.91820993 -0.19055723
v 0.30809839 0.91820993 -0.15030896
v 0.26110190 0.91820993 -0.16527839
v 0.20277389 0.91820993 -0.23318657
v 0.14199428 0.91820993 -0.34369508
v 8.8016210e-2 0.91820993 -0.47998002
v 4.9057359e-2 0.91820993 -0.62129323
v 3.1048856e-2 0.91820993 -0.74612105
v 3.6732331e-2 0.91820993 -0.83545960
v 6.5242527e-2 0.91820993 -0.87570787
v 0.11223903 0.91820993 -0.86073844
v 0.17056704 0.91820993 -0.79283026
v 0.23134665 0.91820993 -0.68232175
v 0.29345305 0.88018650 -0.54875810
v 0.33562181 0.88018650 -0.39580178
v 0.35511407 0.88018650 -0.26068911
v 0.34896232 0.88018650 -0.16398977
v 0.31810311 0.88018650 -0.12042535
v 0.26723447 0.88018650 -0.13662815
v 0.20410068 0.88018650 -0.21013143
v 0.13831331 0.88018650 -0.32974498
v 7.9887869e-2 0.88018650 -0.47725873
v 3.7719113e-2 0.88018650 -0.63021505
v 1.8226849e-2 0.88018650 -0.76532772
v 2.4378598e-2 0.88018650 -0.86202706
v 5.5237813e-2 0.88018650 -0.90559147
v 0.10610646 0.88018650 -0.88938868
v 0.16924024 0.88018650 -0.81588540
v 0.23502762 0.88018650 -0.69627185
vn 0.33139471 0.93694622 -0.11094744
vn 0.32191550 0.94428426 -6.8539355e-2
vn 0.26762827 0.96341052 -1.4672611e-2
vn 0.16770568 0.98479916 4.5226395e-2
vn 3.3531988e-2 0.99440630 0.10015845
vn -0.10666994 0.98479916 0.13708445
vn -0.22251549 0.96341052 0.14942233
vn -0.29829263 0.94428426 0.13909975
vn -0.33139471 0.93694622 0.11094744
vn -0.32191550 0.94428426 6.8539355e-2
vn -0.26762827 0.96341052 1.4672611e-2
vn -0.16770568 0.98479916 -4.5226395e-2
vn -3.3531988e-2 0.99440630 -0.10015845
vn 0.10666994 0.98479916 -0.13708445
vn 0.22251549 0.96341052 -0.14942233
vn 0.29829263 0.94428426 -0.13909975
vn 0.63069654 0.74675119 -0.21115052
vn 0.62509399 0.76924084 -0.13238594
vn 0.55041159 0.83441731 -2.8192935e-2
vn 0.37179166 0.92242345 0.10443149
vn 7.8804857e-2 0.96870174 0.23538636
vn -0.23397035 0.92242345 0.30723419
vn -0.45643738 0.83441731 0.30888943
vn -0.57879966 0.76924084 0.27066490
vn -0.63069654 0.74675119 0.21115052
vn -0.62509399 0.76924084 0.13238594
vn -0.55041159 0.83441731 2.8192935e-2
vn -0.37179166 0.92242345 -0.10443149
vn -7.8804857e-2 0.96870174 -0.23538636
vn 0.23397035 0.92242345 -0.30723419
vn 0.45643738 0.83441731 -0.30888943
vn 0.57879966 0.76924084 -0.27066490
vn 0.85996316 0.42139434 -0.28790655
vn 0.87595577 0.44588975 -0.18407561
vn 0.84775863 0.52902651 -3.7898087e-2
vn 0.68746231 0.69282505 0.21769019
vn 0.17847813 0.82700901 0.53310568
vn -0.41781746 0.69282505 0.58772614
vn -0.69969021 0.52902651 0.48017139
vn -0.81021610 0.44588975 0.38043687
vn -0.85996316 0.42139434 0.28790655
vn -0.87595577 0.44588975 0.18407561
vn -0.84775863 0.52902651 3.7898087e-2
vn -0.68746231 0.69282505 -0.21769019
vn -0.17847813 0.82700901 -0.53310568
vn 0.41781746 0.69282505 -0.58772614
vn 0.69969021 0.52902651 -0.48017139
vn 0.81021610 0.44588975 -0.38043687
vn 0.94679620 -5.7526033e-2 0.31665077
vn 0.31636833 8.3242365e-2 0.94497714
vn -0.56529267 -5.7526033e-2 0.82288210
vn 0.92505371 0.21991517 -0.30969818
vn 0.92505371 0.21991517 -0.30969818
vn 0.0000000e+0 -1.00000000 -4.8617320e-17
vn 0.95092662 0.23683762 -0.19911429
vn 0.95092662 0.23683762 -0.19911429
vn 0.0000000e+0 -1.00000000 -4.8617320e-17
vn 0.97750362 -0.20698377 -4.0551085e-2
vn 0.97750362 -0.20698377 -4.0551085e-2
vn 0.97750362 -0.20698377 -4.0551085e-2
vn -0.80487926 -0.20698377 0.55617182
vn -0.80487926 -0.20698377 0.55617182
vn -0.80487926 -0.20698377 0.55617182
vn -0.87912943 0.23683762 0.41356909
vn -0.87912943 0.23683762 0.41356909
vn 0.0000000e+0 -1.00000000 -4.8617320e-17
vn -0.92505371 0.21991517 0.30969818
vn -0.92505371 0.21991517 0.30969818
vn 0.0000000e+0 -1.00000000 -4.8617320e-17
vn -0.95092662 0.23683762 0.19911429
vn -0.95092662 0.23683762 0.19911429
vn 0.0000000e+0 -1.00000000 -4.8617320e-17
vn -0.95270922 0.30130237 3.9522506e-2
vn -0.95270922 0.30130237 3.9522506e-2
vn 0.0000000e+0 -1.00000000 -4.8617320e-17
vn -0.83804215 0.46811245 -0.28027858
vn -0.83804215 0.46811245 -0.28027858
vn 0.0000000e+0 -1.00000000 -4.8617320e-17
vn -0.24443124 0.63812290 -0.73010446
vn -0.24443124 0.63812290 -0.73010446
vn 0.0000000e+0 -1.00000000 -4.8617320e-17
vn 0.50036015 0.46811245 -0.72836149
vn 0.50036015 0.46811245 -0.72836149
vn 0.0000000e+0 -1.00000000 -4.8617320e-17
vn 0.78446348 0.30130237 -0.54206451
vn 0.78446348 0.30130237 -0.54206451
vn 0.0000000e+0 -1.00000000 -4.8617320e-17
vn 0.87912943 0.23683762 -0.41356909
vn 0.87912943 0.23683762 -0.41356909
vn 0.0000000e+0 -1.00000000 -4.8617320e-17
g sphere4_cut7_pie-crust
usemtl pie-crust
f 1//1 16//16 15//15 14//14 13//13 12//12 11//11 10//10 9//9 8//8 7//7 6//6 5//5 4//4 3//3 2//2
f 1//1 17//17 32//32 16//16
f 2//2 18//18 17//17 1//1
f 3//3 19//19 18//18 2//2
f 4//4 20//20 19//19 3//3
f 5//5 21//21 20//20 4//4
f 6//6 22//22 21//21 5//5
f 7//7 23//23 22//22 6//6
f 8//8 24//24 23//23 7//7
f 9//9 25//25 24//24 8//8
f 10//10 26//26 25//25 9//9
f 11//11 27//27 26//26 10//10
f 12//12 28//28 27//27 11//11
f 13//13 29//29 28//28 12//12
f 14//14 30//30 29//29 13//13
f 15//15 31//31 30//30 14//14
f 16//16 32//32 31//31 15//15
f 17//17 33//33 48//48 32//32
f 18//18 34//34 33//33 17//17
f 19//19 35//35 34//34 18//18
f 20//20 36//36 35//35 19//19
f 21//21 37//37 36//36 20//20
f 22//22 38//38 37//37 21//21
f 23//23 39//39 38//38 22//22
f 24//24 40//40 39//39 23//23
f 25//25 41//41 40//40 24//24
f 26//26 42//42 41//41 25//25
f 27//27 43//43 42//42 26//26
f 28//28 44//44 43//43 27//27
f 29//29 45//45 44//44 28//28
f 30//30 46//46 45//45 29//29
f 31//31 47//47 46//46 30//30
f 32//32 48//48 47//47 31//31
f 33//33 49//53 64//89 48//48
f 34//34 50//55 49//52 33//33
f 35//35 51//58 50//56 34//34
f 36//36 52//49 51//59 35//35
f 37//37 53//50 52//49 36//36
f 38//38 54//51 53//50 37//37
f 39//39 55//61 54//51 38//38
f 40//40 56//64 55//62 39//39
f 41//41 57//67 56//65 40//40
f 42//42 58//70 57//68 41//41
f 43//43 59//73 58//71 42//42
f 44//44 60//76 59//74 43//43
f 45//45 61//79 60//77 44//44
f 46//46 62//82 61//80 45//45
f 47//47 63//85 62//83 46//46
f 48//48 64//88 63//86 47//47
f 50//57 51//60 52//49 53//50 54//51 55//63 56//66 57//69 58//72 59//75 60//78 61//81 62//84 63//87 64//90 49//54
o sphere3_cut6
#64 vertices, 50 faces
v 0.50917998 0.94166976 -1.3452859e-2
v 0.50114009 0.94166976 2.6966405e-2
v 0.47824441 0.94166976 6.1232203e-2
v 0.44397861 0.94166976 8.4127877e-2
v 0.40355935 0.94166976 9.2167768e-2
v 0.36314009 0.94166976 8.4127877e-2
v 0.32887429 0.94166976 6.1232203e-2
v 0.30597861 0.94166976 2.6966405e-2
v 0.29793872 0.94166976 -1.3452859e-2
v 0.30597861 0.94166976 -5.3872123e-2
v 0.32887429 0.94166976 -8.8137921e-2
v 0.36314009 0.94166976 -0.11103360
v 0.40355935 0.94166976 -0.11907349
v 0.44397861 0.94166976 -0.11103360
v 0.47824441 0.94166976 -8.8137921e-2
v 0.50114009 0.94166976 -5.3872123e-2
v 0.59872082 0.92731073 -1.3452859e-2
v 0.58386504 0.92731073 6.1232203e-2
v 0.54155935 0.92731073 0.12454714
v 0.47824441 0.92731073 0.16685283
v 0.40355935 0.92731073 0.18170861
v 0.32887429 0.92731073 0.16685283
v 0.26555935 0.92731073 0.12454714
v 0.22325366 0.92731073 6.1232203e-2
v 0.20839788 0.92731073 -1.3452859e-2
v 0.22325366 0.92731073 -8.8137921e-2
v 0.26555935 0.92731073 -0.15145286
v 0.32887429 0.92731073 -0.19375855
v 0.40355935 0.92731073 -0.20861433
v 0.47824441 0.92731073 -0.19375855
v 0.54155935 0.92731073 -0.15145286
v 0.58386504 0.92731073 -8.8137921e-2
v 0.65855010 0.90582093 -1.3452859e-2
v 0.63914009 0.90582093 8.4127877e-2
v 0.58386504 0.90582093 0.16685283
v 0.50114009 0.90582093 0.22212788
v 0.40355935 0.90582093 0.24153789
v 0.30597861 0.90582093 0.22212788
v 0.22325366 0.90582093 0.16685283
v 0.16797861 0.90582093 8.4127877e-2
v 0.14856860 0.90582093 -1.3452859e-2
v 0.16797861 0.90582093 -0.11103360
v 0.22325366 0.90582093 -0.19375855
v 0.30597861 0.90582093 -0.24903360
v 0.40355935 0.90582093 -0.26844361
v 0.50114009 0.90582093 -0.24903360
v 0.58386504 0.90582093 -0.19375855
v 0.63914009 0.90582093 -0.11103360
v 0.67955935 0.88047198 -1.3452859e-2
v 0.65855010 0.88047198 9.2167768e-2
v 0.59872082 0.88047198 0.18170861
v 0.50917998 0.88047198 0.24153789
v 0.40355935 0.88047198 0.26254714
v 0.29793872 0.88047198 0.24153789
v 0.20839788 0.88047198 0.18170861
v 0.14856860 0.88047198 9.2167768e-2
v 0.12755935 0.88047198 -1.3452859e-2
v 0.14856860 0.88047198 -0.11907349
v 0.20839788 0.88047198 -0.20861433
v 0.29793872 0.88047198 -0.26844361
v 0.40355935 0.88047198 -0.28945286
v 0.50917998 0.88047198 -0.26844361
v 0.59872082 0.88047198 -0.20861433
v 0.65855010 0.88047198 -0.11907349
vn 0.10583963 0.99438321 2.5402129e-16
vn 9.7783066e-2 0.99438321 4.0503072e-2
vn 7.4839919e-2 0.99438321 7.4839919e-2
vn 4.0503072e-2 0.99438321 9.7783066e-2
vn 1.6241708e-17 0.99438321 0.10583963
vn -4.0503072e-2 0.99438321 9.7783066e-2
vn -7.4839919e-2 0.99438321 7.4839919e-2
vn -9.7783066e-2 0.99438321 4.0503072e-2
vn -0.10583963 0.99438321 2.3081885e-16
vn -9.7783066e-2 0.99438321 -4.0503072e-2
vn -7.4839919e-2 0.99438321 -7.4839919e-2
vn -4.0503072e-2 0.99438321 -9.7783066e-2
vn 1.6241708e-17 0.99438321 -0.10583963
vn 4.0503072e-2 0.99438321 -9.7783066e-2
vn 7.4839919e-2 0.99438321 -7.4839919e-2
vn 9.7783066e-2 0.99438321 -4.0503072e-2
vn 0.24918601 0.96845564 -1.1514597e-16
vn 0.23021785 0.96845564 9.5359357e-2
vn 0.17620112 0.96845564 0.17620112
vn 9.5359357e-2 0.96845564 0.23021785
vn 1.3957087e-17 0.96845564 0.24918601
vn -9.5359357e-2 0.96845564 0.23021785
vn -0.17620112 0.96845564 0.17620112
vn -0.23021785 0.96845564 9.5359357e-2
vn -0.24918601 0.96845564 2.5820611e-16
vn -0.23021785 0.96845564 -9.5359357e-2
vn -0.17620112 0.96845564 -0.17620112
vn -9.5359357e-2 0.96845564 -0.23021785
vn 1.9539922e-16 0.96845564 -0.24918601
vn 9.5359357e-2 0.96845564 -0.23021785
vn 0.17620112 0.96845564 -0.17620112
vn 0.23021785 0.96845564 -9.5359357e-2
vn 0.57328519 0.81935590 -2.7525660e-16
vn 0.52964645 0.81935590 0.21938674
vn 0.40537384 0.81935590 0.40537384
vn 0.21938674 0.81935590 0.52964645
vn -7.2435946e-18 0.81935590 0.57328519
vn -0.21938674 0.81935590 0.52964645
vn -0.40537384 0.81935590 0.40537384
vn -0.52964645 0.81935590 0.21938674
vn -0.57328519 0.81935590 5.2878241e-16
vn -0.52964645 0.81935590 -0.21938674
vn -0.40537384 0.81935590 -0.40537384
vn -0.21938674 0.81935590 -0.52964645
vn 2.5352581e-16 0.81935590 -0.57328519
vn 0.21938674 0.81935590 -0.52964645
vn 0.40537384 0.81935590 -0.40537384
vn 0.52964645 0.81935590 -0.21938674
vn 0.76993452 0.63812290 -2.8079189e-16
vn 0.76993452 0.63812290 -2.8079189e-16
vn 0.0000000e+0 -1.00000000 -2.0827660e-16
vn 0.71132674 0.63812290 0.29464118
vn 0.71132674 0.63812290 0.29464118
vn 0.0000000e+0 -1.00000000 -2.0827660e-16
vn 0.54442592 0.63812290 0.54442592
vn 0.54442592 0.63812290 0.54442592
vn 0.0000000e+0 -1.00000000 -2.0827660e-16
vn 0.29464118 0.63812290 0.71132674
vn 0.29464118 0.63812290 0.71132674
vn 0.0000000e+0 -1.00000000 -2.0827660e-16
vn -1.4039595e-17 0.63812290 0.76993452
vn -1.4039595e-17 0.63812290 0.76993452
vn 0.0000000e+0 -1.00000000 -2.0827660e-16
vn -0.29464118 0.63812290 0.71132674
vn -0.29464118 0.63812290 0.71132674
vn 0.0000000e+0 -1.00000000 -2.0827660e-16
vn -0.54442592 0.63812290 0.54442592
vn -0.54442592 0.63812290 0.54442592
vn 0.0000000e+0 -1.00000000 -2.0827660e-16
vn -0.71132674 0.63812290 0.29464118
vn -0.71132674 0.63812290 0.29464118
vn 0.0000000e+0 -1.00000000 -2.0827660e-16
vn -0.76993452 0.63812290 4.9138581e-16
vn -0.76993452 0.63812290 4.9138581e-16
vn 0.0000000e+0 -1.00000000 -2.0827660e-16
vn -0.71132674 0.63812290 -0.29464118
vn -0.71132674 0.63812290 -0.29464118
vn 0.0000000e+0 -1.00000000 -2.0827660e-16
vn -0.69689424 0.16934236 -0.69689424
vn -0.69689424 0.16934236 -0.69689424
vn -0.69689424 0.16934236 -0.69689424
vn -0.37715645 0.16934236 -0.91053621
vn -0.37715645 0.16934236 -0.91053621
vn -0.37715645 0.16934236 -0.91053621
vn 1.2635635e-16 0.63812290 -0.76993452
vn 1.2635635e-16 0.63812290 -0.76993452
vn 0.0000000e+0 -1.00000000 -2.0827660e-16
vn 0.29464118 0.63812290 -0.71132674
vn 0.29464118 0.63812290 -0.71132674
vn 0.0000000e+0 -1.00000000 -2.0827660e-16
vn 0.54442592 0.63812290 -0.54442592
vn 0.54442592 0.63812290 -0.54442592
vn 0.0000000e+0 -1.00000000 -2.0827660e-16
vn 0.71132674 0.63812290 -0.29464118
vn 0.71132674 0.63812290 -0.29464118
vn 0.0000000e+0 -1.00000000 -2.0827660e-16
g sphere3_cut6_pie-crust
usemtl pie-crust
f 65//91 80//106 79//105 78//104 77//103 76//102 75//101 74//100 73//99 72//98 71//97 70//96 69//95 68//94 67//93 66//92
f 65//91 81//107 96//122 80//106
f 66//92 82//108 81//107 65//91
f 67//93 83//109 82//108 66//92
f 68//94 84//110 83//109 67//93
f 69//95 85//111 84//110 68//94
f 70//96 86//112 85//111 69//95
f 71//97 87//113 86//112 70//96
f 72//98 88//114 87//113 71//97
f 73//99 89//115 88//114 72//98
f 74//100 90//116 89//115 73//99
f 75//101 91//117 90//116 74//100
f 76//102 92//118 91//117 75//101
f 77//103 93//119 92//118 76//102
f 78//104 94//120 93//119 77//103
f 79//105 95//121 94//120 78//104
f 80//106 96//122 95//121 79//105
f 81//107 97//123 112//138 96//122
f 82//108 98//124 97//123 81//107
f 83//109 99//125 98//124 82//108
f 84//110 100//126 99//125 83//109
f 85//111 101//127 100//126 84//110
f 86//112 102//128 101//127 85//111
f 87//113 103//129 102//128 86//112
f 88//114 104//130 103//129 87//113
f 89//115 105//131 104//130 88//114
f 90//116 106//132 105//131 89//115
f 91//117 107//133 106//132 90//116
f 92//118 108//134 107//133 91//117
f 93//119 109//135 108//134 92//118
f 94//120 110//136 109//135 93//119
f 95//121 111//137 110//136 94//120
f 96//122 112//138 111//137 95//121
f 97//123 113//140 128//185 112//138
f 98//124 114//142 113//139 97//123
f 99//125 115//145 114//143 98//124
f 100//126 116//148 115//146 99//125
f 101//127 117//151 116//149 100//126
f 102//128 118//154 117//152 101//127
f 103//129 119//157 118//155 102//128
f 104//130 120//160 119//158 103//129
f 105//131 121//163 120//161 104//130
f 106//132 122//166 121//164 105//131
f 107//133 123//169 122//167 106//132
f 108//134 124//172 123//170 107//133
f 109//135 125//175 124//173 108//134
f 110//136 126//178 125//176 109//135
f 111//137 127//181 126//179 110//136
f 112//138 128//184 127//182 111//137
f 114//144 115//147 116//150 117//153 118//156 119//159 120//162 121//165 122//168 123//171 124//174 125//177 126//180 127//183 128//186 113//141
o sphere2_cut5
#64 vertices, 50 faces
v 7.8187691e-2 0.97442371 0.43988047
v 6.6011334e-2 0.97442371 0.50109516
v 3.1336002e-2 0.97442371 0.55299046
v -2.0559301e-2 0.97442371 0.58766579
v -8.1773983e-2 0.97442371 0.59984215
v -0.14298867 0.97442371 0.58766579
v -0.19488397 0.97442371 0.55299046
v -0.22955930 0.97442371 0.50109516
v -0.24173566 0.97442371 0.43988047
v -0.22955930 0.97442371 0.37866579
v -0.19488397 0.97442371 0.32677049
v -0.14298867 0.97442371 0.29209516
v -8.1773983e-2 0.97442371 0.27991880
v -2.0559301e-2 0.97442371 0.29209516
v 3.1336002e-2 0.97442371 0.32677049
v 6.6011334e-2 0.97442371 0.37866579
v 0.21379665 0.95267707 0.43988047
v 0.19129768 0.95267707 0.55299046
v 0.12722602 0.95267707 0.64888047
v 3.1336002e-2 0.95267707 0.71295213
v -8.1773983e-2 0.95267707 0.73545111
v -0.19488397 0.95267707 0.71295213
v -0.29077398 0.95267707 0.64888047
v -0.35484564 0.95267707 0.55299046
v -0.37734462 0.95267707 0.43988047
v -0.35484564 0.95267707 0.32677049
v -0.29077398 0.95267707 0.23088047
v -0.19488397 0.95267707 0.16680881
v -8.1773983e-2 0.95267707 0.14430984
v 3.1336002e-2 0.95267707 0.16680881
v 0.12722602 0.95267707 0.23088047
v 0.19129768 0.95267707 0.32677049
v 0.30440766 0.92013092 0.43988047
v 0.27501133 0.92013092 0.58766579
v 0.19129768 0.92013092 0.71295213
v 6.6011334e-2 0.92013092 0.79666579
v -8.1773983e-2 0.92013092 0.82606212
v -0.22955930 0.92013092 0.79666579
v -0.35484564 0.92013092 0.71295213
v -0.43855930 0.92013092 0.58766579
v -0.46795563 0.92013092 0.43988047
v -0.43855930 0.92013092 0.29209516
v -0.35484564 0.92013092 0.16680881
v -0.22955930 0.92013092 8.3095157e-2
v -8.1773983e-2 0.92013092 5.3698829e-2
v 6.6011334e-2 0.92013092 8.3095157e-2
v 0.19129768 0.92013092 0.16680881
v 0.27501133 0.92013092 0.29209516
v 0.33622602 0.88174012 0.43988047
v 0.30440766 0.88174012 0.59984215
v 0.21379665 0.88174012 0.73545111
v 7.8187691e-2 0.88174012 0.82606212
v -8.1773983e-2 0.88174012 0.85788047
v -0.24173566 0.88174012 0.82606212
v -0.37734462 0.88174012 0.73545111
v -0.46795563 0.88174012 0.59984215
v -0.49977398 0.88174012 0.43988047
v -0.46795563 0.88174012 0.27991880
v -0.37734462 0.88174012 0.14430984
v -0.24173566 0.88174012 5.3698829e-2
v -8.1773983e-2 0.88174012 2.1880474e-2
v 7.8187691e-2 0.88174012 5.3698829e-2
v 0.21379665 0.88174012 0.14430984
v 0.30440766 0.88174012 0.27991880
vn 0.10583963 0.99438321 -1.2430507e-16
vn 9.7783066e-2 0.99438321 4.0503072e-2
vn 7.4839919e-2 0.99438321 7.4839919e-2
vn 4.0503072e-2 0.99438321 9.7783066e-2
vn 1.9722073e-16 0.99438321 0.10583963
vn -4.0503072e-2 0.99438321 9.7783066e-2
vn -7.4839919e-2 0.99438321 7.4839919e-2
vn -9.7783066e-2 0.99438321 4.0503072e-2
vn -0.10583963 0.99438321 -2.2214338e-17
vn -9.7783066e-2 0.99438321 -4.0503072e-2
vn -7.4839919e-2 0.99438321 -7.4839919e-2
vn -4.0503072e-2 0.99438321 -9.7783066e-2
vn 3.4803659e-17 0.99438321 -0.10583963
vn 4.0503072e-2 0.99438321 -9.7783066e-2
vn 7.4839919e-2 0.99438321 -7.4839919e-2
vn 9.7783066e-2 0.99438321 -4.0503072e-2
vn 0.24918601 0.96845564 -1.3608160e-16
vn 0.23021785 0.96845564 9.5359357e-2
vn 0.17620112 0.96845564 0.17620112
vn 9.5359357e-2 0.96845564 0.23021785
vn 1.5003869e-16 0.96845564 0.24918601
vn -9.5359357e-2 0.96845564 0.23021785
vn -0.17620112 0.96845564 0.17620112
vn -0.23021785 0.96845564 9.5359357e-2
vn -0.24918601 0.96845564 -3.4892718e-18
vn -0.23021785 0.96845564 -9.5359357e-2
vn -0.17620112 0.96845564 -0.17620112
vn -9.5359357e-2 0.96845564 -0.23021785
vn -2.7914174e-17 0.96845564 -0.24918601
vn 9.5359357e-2 0.96845564 -0.23021785
vn 0.17620112 0.96845564 -0.17620112
vn 0.23021785 0.96845564 -9.5359357e-2
vn 0.57328519 0.81935590 -2.1006424e-16
vn 0.52964645 0.81935590 0.21938674
vn 0.40537384 0.81935590 0.40537384
vn 0.21938674 0.81935590 0.52964645
vn 7.2435946e-18 0.81935590 0.57328519
vn -0.21938674 0.81935590 0.52964645
vn -0.40537384 0.81935590 0.40537384
vn -0.52964645 0.81935590 0.21938674
vn -0.57328519 0.81935590 -1.4487189e-17
vn -0.52964645 0.81935590 -0.21938674
vn -0.40537384 0.81935590 -0.40537384
vn -0.21938674 0.81935590 -0.52964645
vn 1.2314111e-16 0.81935590 -0.57328519
vn 0.21938674 0.81935590 -0.52964645
vn 0.40537384 0.81935590 -0.40537384
vn 0.52964645 0.81935590 -0.21938674
vn 0.76993452 0.63812290 -2.8079189e-16
vn 0.76993452 0.63812290 -2.8079189e-16
vn 0.0000000e+0 -1.00000000 2.5944065e-17
vn 0.71132674 0.63812290 0.29464118
vn 0.71132674 0.63812290 0.29464118
vn 0.0000000e+0 -1.00000000 2.5944065e-17
vn 0.54442592 0.63812290 0.54442592
vn 0.54442592 0.63812290 0.54442592
vn 0.0000000e+0 -1.00000000 2.5944065e-17
vn 0.29464118 0.63812290 0.71132674
vn 0.29464118 0.63812290 0.71132674
vn 0.0000000e+0 -1.00000000 2.5944065e-17
vn 1.4039595e-17 0.63812290 0.76993452
vn 1.4039595e-17 0.63812290 0.76993452
vn 0.0000000e+0 -1.00000000 2.5944065e-17
vn -0.29464118 0.63812290 0.71132674
vn -0.29464118 0.63812290 0.71132674
vn 0.0000000e+0 -1.00000000 2.5944065e-17
vn -0.54442592 0.63812290 0.54442592
vn -0.54442592 0.63812290 0.54442592
vn 0.0000000e+0 -1.00000000 2.5944065e-17
vn -0.71132674 0.63812290 0.29464118
vn -0.71132674 0.63812290 0.29464118
vn 0.0000000e+0 -1.00000000 2.5944065e-17
vn -0.76993452 0.63812290 -1.4039595e-17
vn -0.76993452 0.63812290 -1.4039595e-17
vn 0.0000000e+0 -1.00000000 2.5944065e-17
vn -0.71132674 0.63812290 -0.29464118
vn -0.71132674 0.63812290 -0.29464118
vn 0.0000000e+0 -1.00000000 2.5944065e-17
vn -0.54442592 0.63812290 -0.54442592
vn -0.54442592 0.63812290 -0.54442592
vn 0.0000000e+0 -1.00000000 2.5944065e-17
vn -0.29464118 0.63812290 -0.71132674
vn -0.29464118 0.63812290 -0.71132674
vn 0.0000000e+0 -1.00000000 2.5944065e-17
vn 3.3695027e-16 0.63812290 -0.76993452
vn 3.3695027e-16 0.63812290 -0.76993452
vn 0.0000000e+0 -1.00000000 2.5944065e-17
vn 0.29464118 0.63812290 -0.71132674
vn 0.29464118 0.63812290 -0.71132674
vn 0.0000000e+0 -1.00000000 2.5944065e-17
vn 0.54442592 0.63812290 -0.54442592
vn 0.54442592 0.63812290 -0.54442592
vn 0.0000000e+0 -1.00000000 2.5944065e-17
vn 0.71132674 0.63812290 -0.29464118
vn 0.71132674 0.63812290 -0.29464118
vn 0.0000000e+0 -1.00000000 2.5944065e-17
g sphere2_cut5_pie-crust
usemtl pie-crust
f 129//187 144//202 143//201 142//200 141//199 140//198 139//197 138//196 137//195 136//194 135//193 134//192 133//191 132//190 131//189 130//188
f 129//187 145//203 160//218 144//202
f 130//188 146//204 145//203 129//187
f 131//189 147//205 146//204 130//188
f 132//190 148//206 147//205 131//189
f 133//191 149//207 148//206 132//190
f 134//192 150//208 149//207 133//191
f 135//193 151//209 150//208 134//192
f 136//194 152//210 151//209 135//193
f 137//195 153//211 152//210 136//194
f 138//196 154//212 153//211 137//195
f 139//197 155//213 154//212 138//196
f 140//198 156//214 155//213 139//197
f 141//199 157//215 156//214 140//198
f 142//200 158//216 157//215 141//199
f 143//201 159//217 158//216 142//200
f 144//202 160//218 159//217 143//201
f 145//203 161//219 176//234 160//218
f 146//204 162//220 161//219 145//203
f 147//205 163//221 162//220 146//204
f 148//206 164//222 163//221 147//205
f 149//207 165//223 164//222 148//206
f 150//208 166//224 165//223 149//207
f 151//209 167//225 166//224 150//208
f 152//210 168//226 167//225 151//209
f 153//211 169//227 168//226 152//210
f 154//212 170//228 169//227 153//211
f 155//213 171//229 170//228 154//212
f 156//214 172//230 171//229 155//213
f 157//215 173//231 172//230 156//214
f 158//216 174//232 173//231 157//215
f 159//217 175//233 174//232 158//216
f 160//218 176//234 175//233 159//217
f 161//219 177//236 192//281 176//234
f 162//220 178//238 177//235 161//219
f 163//221 179//241 178//239 162//220
f 164//222 180//244 179//242 163//221
f 165//223 181//247 180//245 164//222
f 166//224 182//250 181//248 165//223
f 167//225 183//253 182//251 166//224
f 168//226 184//256 183//254 167//225
f 169//227 185//259 184//257 168//226
f 170//228 186//262 185//260 169//227
f 171//229 187//265 186//263 170//228
f 172//230 188//268 187//266 171//229
f 173//231 189//271 188//269 172//230
f 174//232 190//274 189//272 173//231
f 175//233 191//277 190//275 174//232
f 176//234 192//280 191//278 175//233
f 178//240 179//243 180//246 181//249 182//252 183//255 184//258 185//261 186//264 187//267 188//270 189//273 190//276 191//279 192//282 177//237
o cylinder1
#401 vertices, 371 faces
v 0.98096988 6.3628363e-3 -7.6327833e-17
v 0.90629800 6.3628363e-3 0.37540092
v 0.69365046 6.3628363e-3 0.69365046
v 0.37540092 6.3628363e-3 0.90629800
v 6.2450045e-17 6.3628363e-3 0.98096988
v -0.37540092 6.3628363e-3 0.90629800
v -0.69365046 6.3628363e-3 0.69365046
v -0.90629800 6.3628363e-3 0.37540092
v -0.98096988 6.3628363e-3 1.1796120e-16
v -0.90629800 6.3628363e-3 -0.37540092
v -0.69365046 6.3628363e-3 -0.69365046
v -0.37540092 6.3628363e-3 -0.90629800
v -1.8041124e-16 6.3628363e-3 -0.98096988
v 0.37540092 6.3628363e-3 -0.90629800
v 0.69365046 6.3628363e-3 -0.69365046
v 0.90629800 6.3628363e-3 -0.37540092
v 1.26108896 0.53727913 -7.6327833e-17
v 1.16509428 0.53727913 0.48259785
v 0.89172456 0.53727913 0.89172456
v 0.48259785 0.53727913 1.16509428
v 1.2490009e-16 0.53727913 1.26108896
v -0.48259785 0.53727913 1.16509428
v -0.89172456 0.53727913 0.89172456
v -1.16509428 0.53727913 0.48259785
v -1.26108896 0.53727913 1.8041124e-16
v -1.16509428 0.53727913 -0.48259785
v -0.89172456 0.53727913 -0.89172456
v -0.48259785 0.53727913 -1.16509428
v -1.9428903e-16 0.53727913 -1.26108896
v 0.48259785 0.53727913 -1.16509428
v 0.89172456 0.53727913 -0.89172456
v 1.16509428 0.53727913 -0.48259785
v 1.05483488 0.89356980 0.43692691
v 1.14174504 0.89356980 -2.7755576e-17
v 1.05483488 0.89356980 -0.43692691
v 0.80733566 0.89356980 -0.80733566
v 0.43692691 0.89356980 -1.05483488
v -1.8735014e-16 0.89356980 -1.14174504
v -0.43692691 0.89356980 -1.05483488
v -0.80733566 0.89356980 -0.80733566
v -1.05483488 0.89356980 -0.43692691
v -1.14174504 0.89356980 1.9428903e-16
v -1.05483488 0.89356980 0.43692691
v -0.80733566 0.89356980 0.80733566
v -0.43692691 0.89356980 1.05483488
v 1.2490009e-16 0.89356980 1.14174504
v 0.43692691 0.89356980 1.05483488
v 0.80733566 0.89356980 0.80733566
v 1.43802953 0.64640795 -1.2490009e-16
v 1.32856605 0.64640795 0.55031008
v 1.01684043 0.64640795 1.01684043
v 0.55031008 0.64640795 1.32856605
v 1.1102230e-16 0.64640795 1.43802953
v -0.55031008 0.64640795 1.32856605
v -1.01684043 0.64640795 1.01684043
v -1.32856605 0.64640795 0.55031008
v -1.43802953 0.64640795 1.9428903e-16
v -1.32856605 0.64640795 -0.55031008
v -1.01684043 0.64640795 -1.01684043
v -0.55031008 0.64640795 -1.32856605
v -2.3592239e-16 0.64640795 -1.43802953
v 0.55031008 0.64640795 -1.32856605
v 1.01684043 0.64640795 -1.01684043
v 1.32856605 0.64640795 -0.55031008
v 1.21165510 0.82595084 0.50188398
v 1.31148603 0.82595084 -8.3792145e-17
v 1.21165510 0.82595084 -0.50188398
v 0.92736067 0.82595084 -0.92736067
v 0.50188398 0.82595084 -1.21165510
v -2.1755387e-16 0.82595084 -1.31148603
v -0.50188398 0.82595084 -1.21165510
v -0.92736067 0.82595084 -0.92736067
v -1.21165510 0.82595084 -0.50188398
v -1.31148603 0.82595084 1.8908297e-16
v -1.21165510 0.82595084 0.50188398
v -0.92736067 0.82595084 0.92736067
v -0.50188398 0.82595084 1.21165510
v 1.1401237e-16 0.82595084 1.31148603
v 0.50188398 0.82595084 1.21165510
v 0.92736067 0.82595084 0.92736067
v 1.11959600 0.89356980 0.22270149
v 1.11959600 0.89356980 -0.22270149
v 0.94914766 0.89356980 -0.63420019
v 0.63420019 0.89356980 -0.94914766
v 0.22270149 0.89356980 -1.11959600
v -0.22270149 0.89356980 -1.11959600
v -0.63420019 0.89356980 -0.94914766
v -0.94914766 0.89356980 -0.63420019
v -1.11959600 0.89356980 -0.22270149
v -1.11959600 0.89356980 0.22270149
v -0.94914766 0.89356980 0.63420019
v -0.63420019 0.89356980 0.94914766
v -0.22270149 0.89356980 1.11959600
v 0.22270149 0.89356980 1.11959600
v 0.63420019 0.89356980 0.94914766
v 0.94914766 0.89356980 0.63420019
v 1.37835757 0.74694981 -9.7144515e-17
v 1.27343635 0.74694981 0.52747461
v 0.97464599 0.74694981 0.97464599
v 0.52747461 0.74694981 1.27343635
v 1.1102230e-16 0.74694981 1.37835757
v -0.52747461 0.74694981 1.27343635
v -0.97464599 0.74694981 0.97464599
v -1.27343635 0.74694981 0.52747461
v -1.37835757 0.74694981 1.9428903e-16
v -1.27343635 0.74694981 -0.52747461
v -0.97464599 0.74694981 -0.97464599
v -0.52747461 0.74694981 -1.27343635
v -2.3592239e-16 0.74694981 -1.37835757
v 0.52747461 0.74694981 -1.27343635
v 0.97464599 0.74694981 -0.97464599
v 1.27343635 0.74694981 -0.52747461
v 1.13657076 0.88052361 0.47078302
v 1.23021533 0.88052361 -5.5511151e-17
v 1.13657076 0.88052361 -0.47078302
v 0.86989360 0.88052361 -0.86989360
v 0.47078302 0.88052361 -1.13657076
v -1.8735014e-16 0.88052361 -1.23021533
v -0.47078302 0.88052361 -1.13657076
v -0.86989360 0.88052361 -0.86989360
v -1.13657076 0.88052361 -0.47078302
v -1.23021533 0.88052361 1.8735014e-16
v -1.13657076 0.88052361 0.47078302
v -0.86989360 0.88052361 0.86989360
v -0.47078302 0.88052361 1.13657076
v 1.2490009e-16 0.88052361 1.23021533
v 0.47078302 0.88052361 1.13657076
v 0.86989360 0.88052361 0.86989360
v -0.25581008 0.82595084 1.28604414
v 0.79877606 0.64640795 1.19545285
v 0.25581008 0.82595084 -1.28604414
v 0.72848548 0.82595084 -1.09025557
v -1.28604414 0.82595084 0.25581008
v 0.79877606 0.64640795 -1.19545285
v 1.09025557 0.82595084 -0.72848548
v -0.79877606 0.64640795 1.19545285
v 0.72848548 0.82595084 1.09025557
v -1.19545285 0.64640795 -0.79877606
v 0.28049285 0.64640795 1.41013278
v -0.28049285 0.64640795 -1.41013278
v 1.28604414 0.82595084 0.25581008
v -0.72848548 0.82595084 -1.09025557
v 1.19545285 0.64640795 -0.79877606
v -1.09025557 0.82595084 0.72848548
v -1.28604414 0.82595084 -0.25581008
v -1.41013278 0.64640795 0.28049285
v -0.79877606 0.64640795 -1.19545285
v 1.41013278 0.64640795 0.28049285
v -1.19545285 0.64640795 0.79877606
v 1.28604414 0.82595084 -0.25581008
v -0.25581008 0.82595084 -1.28604414
v -1.41013278 0.64640795 -0.28049285
v -0.28049285 0.64640795 1.41013278
v 1.41013278 0.64640795 -0.28049285
v 1.09025557 0.82595084 0.72848548
v -1.09025557 0.82595084 -0.72848548
v 0.28049285 0.64640795 -1.41013278
v 1.19545285 0.64640795 0.79877606
v -0.72848548 0.82595084 1.09025557
v 0.25581008 0.82595084 1.28604414
v -0.76563033 0.74694981 1.14584677
v -1.14584677 0.74694981 -0.76563033
v 1.35161842 0.74694981 0.26885362
v 1.14584677 0.74694981 0.76563033
v -1.35161842 0.74694981 -0.26885362
v 1.14584677 0.74694981 -0.76563033
v 0.26885362 0.74694981 1.35161842
v -0.26885362 0.74694981 -1.35161842
v 0.76563033 0.74694981 -1.14584677
v -0.26885362 0.74694981 1.35161842
v 0.26885362 0.74694981 -1.35161842
v 0.76563033 0.74694981 1.14584677
v -1.14584677 0.74694981 0.76563033
v -1.35161842 0.74694981 0.26885362
v -0.76563033 0.74694981 -1.14584677
v 1.35161842 0.74694981 -0.26885362
v -0.23995794 0.88052361 1.20635003
v 0.23995794 0.88052361 -1.20635003
v 0.68334240 0.88052361 -1.02269417
v -1.20635003 0.88052361 0.23995794
v 1.02269417 0.88052361 -0.68334240
v 0.68334240 0.88052361 1.02269417
v 1.20635003 0.88052361 0.23995794
v -0.68334240 0.88052361 -1.02269417
v -1.02269417 0.88052361 0.68334240
v -1.20635003 0.88052361 -0.23995794
v 1.20635003 0.88052361 -0.23995794
v -0.23995794 0.88052361 -1.20635003
v 1.02269417 0.88052361 0.68334240
v -1.02269417 0.88052361 -0.68334240
v -0.68334240 0.88052361 1.02269417
v 0.23995794 0.88052361 1.20635003
v 0.96193977 6.3628363e-3 0.19134172
v 0.96193977 6.3628363e-3 -0.19134172
v 0.81549316 6.3628363e-3 0.54489511
v 0.54489511 6.3628363e-3 0.81549316
v 0.19134172 6.3628363e-3 0.96193977
v -0.19134172 6.3628363e-3 0.96193977
v -0.54489511 6.3628363e-3 0.81549316
v -0.81549316 6.3628363e-3 0.54489511
v -0.96193977 6.3628363e-3 0.19134172
v -0.96193977 6.3628363e-3 -0.19134172
v -0.81549316 6.3628363e-3 -0.54489511
v -0.54489511 6.3628363e-3 -0.81549316
v -0.19134172 6.3628363e-3 -0.96193977
v 0.19134172 6.3628363e-3 -0.96193977
v 0.54489511 6.3628363e-3 -0.81549316
v 0.81549316 6.3628363e-3 -0.54489511
v 1.12102942 0.27182098 -8.3266727e-17
v 1.03569614 0.27182098 0.42899939
v 0.79268751 0.27182098 0.79268751
v 0.42899939 0.27182098 1.03569614
v 9.7144515e-17 0.27182098 1.12102942
v -0.42899939 0.27182098 1.03569614
v -0.79268751 0.27182098 0.79268751
v -1.03569614 0.27182098 0.42899939
v -1.12102942 0.27182098 1.3877788e-16
v -1.03569614 0.27182098 -0.42899939
v -0.79268751 0.27182098 -0.79268751
v -0.42899939 0.27182098 -1.03569614
v -1.8735014e-16 0.27182098 -1.12102942
v 0.42899939 0.27182098 -1.03569614
v 0.79268751 0.27182098 -0.79268751
v 1.03569614 0.27182098 -0.42899939
v -0.70049164 0.53727913 1.04835983
v -1.04835983 0.53727913 -0.70049164
v 1.23662474 0.53727913 0.24597995
v 1.04835983 0.53727913 0.70049164
v -1.23662474 0.53727913 -0.24597995
v 1.04835983 0.53727913 -0.70049164
v 0.24597995 0.53727913 1.23662474
v -0.24597995 0.53727913 -1.23662474
v 0.70049164 0.53727913 -1.04835983
v -0.24597995 0.53727913 1.23662474
v 1.23662474 0.53727913 -0.24597995
v 0.24597995 0.53727913 -1.23662474
v 0.70049164 0.53727913 1.04835983
v -1.04835983 0.53727913 0.70049164
v -1.23662474 0.53727913 0.24597995
v -0.70049164 0.53727913 -1.04835983
v 1.09928225 0.27182098 -0.21866083
v 0.93192649 0.27182098 -0.62269337
v 0.62269337 0.27182098 -0.93192649
v 0.21866083 0.27182098 -1.09928225
v -0.21866083 0.27182098 -1.09928225
v -0.62269337 0.27182098 -0.93192649
v -0.93192649 0.27182098 -0.62269337
v -1.09928225 0.27182098 -0.21866083
v -1.09928225 0.27182098 0.21866083
v -0.93192649 0.27182098 0.62269337
v -0.62269337 0.27182098 0.93192649
v -0.21866083 0.27182098 1.09928225
v 0.21866083 0.27182098 1.09928225
v 0.62269337 0.27182098 0.93192649
v 0.93192649 0.27182098 0.62269337
v 1.09928225 0.27182098 0.21866083
v 1.03898509 0.87624880 0.20666698
v 1.05953940 0.87624880 4.7421208e-17
v 1.03898509 0.87624880 -0.20666698
v 0.97888677 0.87624880 -0.40546817
v 0.88080903 0.87624880 -0.58853778
v 0.74920749 0.87624880 -0.74920749
v 0.58853778 0.87624880 -0.88080903
v 0.40546817 0.87624880 -0.97888677
v 0.20666698 0.87624880 -1.03898509
v -1.4496859e-16 0.87624880 -1.05953940
v -0.20666698 0.87624880 -1.03898509
v -0.40546817 0.87624880 -0.97888677
v -0.58853778 0.87624880 -0.88080903
v -0.74920749 0.87624880 -0.74920749
v -0.88080903 0.87624880 -0.58853778
v -0.97888677 0.87624880 -0.40546817
v -1.03898509 0.87624880 -0.20666698
v -1.05953940 0.87624880 1.9327994e-16
v -1.03898509 0.87624880 0.20666698
v -0.97888677 0.87624880 0.40546817
v -0.88080903 0.87624880 0.58853778
v -0.74920749 0.87624880 0.74920749
v -0.58853778 0.87624880 0.88080903
v -0.40546817 0.87624880 0.97888677
v -0.20666698 0.87624880 1.03898509
v 1.2691826e-16 0.87624880 1.05953940
v 0.20666698 0.87624880 1.03898509
v 0.40546817 0.87624880 0.97888677
v 0.58853778 0.87624880 0.88080903
v 0.74920749 0.87624880 0.74920749
v 0.88080903 0.87624880 0.58853778
v 0.97888677 0.87624880 0.40546817
v 1.01604548 0.89356980 9.9135951e-2
v 0.97702282 0.89356980 -0.29703017
v 0.78936436 0.89356980 -0.64810662
v 0.48163942 0.89356980 -0.90064518
v 0.10069632 0.89356980 -1.01619915
v -0.29546980 0.89356980 -0.97717648
v -0.64654625 0.89356980 -0.78951803
v -0.89908481 0.89356980 -0.48179309
v -1.01463878 0.89356980 -0.10084999
v -0.97561611 0.89356980 0.29531613
v -0.78795766 0.89356980 0.64639258
v -0.48023272 0.89356980 0.89893114
v -9.9289619e-2 0.89356980 1.01448511
v 0.29687650 0.89356980 0.97546245
v 0.64795295 0.89356980 0.78780399
v 0.90049151 0.89356980 0.48007905
v 0.81591515 0.64640795 0.99246267
v 0.60644302 0.64640795 -1.13414151
v -0.60503632 0.64640795 1.13242747
v -1.13258114 0.64640795 -0.60659669
v 0.37373386 0.64640795 1.22881876
v -0.37232716 0.64640795 -1.23053280
v 0.99402303 0.64640795 -0.81606882
v -1.22897243 0.64640795 0.37217350
v -0.81450845 0.64640795 -0.99417670
v 1.27952823 0.64640795 0.12508427
v -0.99261633 0.64640795 0.81435479
v -1.27812153 0.64640795 -0.12679831
v -0.12523794 0.64640795 1.27796786
v 1.23037913 0.64640795 -0.37388753
v 0.12664464 0.64640795 -1.27968190
v 1.13398784 0.64640795 0.60488266
v -0.11415538 0.82595084 1.16543403
v 0.11556208 0.82595084 -1.16714806
v 0.55313924 0.82595084 -1.03441491
v -1.12076361 0.82595084 0.33934761
v 0.90661304 0.82595084 -0.74433194
v 0.74417827 0.82595084 0.90505267
v 1.16699440 0.82595084 0.11400171
v -0.74277157 0.82595084 -0.90676671
v -0.90520634 0.82595084 0.74261790
v -1.16558769 0.82595084 -0.11571575
v 1.12217031 0.82595084 -0.34106165
v -0.33950128 0.82595084 -1.12232398
v 1.03426124 0.82595084 0.55157887
v -1.03285454 0.82595084 -0.55329291
v -0.55173254 0.82595084 1.03270087
v 0.34090798 0.82595084 1.12060994
v -0.57990077 0.74694981 1.08540110
v -1.08555477 0.74694981 -0.58146114
v 1.22646257 0.74694981 0.11985826
v 1.08696147 0.74694981 0.57974710
v -1.22505587 0.74694981 -0.12157229
v 0.95280460 0.74694981 -0.78224109
v 0.35825472 0.74694981 1.17779257
v -0.35684802 0.74694981 -1.17950661
v 0.58130747 0.74694981 -1.08711514
v -0.12001192 0.74694981 1.22490220
v 0.12141863 0.74694981 -1.22661624
v 0.78208742 0.74694981 0.95124423
v -0.95139789 0.74694981 0.78052705
v -1.17794624 0.74694981 0.35669435
v -0.78068072 0.74694981 -0.95295826
v 1.17935294 0.74694981 -0.35840839
v -0.10703776 0.88052361 1.09316082
v 0.10844447 0.88052361 -1.09487486
v 0.51890567 0.88052361 -0.97036697
v -1.05126808 0.88052361 0.31826567
v 0.85047526 0.88052361 -0.69825998
v 0.69810631 0.88052361 0.84891489
v 1.09472119 0.88052361 0.10688410
v -0.69669961 0.88052361 -0.85062893
v -0.84906856 0.88052361 0.69654594
v -1.09331449 0.88052361 -0.10859813
v 1.05267478 0.88052361 -0.31997971
v -0.31841934 0.88052361 -1.05282845
v 0.97021331 0.88052361 0.51734530
v -0.96880660 0.88052361 -0.51905933
v -0.51749896 0.88052361 0.96865294
v 0.31982604 0.88052361 1.05111441
v -0.59154475 0.53727913 1.10672706
v -1.10672706 0.53727913 -0.59154475
v 1.24885685 0.53727913 0.12298998
v 1.10672706 0.53727913 0.59154475
v -1.24885685 0.53727913 -0.12298998
v 0.97004219 0.53727913 -0.79610810
v 0.36428890 0.53727913 1.20085951
v -0.36428890 0.53727913 -1.20085951
v 0.59154475 0.53727913 -1.10672706
v -0.12298998 0.53727913 1.24885685
v 1.20085951 0.53727913 -0.36428890
v 0.12298998 0.53727913 -1.24885685
v 0.79610810 0.53727913 0.97004219
v -0.97004219 0.53727913 0.79610810
v -1.20085951 0.53727913 0.36428890
v -0.79610810 0.53727913 -0.97004219
v 0.94294085 0.87624880 9.1936457e-2
v 0.90672781 0.87624880 -0.27570571
v 0.73258077 0.87624880 -0.60150465
v 0.60135098 0.87624880 -0.73273444
v 0.44701202 0.87624880 -0.83586043
v 9.3496826e-2 0.87624880 -0.94309452
v -0.27414534 0.87624880 -0.90688148
v -0.59994428 0.87624880 -0.73273444
v -0.83430006 0.87624880 -0.44716569
v -0.94153415 0.87624880 -9.3650495e-2
v -0.90532111 0.87624880 0.27399167
v -0.73117407 0.87624880 0.59979061
v -0.44560532 0.87624880 0.83414639
v -9.2090125e-2 0.87624880 0.94138048
v 0.27555204 0.87624880 0.90516744
v 0.60135098 0.87624880 0.73102040
v 0.83570676 0.87624880 0.44545165
vn -2.1168382e-2 0.99941174 -2.6982827e-2
vn -2.9894989e-2 0.99941301 -1.6731141e-2
vn -3.3993853e-2 0.99941437 -3.9148856e-3
vn -2.0071505e-2 0.99978036 -6.0309300e-3
vn -2.6654849e-2 0.99941658 2.1354428e-2
vn -1.6413270e-2 0.99941710 2.9934288e-2
vn -3.7075403e-3 0.99941711 3.3936493e-2
vn 9.5311486e-3 0.99941662 3.2795840e-2
vn 2.1320373e-2 0.99941570 2.6714997e-2
vn 2.9909128e-2 0.99941448 1.6617207e-2
vn 3.4019335e-2 0.99941314 4.0072357e-3
vn 3.3023403e-2 0.99941187 -9.2391879e-3
vn 2.7040473e-2 0.99941088 -2.1135591e-2
vn 1.6936741e-2 0.99941031 -2.9869322e-2
vn 4.2196922e-3 0.99941027 -3.4077806e-2
vn -9.1728667e-3 0.99941078 -3.3075009e-2
vn 0.90686233 -0.21401869 0.36303818
vn 0.69818687 -0.21380922 0.68324279
vn 0.38279732 -0.21358795 0.89880276
vn 9.1738711e-3 -0.21338950 0.97692413
vn -0.36549198 -0.21324527 0.90605854
vn -0.68418538 -0.21317789 0.69745649
vn -0.89873075 -0.21319744 0.38318387
vn -0.97692412 -0.21330000 1.1062323e-2
vn -0.90716910 -0.21346881 -0.36259520
vn -0.70006482 -0.21367751 -0.68135979
vn -0.38680445 -0.21389449 -0.89701252
vn -1.4620961e-2 -0.21408764 -0.97670503
vn 0.36013762 -0.21422868 -0.90796860
vn 0.68040211 -0.21429683 -0.70080656
vn 0.89707667 -0.21428157 -0.38644127
vn 0.97671007 -0.21418431 -1.2748583e-2
vn 0.46367780 0.71080109 0.52892788
vn 0.63105723 0.71100448 0.31022477
vn 0.70158580 0.71122531 4.3999148e-2
vn 0.66449033 0.71142937 -0.22873752
vn 0.52573398 0.71158568 -0.46610041
vn 0.30691935 0.71167119 -0.63192138
vn 4.1717353e-2 0.71167378 -0.70127034
vn -0.22946646 0.71159364 -0.66406297
vn -0.46565736 0.71144288 -0.52631952
vn -0.63136693 0.71124375 -0.30904390
vn -0.70172413 0.71102565 -4.5008443e-2
vn -0.66605615 0.71082121 0.22605844
vn -0.52948984 0.71066161 0.46325003
vn -0.31234496 0.71057185 0.63049843
vn -4.7314370e-2 0.71056652 0.70203744
vn 0.22529680 0.71064705 0.66649990
vn -3.2569114e-2 0.99941684 1.0257953e-2
vn -2.6164093e-2 0.99941683 2.1941655e-2
vn -1.5749116e-2 0.99941632 3.0314924e-2
vn 9.7983612e-3 0.99978097 1.8493232e-2
vn 1.0472111e-2 0.99941411 3.2584920e-2
vn 2.2245431e-2 0.99941274 2.6063687e-2
vn 3.0600143e-2 0.99941147 1.5502865e-2
vn 3.4236654e-2 0.99941051 2.5465763e-3
vn 3.2607840e-2 0.99941001 -1.0787471e-2
vn 2.5998371e-2 0.99941004 -2.2442256e-2
vn 1.5459266e-2 0.99941060 -3.0650520e-2
vn 2.6213496e-3 0.99941160 -3.4199137e-2
vn -1.0568081e-2 0.99941287 -3.2591940e-2
vn -2.2136943e-2 0.99941421 -2.6099601e-2
vn -3.0367504e-2 0.99941543 -1.5703794e-2
vn -3.4032915e-2 0.99941635 -2.9519690e-3
vn 0.76162324 0.54388041 0.35231257
vn 0.56815509 0.54370364 0.61772660
vn 0.28782398 0.54356991 0.78847265
vn -3.6221570e-2 0.54350002 0.83862729
vn -0.35436835 0.54350458 0.76093748
vn -0.61825411 0.54358239 0.56769713
vn -0.78808385 0.54372096 0.28860243
vn -0.83846469 0.54389877 -3.3927828e-2
vn -0.76200384 0.54408878 -0.35116599
vn -0.57027515 0.54426254 -0.61527598
vn -0.29209605 0.54439425 -0.78632996
vn 3.0645566e-2 0.54446428 -0.83822402
vn 0.34910022 0.54446195 -0.76268619
vn 0.61472533 0.54438715 -0.57074986
vn 0.78670707 0.54425060 -0.29134735
vn 0.83839196 0.54407265 3.2922316e-2
vn 0.24862263 0.92043201 0.30164832
vn 0.34527254 0.92052009 0.18283772
vn 0.38880515 0.92061552 3.6022482e-2
vn 0.37259000 0.92070349 -0.11611105
vn 0.29933062 0.92077074 -0.25016481
vn 0.18051220 0.92080745 -0.34572964
vn 3.4457627e-2 0.92080854 -0.38848978
vn -0.11659648 0.92077409 -0.37226380
vn -0.24988304 0.92070924 -0.29975482
vn -0.34543653 0.92062345 -0.18200569
vn -0.38894443 0.92052928 -3.6716298e-2
vn -0.37379070 0.92044079 0.11432088
vn -0.30205708 0.92037157 0.24834996
vn -0.18433503 0.92033256 0.34497619
vn -3.8305248e-2 0.92033022 0.38926212
vn 0.11381023 0.92036518 0.37413256
vn 0.18123137 0.71091498 0.67952563
vn 0.80494032 -0.21356868 0.55358783
vn -0.18020922 0.71111583 -0.67958731
vn 9.4562991e-2 0.71132001 -0.69647805
vn -0.55743708 0.71046111 0.42954501
vn 0.20388117 -0.21417355 -0.95528119
vn 0.35449589 0.71147635 -0.60674053
vn -0.20035953 -0.21309029 0.95626805
vn 0.60723079 0.71133271 0.35394426
vn -0.95626220 -0.21348191 -0.19997019
vn 0.53273521 -0.21336045 0.81894476
vn -0.53310492 -0.21391189 -0.81856023
vn 0.67972325 0.71156415 -0.17791224
vn -0.60940019 0.71069111 -0.35149618
vn 0.55450531 -0.21418827 -0.80414379
vn -0.35096412 0.71055078 0.60987029
vn -0.67938287 0.71045598 0.18355167
vn -0.81729111 -0.21313909 0.53535686
vn -0.80641711 -0.21370290 -0.55138236
vn 0.96078954 -0.21397850 -0.17634248
vn -0.55047896 -0.21307130 0.80720105
vn 0.55989290 0.71156175 -0.42449949
vn -0.42757150 0.71089478 -0.55840060
vn -0.95994064 -0.21328352 0.18172536
vn 0.17987687 -0.21319223 0.96030901
vn 0.82021038 -0.21411972 -0.53047873
vn 0.69620233 0.71148376 9.5358142e-2
vn -0.69777779 0.71053677 -9.0794561e-2
vn -0.17817614 -0.21407691 -0.96042925
vn 0.95529020 -0.21378539 0.20424604
vn -9.1625032e-2 0.71071040 0.69749235
vn 0.42647808 0.71113330 0.55893280
vn -0.12902943 0.54358512 0.82937725
vn -0.82960570 0.54343441 -0.12819291
vn 0.81615617 0.54432998 -0.19389168
vn 0.82833884 0.54425968 0.13280122
vn -0.81546212 0.54336424 0.19944129
vn 0.43965332 0.54425305 -0.71448833
vn 0.49336938 0.54395350 0.67874977
vn -0.49441580 0.54374563 -0.67815463
vn 0.13199622 0.54411639 -0.82856162
vn 0.19716158 0.54376316 0.81575053
vn -0.19615570 0.54393820 -0.81587632
vn 0.71493808 0.54412763 0.43907707
vn -0.43596568 0.54344643 0.71735620
vn -0.67707837 0.54336864 0.49630172
vn -0.71692589 0.54356849 -0.43652097
vn 0.67982460 0.54432782 -0.49147302
vn 0.11194589 0.92048738 0.37439431
vn -0.11123486 0.92057410 -0.37439301
vn 4.1175512e-2 0.92066209 -0.38818281
vn -0.30244472 0.92029073 0.24817770
vn 0.18698464 0.92072931 -0.34248252
vn 0.34284530 0.92066749 0.18662388
vn 0.37438889 0.92076698 -0.10964093
vn -0.34445426 0.92039045 -0.18502075
vn -0.18467190 0.92032967 0.34480369
vn -0.37439601 0.92028847 0.11356393
vn 0.30392927 0.92076597 -0.24457518
vn -0.24676522 0.92047862 -0.30302811
vn 0.38795853 0.92073243 4.1712858e-2
vn -0.38924704 0.92032353 -3.8618010e-2
vn -3.9183157e-2 0.92039888 0.38901232
vn 0.24598452 0.92058161 0.30334983
vn 0.88444439 -0.46664560 -3.5525005e-16
vn 0.81712007 -0.46664560 0.33846222
vn 0.62539663 -0.46664560 0.62539663
vn 0.33846222 -0.46664560 0.81712007
vn 1.1841668e-16 -0.46664560 0.88444439
vn -0.33846222 -0.46664560 0.81712007
vn -0.62539663 -0.46664560 0.62539663
vn -0.81712007 -0.46664560 0.33846222
vn -0.88444439 -0.46664560 8.0105404e-17
vn -0.81712007 -0.46664560 -0.33846222
vn -0.62539663 -0.46664560 -0.62539663
vn -0.33846222 -0.46664560 -0.81712007
vn -4.5276967e-17 -0.46664560 -0.88444439
vn 0.33846222 -0.46664560 -0.81712007
vn 0.62539663 -0.46664560 -0.62539663
vn 0.81712007 -0.46664560 -0.33846222
vn 0.86748559 -0.46657690 -0.17255361
vn 0.73541877 -0.46657690 -0.49139111
vn 0.49139111 -0.46657690 -0.73541877
vn 0.17255361 -0.46657690 -0.86748559
vn -0.17255361 -0.46657690 -0.86748559
vn -0.49139111 -0.46657690 -0.73541877
vn -0.73541877 -0.46657690 -0.49139111
vn -0.86748559 -0.46657690 -0.17255361
vn -0.86748559 -0.46657690 0.17255361
vn -0.73541877 -0.46657690 0.49139111
vn -0.49139111 -0.46657690 0.73541877
vn -0.17255361 -0.46657690 0.86748559
vn 0.17255361 -0.46657690 0.86748559
vn 0.49139111 -0.46657690 0.73541877
vn 0.73541877 -0.46657690 0.49139111
vn 0.86748559 -0.46657690 0.17255361
vn -0.14945955 0.98755786 4.8901061e-2
vn -0.13691924 0.98747010 -7.8459683e-2
vn -0.11936783 0.98755757 0.10237857
vn -0.15638412 0.98750042 -1.9670234e-2
vn -7.0997808e-2 0.98754605 0.14039982
vn -0.13485993 0.99062977 2.1574457e-2
vn 5.0909391e-3 0.99063150 0.13646723
vn -0.12384483 0.98754951 9.6997020e-2
vn 4.9790374e-2 0.98749704 0.14956779
vn -7.7128018e-2 0.98756106 0.13701976
vn 0.10366323 0.98746674 0.11900998
vn -1.8817301e-2 0.98756138 0.15610388
vn 0.14163583 0.98743868 7.0029640e-2
vn 4.2231457e-2 0.98755052 0.15152717
vn 0.15780488 0.98741733 1.0228912e-2
vn 9.6867505e-2 0.98753005 0.12410112
vn 0.14972647 0.98740615 -5.1098746e-2
vn 0.13695536 0.98750291 7.7982190e-2
vn 0.11877746 0.98740689 -0.10449661
vn 0.15650875 0.98747304 2.0049883e-2
vn 6.9857537e-2 0.98741935 -0.14185538
vn 0.15253428 0.98744488 -4.1059660e-2
vn 1.0531788e-2 0.98744142 -0.15763417
vn 0.12549520 0.98742278 -9.6162421e-2
vn -5.0188680e-2 0.98746954 -0.14961617
vn 7.9321917e-2 0.98741029 -0.13685380
vn -0.10320423 0.98749939 -0.11913792
vn 2.0922773e-2 0.98740951 -0.15679507
vn -0.14062684 0.98752651 -7.0820074e-2
vn -4.0794630e-2 0.98742068 -0.15276190
vn -0.15687546 0.98754698 -1.1876688e-2
vn -9.6287856e-2 0.98744203 -0.12524734
vn -3.2467738e-2 0.99946649 -3.5469538e-3
vn -3.1325036e-2 0.99946644 9.2507725e-3
vn -2.5313653e-2 0.99946642 2.0642065e-2
vn -1.5355512e-2 0.99946642 2.8828400e-2
vn -3.0165449e-3 0.99946645 3.2522513e-2
vn 9.7603674e-3 0.99946651 3.1167903e-2
vn 2.0988263e-2 0.99946659 2.5020461e-2
vn 2.8963167e-2 0.99946671 1.5081130e-2
vn 3.2521051e-2 0.99946683 2.9056005e-3
vn 3.1186129e-2 0.99946693 -9.6579997e-3
vn 2.5204359e-2 0.99946699 -2.0747843e-2
vn 1.5480297e-2 0.99946699 -2.8741967e-2
vn 3.4427793e-3 0.99946692 -3.2465679e-2
vn -9.1418770e-3 0.99946681 -3.1345167e-2
vn -2.0399356e-2 0.99946669 -2.5499208e-2
vn -2.8608375e-2 0.99946657 -1.5752119e-2
vn 0.61838429 -0.19998196 0.76000532
vn 0.46174428 -0.20106648 -0.86392389
vn -0.46313124 -0.19924549 0.86360332
vn -0.86542758 -0.19998581 -0.45939175
vn 0.28099538 -0.19964510 0.93871371
vn -0.28655757 -0.20067950 -0.93680974
vn 0.75807768 -0.20106572 -0.62039569
vn -0.93734350 -0.19938812 0.28571235
vn -0.62369896 -0.20034790 -0.75555299
vn 0.97458155 -0.20067627 9.9598385e-2
vn -0.75748769 -0.19924626 0.62170196
vn -0.97537086 -0.19964838 -9.3766773e-2
vn -9.8658527e-2 -0.19938593 0.97494192
vn 0.93818105 -0.20092911 -0.28185777
vn 9.4723269e-2 -0.20093126 -0.97501494
vn 0.86208991 -0.20034407 0.46547098
vn -7.1504660e-2 0.71287568 0.69763554
vn 6.6828284e-2 0.71307222 -0.69789827
vn 0.33014483 0.71309111 -0.61847025
vn -0.67053306 0.71287728 0.20540546
vn 0.54273227 0.71309055 -0.44378322
vn 0.44130658 0.71294503 0.54493843
vn 0.69735549 0.71303517 7.2637238e-2
vn -0.44766953 0.71299360 -0.53965926
vn -0.54186700 0.71286119 0.44520678
vn -0.69817649 0.71290729 -6.5671814e-2
vn 0.67170293 0.71307062 -0.20086180
vn -0.20645545 0.71303757 -0.67003998
vn 0.61621388 0.71299078 0.33455135
vn -0.62015512 0.71294785 -0.32728122
vn -0.33170111 0.71286063 0.61790299
vn 0.19978804 0.71290490 0.67219889
vn -0.39819001 0.53894108 0.74228514
vn -0.74450788 0.53906567 -0.39384797
vn 0.83773879 0.53918768 8.6431323e-2
vn 0.74063318 0.53912716 0.40100424
vn -0.83853329 0.53900810 -7.9575001e-2
vn 0.65178386 0.53926141 -0.53326816
vn 0.24076891 0.53900622 0.80715713
vn -0.24733342 0.53918957 -0.80504707
vn 0.39667165 0.53926185 -0.74286490
vn -8.5307529e-2 0.53896357 0.83799815
vn 8.0709072e-2 0.53923641 -0.83827808
vn 0.53082339 0.53906344 0.65393971
vn -0.65091230 0.53894152 0.53465430
vn -0.80551741 0.53896483 0.24628970
vn -0.53708814 0.53912939 -0.64874944
vn 0.80668883 0.53923514 -0.24182347
vn -3.8744316e-2 0.92657431 0.37411085
vn 3.5575113e-2 0.92650199 -0.37460443
vn 0.17714297 0.92649611 -0.33200199
vn -0.35952630 0.92657508 0.11045114
vn 0.29142019 0.92649584 -0.23807505
vn 0.23623744 0.92654375 0.29276024
vn 0.37418261 0.92651182 3.9537601e-2
vn -0.24063707 0.92652797 -0.28920533
vn -0.29054111 0.92658236 0.23881165
vn -0.37453370 0.92656180 -3.4752536e-2
vn 0.36062874 0.92650122 -0.10743559
vn -0.11124054 0.92651297 -0.35944298
vn 0.33032937 0.92652661 0.18008597
vn -0.33295953 0.92654511 -0.17507745
vn -0.17803322 0.92658208 0.33128510
vn 0.10661766 0.92656064 0.36071880
vn -9.0337563e-2 0.99586316 -9.7818817e-3
vn -8.7122244e-2 0.99586383 2.5786675e-2
vn -7.0401136e-2 0.99586423 5.7429187e-2
vn -2.0485331e-2 0.99947729 2.5010136e-2
vn -4.2736094e-2 0.99586426 8.0174791e-2
vn -8.4580621e-3 0.99586391 9.0462846e-2
vn 2.7060650e-2 0.99586329 8.6741123e-2
vn 5.8312696e-2 0.99586257 6.9694800e-2
vn 8.0552906e-2 0.99586192 4.2074528e-2
vn 9.0515041e-2 0.99586144 8.1870723e-3
vn 8.6840094e-2 0.99586114 -2.6821446e-2
vn 7.0189951e-2 0.99586099 -5.7742990e-2
vn 4.3084861e-2 0.99586096 -8.0028985e-2
vn 9.5277997e-3 0.99586105 -9.0387987e-2
vn -2.5531223e-2 0.99586130 -8.7226253e-2
vn -5.6854184e-2 0.99586177 -7.0900960e-2
vn -7.9654407e-2 0.99586242 -4.3740347e-2
vn 0.88444439 -0.46664560 -1.9503924e-16
vn 0.88444439 -0.46664560 -1.9503924e-16
vn 0.0000000e+0 -1.00000000 -5.4603482e-19
vn 0.81712007 -0.46664560 0.33846222
vn 0.81712007 -0.46664560 0.33846222
vn 0.0000000e+0 -1.00000000 -5.4603482e-19
vn 0.62539663 -0.46664560 0.62539663
vn 0.62539663 -0.46664560 0.62539663
vn 0.0000000e+0 -1.00000000 -5.4603482e-19
vn 0.33846222 -0.46664560 0.81712007
vn 0.33846222 -0.46664560 0.81712007
vn 0.0000000e+0 -1.00000000 -5.4603482e-19
vn 0.0000000e+0 -0.46664560 0.88444439
vn 0.0000000e+0 -0.46664560 0.88444439
vn 0.0000000e+0 -1.00000000 -5.4603482e-19
vn -0.33846222 -0.46664560 0.81712007
vn -0.33846222 -0.46664560 0.81712007
vn 0.0000000e+0 -1.00000000 -5.4603482e-19
vn -0.62539663 -0.46664560 0.62539663
vn -0.62539663 -0.46664560 0.62539663
vn 0.0000000e+0 -1.00000000 -5.4603482e-19
vn -0.81712007 -0.46664560 0.33846222
vn -0.81712007 -0.46664560 0.33846222
vn 0.0000000e+0 -1.00000000 -5.4603482e-19
vn -0.88444439 -0.46664560 -6.9656873e-18
vn -0.88444439 -0.46664560 -6.9656873e-18
vn 0.0000000e+0 -1.00000000 -5.4603482e-19
vn -0.81712007 -0.46664560 -0.33846222
vn -0.81712007 -0.46664560 -0.33846222
vn 0.0000000e+0 -1.00000000 -5.4603482e-19
vn -0.62539663 -0.46664560 -0.62539663
vn -0.62539663 -0.46664560 -0.62539663
vn 0.0000000e+0 -1.00000000 -5.4603482e-19
vn -0.33846222 -0.46664560 -0.81712007
vn -0.33846222 -0.46664560 -0.81712007
vn 0.0000000e+0 -1.00000000 -5.4603482e-19
vn 1.3931375e-17 -0.46664560 -0.88444439
vn 1.3931375e-17 -0.46664560 -0.88444439
vn 0.0000000e+0 -1.00000000 -5.4603482e-19
vn 0.33846222 -0.46664560 -0.81712007
vn 0.33846222 -0.46664560 -0.81712007
vn 0.0000000e+0 -1.00000000 -5.4603482e-19
vn 0.62539663 -0.46664560 -0.62539663
vn 0.62539663 -0.46664560 -0.62539663
vn 0.0000000e+0 -1.00000000 -5.4603482e-19
vn 0.81712007 -0.46664560 -0.33846222
vn 0.81712007 -0.46664560 -0.33846222
vn 0.0000000e+0 -1.00000000 -5.4603482e-19
vn 0.61000442 -0.76549971 0.20470665
vn 0.88444439 -0.46664560 -5.0849517e-16
vn 0.88444439 -0.46664560 -5.0849517e-16
vn 0.61000442 -0.76549971 0.20470665
vn 0.48518063 -0.76503635 0.42346091
vn 0.81712007 -0.46664560 0.33846222
vn 0.81712007 -0.46664560 0.33846222
vn 0.48518063 -0.76503635 0.42346091
vn 0.28585128 -0.76462710 0.57761097
vn 0.62539663 -0.46664560 0.62539663
vn 0.62539663 -0.46664560 0.62539663
vn 0.28585128 -0.76462710 0.57761097
vn 4.2628598e-2 -0.76433562 0.64340800
vn 0.33846222 -0.46664560 0.81712007
vn 0.33846222 -0.46664560 0.81712007
vn 4.2628598e-2 -0.76433562 0.64340800
vn -0.20707233 -0.76420721 0.61082599
vn 2.2986768e-16 -0.46664560 0.88444439
vn 2.2986768e-16 -0.46664560 0.88444439
vn -0.20707233 -0.76420721 0.61082599
vn -0.42495838 -0.76426140 0.48509267
vn -0.33846222 -0.46664560 0.81712007
vn -0.33846222 -0.46664560 0.81712007
vn -0.42495838 -0.76426140 0.48509267
vn -0.57785148 -0.76448896 0.28573466
vn -0.62539663 -0.46664560 0.62539663
vn -0.62539663 -0.46664560 0.62539663
vn -0.57785148 -0.76448896 0.28573466
vn -0.64274164 -0.76485392 4.3378227e-2
vn -0.81712007 -0.46664560 0.33846222
vn -0.81712007 -0.46664560 0.33846222
vn -0.64274164 -0.76485392 4.3378227e-2
vn -0.61013204 -0.76529980 -0.20507341
vn -0.88444439 -0.46664560 1.6717649e-16
vn -0.88444439 -0.46664560 1.6717649e-16
vn -0.61013204 -0.76529980 -0.20507341
vn -0.48526174 -0.76575876 -0.42205991
vn -0.81712007 -0.46664560 -0.33846222
vn -0.81712007 -0.46664560 -0.33846222
vn -0.48526174 -0.76575876 -0.42205991
vn -0.28714950 -0.76616187 -0.57492709
vn -0.62539663 -0.46664560 -0.62539663
vn -0.62539663 -0.46664560 -0.62539663
vn -0.28714950 -0.76616187 -0.57492709
vn -4.5694564e-2 -0.76644907 -0.64067763
vn -0.33846222 -0.46664560 -0.81712007
vn -0.33846222 -0.46664560 -0.81712007
vn -4.5694564e-2 -0.76644907 -0.64067763
vn 0.20272353 -0.76657757 -0.60931273
vn -1.1145100e-16 -0.46664560 -0.88444439
vn -1.1145100e-16 -0.46664560 -0.88444439
vn 0.20272353 -0.76657757 -0.60931273
vn 0.42056310 -0.76652779 -0.48534713
vn 0.33846222 -0.46664560 -0.81712007
vn 0.33846222 -0.46664560 -0.81712007
vn 0.42056310 -0.76652779 -0.48534713
vn 0.57467327 -0.76630636 -0.28727198
vn 0.62539663 -0.46664560 -0.62539663
vn 0.62539663 -0.46664560 -0.62539663
vn 0.57467327 -0.76630636 -0.28727198
vn 0.64133114 -0.76594568 -4.4962071e-2
vn 0.81712007 -0.46664560 -0.33846222
vn 0.81712007 -0.46664560 -0.33846222
vn 0.64133114 -0.76594568 -4.4962071e-2
vn 0.86748559 -0.46657690 0.17255361
vn 0.86748559 -0.46657690 0.17255361
vn 0.0000000e+0 -1.00000000 -5.4603482e-19
vn 0.86748559 -0.46657690 -0.17255361
vn 0.86748559 -0.46657690 -0.17255361
vn 0.0000000e+0 -1.00000000 -5.4603482e-19
vn 0.73541877 -0.46657690 0.49139111
vn 0.73541877 -0.46657690 0.49139111
vn 0.0000000e+0 -1.00000000 -5.4603482e-19
vn 0.49139111 -0.46657690 0.73541877
vn 0.49139111 -0.46657690 0.73541877
vn 0.0000000e+0 -1.00000000 -5.4603482e-19
vn 0.17255361 -0.46657690 0.86748559
vn 0.17255361 -0.46657690 0.86748559
vn 0.0000000e+0 -1.00000000 -5.4603482e-19
vn -0.17255361 -0.46657690 0.86748559
vn -0.17255361 -0.46657690 0.86748559
vn 0.0000000e+0 -1.00000000 -5.4603482e-19
vn -0.49139111 -0.46657690 0.73541877
vn -0.49139111 -0.46657690 0.73541877
vn 0.0000000e+0 -1.00000000 -5.4603482e-19
vn -0.73541877 -0.46657690 0.49139111
vn -0.73541877 -0.46657690 0.49139111
vn 0.0000000e+0 -1.00000000 -5.4603482e-19
vn -0.86748559 -0.46657690 0.17255361
vn -0.86748559 -0.46657690 0.17255361
vn 0.0000000e+0 -1.00000000 -5.4603482e-19
vn -0.86748559 -0.46657690 -0.17255361
vn -0.86748559 -0.46657690 -0.17255361
vn 0.0000000e+0 -1.00000000 -5.4603482e-19
vn -0.73541877 -0.46657690 -0.49139111
vn -0.73541877 -0.46657690 -0.49139111
vn 0.0000000e+0 -1.00000000 -5.4603482e-19
vn -0.49139111 -0.46657690 -0.73541877
vn -0.49139111 -0.46657690 -0.73541877
vn 0.0000000e+0 -1.00000000 -5.4603482e-19
vn -0.17255361 -0.46657690 -0.86748559
vn -0.17255361 -0.46657690 -0.86748559
vn 0.0000000e+0 -1.00000000 -5.4603482e-19
vn 0.17255361 -0.46657690 -0.86748559
vn 0.17255361 -0.46657690 -0.86748559
vn 0.0000000e+0 -1.00000000 -5.4603482e-19
vn 0.49139111 -0.46657690 -0.73541877
vn 0.49139111 -0.46657690 -0.73541877
vn 0.0000000e+0 -1.00000000 -5.4603482e-19
vn 0.73541877 -0.46657690 -0.49139111
vn 0.73541877 -0.46657690 -0.49139111
vn 0.0000000e+0 -1.00000000 -5.4603482e-19
vn -0.49139111 -0.46657690 0.73541877
vn -0.49139111 -0.46657690 0.73541877
vn -0.16765574 -0.76442939 0.62252652
vn -0.16765574 -0.76442939 0.62252652
vn -0.73541877 -0.46657690 -0.49139111
vn -0.73541877 -0.46657690 -0.49139111
vn -0.62230973 -0.76456991 -0.16781973
vn -0.62230973 -0.76456991 -0.16781973
vn 0.86748559 -0.46657690 0.17255361
vn 0.86748559 -0.46657690 0.17255361
vn 0.63736889 -0.76638900 -8.0054896e-2
vn 0.63736889 -0.76638900 -8.0054896e-2
vn 0.73541877 -0.46657690 0.49139111
vn 0.73541877 -0.46657690 0.49139111
vn 0.61993585 -0.76610140 0.16961188
vn 0.61993585 -0.76610140 0.16961188
vn -0.86748559 -0.46657690 -0.17255361
vn -0.86748559 -0.46657690 -0.17255361
vn -0.63944659 -0.76427802 8.3589287e-2
vn -0.63944659 -0.76427802 8.3589287e-2
vn 0.73541877 -0.46657690 -0.49139111
vn 0.73541877 -0.46657690 -0.49139111
vn 0.39411955 -0.76646898 -0.50714404
vn 0.39411955 -0.76646898 -0.50714404
vn 0.17255361 -0.46657690 0.86748559
vn 0.17255361 -0.46657690 0.86748559
vn 0.32008795 -0.76523930 0.55852710
vn 0.32008795 -0.76523930 0.55852710
vn -0.17255361 -0.46657690 -0.86748559
vn -0.17255361 -0.46657690 -0.86748559
vn -0.31969702 -0.76544253 -0.55847251
vn -0.31969702 -0.76544253 -0.55847251
vn 0.49139111 -0.46657690 -0.73541877
vn 0.49139111 -0.46657690 -0.73541877
vn 0.16978418 -0.76624823 -0.61970717
vn 0.16978418 -0.76624823 -0.61970717
vn -0.17255361 -0.46657690 0.86748559
vn -0.17255361 -0.46657690 0.86748559
vn 8.2728585e-2 -0.76479378 0.63894167
vn 8.2728585e-2 -0.76479378 0.63894167
vn 0.86748559 -0.46657690 -0.17255361
vn 0.86748559 -0.46657690 -0.17255361
vn 0.55818122 -0.76651808 -0.31762202
vn 0.55818122 -0.76651808 -0.31762202
vn 0.17255361 -0.46657690 -0.86748559
vn 0.17255361 -0.46657690 -0.86748559
vn -8.0896292e-2 -0.76588812 -0.63786454
vn -8.0896292e-2 -0.76588812 -0.63786454
vn 0.49139111 -0.46657690 0.73541877
vn 0.49139111 -0.46657690 0.73541877
vn 0.50859863 -0.76569814 0.39374330
vn 0.50859863 -0.76569814 0.39374330
vn -0.73541877 -0.46657690 0.49139111
vn -0.73541877 -0.46657690 0.49139111
vn -0.39301364 -0.76420251 0.51140474
vn -0.39301364 -0.76420251 0.51140474
vn -0.86748559 -0.46657690 0.17255361
vn -0.86748559 -0.46657690 0.17255361
vn -0.55881753 -0.76414902 0.32217891
vn -0.55881753 -0.76414902 0.32217891
vn -0.49139111 -0.46657690 -0.73541877
vn -0.49139111 -0.46657690 -0.73541877
vn -0.50994997 -0.76497930 -0.39339255
vn -0.50994997 -0.76497930 -0.39339255
vn -0.35204537 -0.66712528 0.65651193
vn -0.41811538 -0.46485066 0.78044436
vn -0.35204537 -0.66712528 0.65651193
vn -0.65623443 -0.66887414 -0.34923310
vn -0.78044436 -0.46485066 -0.41811538
vn -0.65623443 -0.66887414 -0.34923310
vn 0.73808071 -0.67053547 7.4960343e-2
vn 0.88104240 -0.46485066 8.7625115e-2
vn 0.73808071 -0.67053547 7.4960343e-2
vn 0.65370536 -0.66973525 0.35231236
vn 0.78044436 -0.46485066 0.41811538
vn 0.65370536 -0.66973525 0.35231236
vn -0.74061567 -0.66807302 -7.1880973e-2
vn -0.88104240 -0.46485066 -8.7625115e-2
vn -0.74061567 -0.66807302 -7.1880973e-2
vn 0.57344711 -0.67147998 -0.46933256
vn 0.68495137 -0.46485066 -0.56103074
vn 0.57344711 -0.67147998 -0.46933256
vn 0.21382602 -0.66806866 0.71271502
vn 0.25620528 -0.46485066 0.84750972
vn 0.21382602 -0.66806866 0.71271502
vn -0.21635066 -0.67053980 -0.70962580
vn -0.25620528 -0.46485066 -0.84750972
vn -0.21635066 -0.67053980 -0.70962580
vn 0.34951077 -0.67148099 -0.65341832
vn 0.41811538 -0.46485066 -0.78044436
vn 0.34951077 -0.67148099 -0.65341832
vn -7.4701688e-2 -0.66745625 0.74089257
vn -8.7625115e-2 -0.46485066 0.88104240
vn -7.4701688e-2 -0.66745625 0.74089257
vn 0.70989534 -0.67114803 -0.21356246
vn 0.84750972 -0.46485066 -0.25620528
vn 0.70989534 -0.67114803 -0.21356246
vn 7.2172994e-2 -0.67115092 -0.73779909
vn 8.7625115e-2 -0.46485066 -0.88104240
vn 7.2172994e-2 -0.67115092 -0.73779909
vn 0.46961057 -0.66886901 0.57626397
vn 0.56103074 -0.46485066 0.68495137
vn 0.46961057 -0.66886901 0.57626397
vn -0.57598601 -0.66712630 0.47242207
vn -0.68495137 -0.46485066 0.56103074
vn -0.57598601 -0.66712630 0.47242207
vn -0.71243438 -0.66745917 0.21664607
vn -0.84750972 -0.46485066 0.25620528
vn -0.71243438 -0.66745917 0.21664607
vn -0.47213537 -0.66974037 -0.57318063
vn -0.56103074 -0.46485066 -0.68495137
vn -0.47213537 -0.66974037 -0.57318063
g cylinder1_pie-crust
usemtl pie-crust
f 225//283 305//363 375//433 273//331
f 225//283 480//506 593//603 496//522
f 226//284 306//364 379//437 274//332
f 226//284 450//476 577//587 481//507
f 227//285 307//365 373//431 275//333
f 227//285 452//478 578//588 482//508
f 228//286 308//366 371//429 276//334
f 228//286 454//480 579//589 483//509
f 229//287 309//367 370//428 277//335
f 229//287 456//482 581//591 484//510
f 230//288 310//368 380//438 278//336
f 230//288 458//484 582//592 485//511
f 231//289 311//369 376//434 279//337
f 231//289 460//486 583//593 486//512
f 232//290 312//370 382//440 280//338
f 232//290 462//488 584//594 487//513
f 233//291 313//371 378//436 281//339
f 233//291 464//490 585//595 488//514
f 234//292 314//372 372//430 282//340
f 234//292 466//492 586//596 489//515
f 235//293 315//373 377//435 283//341
f 235//293 468//494 587//597 490//516
f 236//294 316//374 383//441 284//342
f 236//294 470//496 588//598 491//517
f 237//295 317//375 369//427 285//343
f 237//295 472//498 589//599 492//518
f 238//296 318//376 384//442 286//344
f 238//296 474//500 590//600 493//519
f 239//297 319//377 374//432 287//345
f 239//297 476//502 591//601 494//520
f 240//298 320//378 381//439 288//346
f 240//298 478//504 592//602 495//521
f 241//299 346//404 368//426 289//347
f 241//299 506//532 563//834 209//652
f 242//300 340//398 355//413 290//348
f 242//300 512//538 564//837 210//656
f 243//301 350//408 356//414 291//349
f 243//301 497//523 573//864 211//660
f 244//302 322//380 364//422 292//350
f 244//302 501//527 567//846 212//664
f 245//303 331//389 359//417 293//351
f 245//303 509//535 570//855 213//668
f 246//304 345//403 362//420 294//352
f 246//304 499//525 561//828 214//672
f 247//305 328//386 353//411 295//353
f 247//305 507//533 574//867 215//676
f 248//306 341//399 365//423 296//354
f 248//306 504//530 575//870 216//680
f 249//307 338//396 366//424 297//355
f 249//307 508//534 565//840 217//684
f 250//308 344//402 357//415 298//356
f 250//308 500//526 562//831 218//688
f 251//309 330//388 354//412 299//357
f 251//309 505//531 576//873 219//692
f 252//310 339//397 367//425 300//358
f 252//310 502//528 568//849 220//696
f 253//311 332//390 360//418 301//359
f 253//311 511//537 572//861 221//700
f 254//312 349//407 363//421 302//360
f 254//312 498//524 569//852 222//704
f 255//313 326//384 361//419 303//361
f 255//313 503//529 566//843 223//708
f 256//314 335//393 358//416 304//362
f 256//314 510//536 571//858 224//712
f 257//315 290//348 355//413 333//391
f 257//315 333//391 375//433 305//363
f 257//315 525//551 532//558 290//348
f 258//316 289//347 368//426 342//400
f 258//316 342//400 379//437 306//364
f 258//316 519//545 531//557 289//347
f 259//317 304//362 358//416 327//385
f 259//317 327//385 373//431 307//365
f 259//317 523//549 544//570 304//362
f 260//318 303//361 361//419 324//382
f 260//318 324//382 371//429 308//366
f 260//318 517//543 534//560 303//361
f 261//319 302//360 363//421 323//381
f 261//319 323//381 370//428 309//367
f 261//319 515//541 537//563 302//360
f 262//320 301//359 360//418 343//401
f 262//320 343//401 380//438 310//368
f 262//320 514//540 539//565 301//359
f 263//321 300//358 367//425 334//392
f 263//321 334//392 376//434 311//369
f 263//321 524//550 536//562 300//358
f 264//322 299//357 354//412 348//406
f 264//322 348//406 382//440 312//370
f 264//322 520//546 543//569 299//357
f 265//323 298//356 357//415 337//395
f 265//323 337//395 378//436 313//371
f 265//323 526//552 530//556 298//356
f 266//324 297//355 366//424 325//383
f 266//324 325//383 372//430 314//372
f 266//324 522//548 533//559 297//355
f 267//325 296//354 365//423 336//394
f 267//325 336//394 377//435 315//373
f 267//325 516//542 542//568 296//354
f 268//326 295//353 353//411 351//409
f 268//326 351//409 383//441 316//374
f 268//326 521//547 541//567 295//353
f 269//327 294//352 362//420 321//379
f 269//327 321//379 369//427 317//375
f 269//327 527//553 529//555 294//352
f 270//328 293//351 359//417 352//410
f 270//328 352//410 384//442 318//376
f 270//328 513//539 538//564 293//351
f 271//329 292//350 364//422 329//387
f 271//329 329//387 374//432 319//377
f 271//329 528//554 535//561 292//350
f 272//330 291//349 356//414 347//405
f 272//330 347//405 381//439 320//378
f 272//330 518//544 540//566 291//349
f 273//331 449//475 480//506 225//283
f 273//331 481//507 577//587 449//475
f 274//332 451//477 450//476 226//284
f 274//332 482//508 578//588 451//477
f 275//333 453//479 452//478 227//285
f 275//333 483//509 579//589 453//479
f 276//334 455//481 580//590 454//480 228//286
f 276//334 484//510 581//591 455//481
f 277//335 457//483 456//482 229//287
f 277//335 485//511 582//592 457//483
f 278//336 459//485 458//484 230//288
f 278//336 486//512 583//593 459//485
f 279//337 461//487 460//486 231//289
f 279//337 487//513 584//594 461//487
f 280//338 463//489 462//488 232//290
f 280//338 488//514 585//595 463//489
f 281//339 465//491 464//490 233//291
f 281//339 489//515 586//596 465//491
f 282//340 467//493 466//492 234//292
f 282//340 490//516 587//597 467//493
f 283//341 469//495 468//494 235//293
f 283//341 491//517 588//598 469//495
f 284//342 471//497 470//496 236//294
f 284//342 492//518 589//599 471//497
f 285//343 473//499 472//498 237//295
f 285//343 493//519 590//600 473//499
f 286//344 475//501 474//500 238//296
f 286//344 494//520 591//601 475//501
f 287//345 477//503 476//502 239//297
f 287//345 495//521 592//602 477//503
f 288//346 479//505 478//504 240//298
f 288//346 496//522 593//603 479//505
f 289//347 531//557 506//532 241//299
f 290//348 532//558 512//538 242//300
f 291//349 540//566 497//523 243//301
f 292//350 535//561 501//527 244//302
f 293//351 538//564 509//535 245//303
f 294//352 529//555 499//525 246//304
f 295//353 541//567 507//533 247//305
f 296//354 542//568 504//530 248//306
f 297//355 533//559 508//534 249//307
f 298//356 530//556 500//526 250//308
f 299//357 543//569 505//531 251//309
f 300//358 536//562 502//528 252//310
f 301//359 539//565 511//537 253//311
f 302//360 537//563 498//524 254//312
f 303//361 534//560 503//529 255//313
f 304//362 544//570 510//536 256//314
f 305//363 557//583 525//551 257//315
f 306//364 551//577 519//545 258//316
f 307//365 555//581 523//549 259//317
f 308//366 549//575 517//543 260//318
f 309//367 547//573 515//541 261//319
f 310//368 546//572 514//540 262//320
f 311//369 556//582 524//550 263//321
f 312//370 552//578 520//546 264//322
f 313//371 558//584 526//552 265//323
f 314//372 554//580 522//548 266//324
f 315//373 548//574 516//542 267//325
f 316//374 553//579 521//547 268//326
f 317//375 559//585 527//553 269//327
f 318//376 545//571 513//539 270//328
f 319//377 560//586 528//554 271//329
f 320//378 550//576 518//544 272//330
f 321//379 362//420 538//564 513//539
f 322//380 497//523 540//566 364//422
f 323//381 363//421 539//565 514//540
f 324//382 361//419 537//563 515//541
f 325//383 366//424 542//568 516//542
f 326//384 498//524 537//563 361//419
f 327//385 358//416 534//560 517//543
f 328//386 499//525 529//555 353//411
f 329//387 364//422 540//566 518//544
f 330//388 500//526 530//556 354//412
f 331//389 501//527 535//561 359//417
f 332//390 502//528 536//562 360//418
f 333//391 355//413 531//557 519//545
f 334//392 367//425 543//569 520//546
f 335//393 503//529 534//560 358//416
f 336//394 365//423 541//567 521//547
f 337//395 357//415 533//559 522//548
f 338//396 504//530 542//568 366//424
f 339//397 505//531 543//569 367//425
f 340//398 506//532 531//557 355//413
f 341//399 507//533 541//567 365//423
f 342//400 368//426 544//570 523//549
f 343//401 360//418 536//562 524//550
f 344//402 508//534 533//559 357//415
f 345//403 509//535 538//564 362//420
f 346//404 510//536 544//570 368//426
f 347//405 356//414 532//558 525//551
f 348//406 354//412 530//556 526//552
f 349//407 511//537 539//565 363//421
f 350//408 512//538 532//558 356//414
f 351//409 353//411 529//555 527//553
f 352//410 359//417 535//561 528//554
f 369//427 545//571 493//519 285//343
f 370//428 546//572 485//511 277//335
f 371//429 547//573 484//510 276//334
f 372//430 548//574 490//516 282//340
f 373//431 549//575 483//509 275//333
f 374//432 550//576 495//521 287//345
f 375//433 551//577 481//507 273//331
f 376//434 552//578 487//513 279//337
f 377//435 553//579 491//517 283//341
f 378//436 554//580 489//515 281//339
f 379//437 555//581 482//508 274//332
f 380//438 556//582 486//512 278//336
f 381//439 557//583 496//522 288//346
f 382//440 558//584 488//514 280//338
f 383//441 559//585 492//518 284//342
f 384//442 560//586 494//520 286//344
f 417//766 328//386 247//305 215//679
f 418//770 330//388 251//309 219//695
f 419//774 340//398 242//300 210//659
f 420//778 350//408 243//301 211//663
f 421//782 344//402 250//308 218//691
f 422//786 335//393 256//314 224//715
f 423//790 331//389 245//303 213//671
f 424//794 332//390 253//311 221//703
f 425//798 326//384 255//313 223//711
f 426//802 345//403 246//304 214//675
f 427//806 346//404 241//299 209//655
f 428//810 349//407 254//312 222//707
f 429//814 322//380 244//302 212//667
f 430//818 341//399 248//306 216//683
f 431//822 338//396 249//307 217//687
f 432//826 339//397 252//310 220//699
f 450//476 451//477 578//588 577//587
f 452//478 453//479 579//589 578//588
f 454//480 580//590 579//589
f 455//481 581//591 580//590
f 456//482 457//483 582//592 581//591
f 458//484 459//485 583//593 582//592
f 460//486 461//487 584//594 583//593
f 462//488 463//489 585//595 584//594
f 464//490 465//491 586//596 585//595
f 466//492 467//493 587//597 586//596
f 468//494 469//495 588//598 587//597
f 470//496 471//497 589//599 588//598
f 472//498 473//499 590//600 589//599
f 474//500 475//501 591//601 590//600
f 476//502 477//503 592//602 591//601
f 478//504 479//505 593//603 592//602
f 480//506 449//475 577//587 593//603
f 481//507 551//577 306//364 226//284
f 482//508 555//581 307//365 227//285
f 483//509 549//575 308//366 228//286
f 484//510 547//573 309//367 229//287
f 485//511 546//572 310//368 230//288
f 486//512 556//582 311//369 231//289
f 487//513 552//578 312//370 232//290
f 488//514 558//584 313//371 233//291
f 489//515 554//580 314//372 234//292
f 490//516 548//574 315//373 235//293
f 491//517 553//579 316//374 236//294
f 492//518 559//585 317//375 237//295
f 493//519 545//571 318//376 238//296
f 494//520 560//586 319//377 239//297
f 495//521 550//576 320//378 240//298
f 496//522 557//583 305//363 225//283
f 513//539 545//571 369//427 321//379
f 514//540 546//572 370//428 323//381
f 515//541 547//573 371//429 324//382
f 516//542 548//574 372//430 325//383
f 517//543 549//575 373//431 327//385
f 518//544 550//576 374//432 329//387
f 519//545 551//577 375//433 333//391
f 520//546 552//578 376//434 334//392
f 521//547 553//579 377//435 336//394
f 522//548 554//580 378//436 337//395
f 523//549 555//581 379//437 342//400
f 524//550 556//582 380//438 343//401
f 525//551 557//583 381//439 347//405
f 526//552 558//584 382//440 348//406
f 527//553 559//585 383//441 351//409
f 528//554 560//586 384//442 352//410
f 561//830 499//525 328//386 417//767
f 562//833 500//526 330//388 418//771
f 563//836 506//532 340//398 419//775
f 564//839 512//538 350//408 420//779
f 565//842 508//534 344//402 421//783
f 566//845 503//529 335//393 422//787
f 567//848 501//527 331//389 423//791
f 568//851 502//528 332//390 424//795
f 569//854 498//524 326//384 425//799
f 570//857 509//535 345//403 426//803
f 571//860 510//536 346//404 427//807
f 572//863 511//537 349//407 428//811
f 573//866 497//523 322//380 429//815
f 574//869 507//533 341//399 430//819
f 575//872 504//530 338//396 431//823
f 576//875 505//531 339//397 432//827
f 577//587 578//588 579//589 580//590 581//591 582//592 583//593 584//594 585//595 586//596 587//597 588//598 589//599 590//600 591//601 592//602 593//603
g cylinder1_pie-dish
usemtl pie-dish
f 193//605 401//443 448//474 385//716
f 194//607 402//444 447//473 387//722
f 195//610 403//445 446//472 388//725
f 196//613 404//446 445//471 389//728
f 197//616 405//447 444//470 390//731
f 198//619 406//448 443//469 391//734
f 199//622 407//449 442//468 392//737
f 200//625 408//450 441//467 393//740
f 201//628 409//451 440//466 394//743
f 202//631 410//452 439//465 395//746
f 203//634 411//453 438//464 396//749
f 204//637 412//454 437//463 397//752
f 205//640 413//455 436//462 398//755
f 206//643 414//456 435//461 399//758
f 207//646 415//457 434//460 400//761
f 208//649 416//458 433//459 386//719
f 209//654 563//835 419//773 448//474 401//443
f 210//657 564//838 420//777 447//473 402//444
f 211//661 573//865 429//813 446//472 403//445
f 212//665 567//847 423//789 445//471 404//446
f 213//669 570//856 426//801 444//470 405//447
f 214//673 561//829 417//765 443//469 406//448
f 215//677 574//868 430//817 442//468 407//449
f 216//681 575//871 431//821 441//467 408//450
f 217//685 565//841 421//781 440//466 409//451
f 218//689 562//832 418//769 439//465 410//452
f 219//693 576//874 432//825 438//464 411//453
f 220//697 568//850 424//793 437//463 412//454
f 221//701 572//862 428//809 436//462 413//455
f 222//705 569//853 425//797 435//461 414//456
f 223//709 566//844 422//785 434//460 415//457
f 224//713 571//859 427//805 433//459 416//458
f 385//718 194//609 387//724 195//612 388//727 196//615 389//730 197//618 390//733 198//621 391//736 199//624 392//739 200//627 393//742 201//630 394//745 202//633 395//748 203//636 396//751 204//639 397//754 205//642 398//757 206//645 399//760 207//648 400//763 208//651 386//721 193//606
f 385//717 448//474 402//444 194//608
f 386//720 433//459 401//443 193//604
f 387//723 447//473 403//445 195//611
f 388//726 446//472 404//446 196//614
f 389//729 445//471 405//447 197//617
f 390//732 444//470 406//448 198//620
f 391//735 443//469 407//449 199//623
f 392//738 442//468 408//450 200//626
f 393//741 441//467 409//451 201//629
f 394//744 440//466 410//452 202//632
f 395//747 439//465 411//453 203//635
f 396//750 438//464 412//454 204//638
f 397//753 437//463 413//455 205//641
f 398//756 436//462 414//456 206//644
f 399//759 435//461 415//457 207//647
f 400//762 434//460 416//458 208//650
f 401//443 433//459 427//804 209//653
f 402//444 448//474 419//772 210//658
f 403//445 447//473 420//776 211//662
f 404//446 446//472 429//812 212//666
f 405//447 445//471 423//788 213//670
f 406//448 444//470 426//800 214//674
f 407//449 443//469 417//764 215//678
f 408//450 442//468 430//816 216//682
f 409//451 441//467 431//820 217//686
f 410//452 440//466 421//780 218//690
f 411//453 439//465 418//768 219//694
f 412//454 438//464 432//824 220//698
f 413//455 437//463 424//792 221//702
f 414//456 436//462 428//808 222//706
f 415//457 435//461 425//796 223//710
f 416//458 434//460 422//784 224//714
