# Exported from Wings 3D 0.98.29b
mtllib rabbit-sitting.mtl
o sphere4_cut11
#65 vertices, 65 faces
v -0.47730805 4.33748593 0.82378240
v -0.48231842 4.33748593 0.89231941
v -0.49658674 4.33748593 0.95042229
v -0.51794078 4.33748593 0.98924539
v -0.54312960 4.33748593 1.00287825
v -0.54312960 4.33748593 0.64468655
v -0.51794078 4.33748593 0.65831941
v -0.49658674 4.33748593 0.69714251
v -0.48231842 4.33748593 0.75524539
v -0.42150723 4.12071318 0.82378240
v -0.43076519 4.12071318 0.95042229
v -0.45712960 4.12071318 1.05778240
v -0.49658674 4.12071318 1.12951813
v -0.54312960 4.12071318 1.15470837
v -0.54312960 4.12071318 0.49285643
v -0.49658674 4.12071318 0.51804667
v -0.45712960 4.12071318 0.58978240
v -0.43076519 4.12071318 0.69714251
v -0.38422232 3.79628983 0.82378240
v -0.39631842 3.79628983 0.98924539
v -0.43076519 3.79628983 1.12951813
v -0.48231842 3.79628983 1.22324539
v -0.54312960 3.79628983 1.25615802
v -0.54312960 3.79628983 0.39140678
v -0.48231842 3.79628983 0.42431941
v -0.43076519 3.79628983 0.51804667
v -0.39631842 3.79628983 0.65831941
v -0.37112960 3.41360640 0.82378240
v -0.38422232 3.41360640 1.00287825
v -0.42150723 3.41360640 1.15470837
v -0.47730805 3.41360640 1.25615802
v -0.54312960 3.41360640 1.29178240
v -0.54312960 3.41360640 0.35578240
v -0.47730805 3.41360640 0.39140678
v -0.42150723 3.41360640 0.49285643
v -0.38422232 3.41360640 0.64468655
v -0.38422232 3.03092297 0.82378240
v -0.39631842 3.03092297 0.98924539
v -0.43076519 3.03092297 1.12951813
v -0.48231842 3.03092297 1.22324539
v -0.54312960 3.03092297 1.25615802
v -0.54312960 3.03092297 0.39140678
v -0.48231842 3.03092297 0.42431941
v -0.43076519 3.03092297 0.51804667
v -0.39631842 3.03092297 0.65831941
v -0.42150723 2.70649962 0.82378240
v -0.43076519 2.70649962 0.95042229
v -0.45712960 2.70649962 1.05778240
v -0.49658674 2.70649962 1.12951813
v -0.54312960 2.70649962 1.15470837
v -0.54312960 2.70649962 0.49285643
v -0.49658674 2.70649962 0.51804667
v -0.45712960 2.70649962 0.58978240
v -0.43076519 2.70649962 0.69714251
v -0.47730805 2.48972687 0.82378240
v -0.48231842 2.48972687 0.89231941
v -0.49658674 2.48972687 0.95042229
v -0.51794078 2.48972687 0.98924539
v -0.54312960 2.48972687 1.00287825
v -0.54312960 2.48972687 0.64468655
v -0.51794078 2.48972687 0.65831941
v -0.49658674 2.48972687 0.69714251
v -0.48231842 2.48972687 0.75524539
v -0.54312960 4.41360640 0.82378240
v -0.54312960 2.41360640 0.82378240
vn 0.88580462 0.46405838 1.4640645e-16
vn 0.86267949 0.48733515 0.13523516
vn 0.77196053 0.56262068 0.29586299
vn 0.52083846 0.69290596 0.49860670
vn 0.52083846 0.69290596 -0.49860670
vn 0.77196053 0.56262068 -0.29586299
vn 0.86267949 0.48733515 -0.13523516
vn 0.98326758 0.18216714 -1.5689686e-16
vn 0.96875968 0.19517878 0.15300305
vn 0.90425783 0.24266597 0.35132749
vn 0.66538177 0.34948186 0.65964349
vn 0.66538177 0.34948186 -0.65964349
vn 0.90425783 0.24266597 -0.35132749
vn 0.96875968 0.19517878 -0.15300305
vn 0.99724008 7.4244402e-2 -3.7947699e-16
vn 0.98457777 7.9770475e-2 0.15570256
vn 0.92704382 0.10040034 0.36126103
vn 0.69787980 0.15014160 0.70030086
vn 0.69787980 0.15014160 -0.70030086
vn 0.92704382 0.10040034 -0.36126103
vn 0.98457777 7.9770475e-2 -0.15570256
vn 1.00000000 0.0000000e+0 -3.1326570e-16
vn 0.98771924 1.7420240e-17 0.15623925
vn 0.93167648 -1.0509712e-17 0.36328906
vn 0.70490553 -1.0149541e-16 0.70930120
vn 0.70490553 1.4499344e-17 -0.70930120
vn 0.93167648 3.5032373e-18 -0.36328906
vn 0.98771924 8.7101199e-18 -0.15623925
vn 0.99724008 -7.4244402e-2 -3.6903267e-16
vn 0.98457777 -7.9770475e-2 0.15570256
vn 0.92704382 -0.10040034 0.36126103
vn 0.69787980 -0.15014160 0.70030086
vn 0.69787980 -0.15014160 -0.70030086
vn 0.92704382 -0.10040034 -0.36126103
vn 0.98457777 -7.9770475e-2 -0.15570256
vn 0.98326758 -0.18216714 -1.3249069e-16
vn 0.96875968 -0.19517878 0.15300305
vn 0.90425783 -0.24266597 0.35132749
vn 0.66538177 -0.34948186 0.65964349
vn 0.66538177 -0.34948186 -0.65964349
vn 0.90425783 -0.24266597 -0.35132749
vn 0.96875968 -0.19517878 -0.15300305
vn 0.88580462 -0.46405838 1.5711911e-16
vn 0.86267949 -0.48733515 0.13523516
vn 0.77196053 -0.56262068 0.29586299
vn 0.52083846 -0.69290596 0.49860670
vn 0.52083846 -0.69290596 -0.49860670
vn 0.77196053 -0.56262068 -0.29586299
vn 0.86267949 -0.48733515 -0.13523516
vn 0.31899373 0.74220086 0.58939026
vn 0.31899373 0.74220086 0.58939026
vn -1.00000000 0.0000000e+0 1.2638195e-16
vn 0.31899373 0.74220086 -0.58939026
vn 0.31899373 0.74220086 -0.58939026
vn -1.00000000 0.0000000e+0 1.2638195e-16
vn 0.43649078 0.39882199 0.80648423
vn 0.43649078 0.39882199 0.80648423
vn -1.00000000 0.0000000e+0 1.2638195e-16
vn 0.43649078 0.39882199 -0.80648423
vn 0.43649078 0.39882199 -0.80648423
vn -1.00000000 0.0000000e+0 1.2638195e-16
vn 0.46871136 0.17413983 0.86601673
vn 0.46871136 0.17413983 0.86601673
vn -1.00000000 0.0000000e+0 1.2638195e-16
vn 0.46871136 0.17413983 -0.86601673
vn 0.46871136 0.17413983 -0.86601673
vn -1.00000000 0.0000000e+0 1.2638195e-16
vn 0.47598395 -1.3228008e-16 0.87945397
vn 0.47598395 -1.3228008e-16 0.87945397
vn -1.00000000 0.0000000e+0 1.2638195e-16
vn 0.47598395 4.1772656e-17 -0.87945397
vn 0.47598395 4.1772656e-17 -0.87945397
vn -1.00000000 0.0000000e+0 1.2638195e-16
vn 0.46871136 -0.17413983 0.86601673
vn 0.46871136 -0.17413983 0.86601673
vn -1.00000000 0.0000000e+0 1.2638195e-16
vn 0.46871136 -0.17413983 -0.86601673
vn 0.46871136 -0.17413983 -0.86601673
vn -1.00000000 0.0000000e+0 1.2638195e-16
vn 0.43649078 -0.39882199 0.80648423
vn 0.43649078 -0.39882199 0.80648423
vn -1.00000000 0.0000000e+0 1.2638195e-16
vn 0.43649078 -0.39882199 -0.80648423
vn 0.43649078 -0.39882199 -0.80648423
vn -1.00000000 0.0000000e+0 1.2638195e-16
vn 0.31899373 -0.74220086 0.58939026
vn 0.31899373 -0.74220086 0.58939026
vn -1.00000000 0.0000000e+0 1.2638195e-16
vn 0.31899373 -0.74220086 -0.58939026
vn 0.31899373 -0.74220086 -0.58939026
vn -1.00000000 0.0000000e+0 1.2638195e-16
vn 0.57994027 0.81465900 -1.0813601e-16
vn 0.57994027 0.81465900 -1.0721177e-16
vn 0.57994027 0.81465900 -1.1090873e-16
vn 0.57994027 0.81465900 -1.1090873e-16
vn 0.57994027 0.81465900 -1.0351481e-16
vn 0.57994027 0.81465900 -1.0351481e-16
vn 0.57994027 0.81465900 -9.9817855e-17
vn 0.57994027 0.81465900 -1.0351481e-16
vn -1.00000000 0.0000000e+0 1.2638195e-16
vn 0.57994027 -0.81465900 -1.8207516e-16
vn 0.57994027 -0.81465900 -1.7745396e-16
vn 0.57994027 -0.81465900 -1.7745396e-16
vn 0.57994027 -0.81465900 -1.7745396e-16
vn 0.57994027 -0.81465900 -1.9224179e-16
vn 0.57994027 -0.81465900 -1.9224179e-16
vn 0.57994027 -0.81465900 -1.8854484e-16
vn 0.57994027 -0.81465900 -1.9224179e-16
vn -1.00000000 0.0000000e+0 1.2638195e-16
g sphere4_cut11_default
usemtl default
f 1//1 10//8 18//14 9//7
f 1//1 64//92 2//2
f 2//2 11//9 10//8 1//1
f 2//2 64//93 3//3
f 3//3 12//10 11//9 2//2
f 3//3 64//94 4//4
f 4//4 13//11 12//10 3//3
f 4//4 64//95 5//50
f 5//51 14//56 13//11 4//4
f 5//52 64//100 6//55 15//61 24//67 33//73 42//79 51//85 60//91 65//109 59//88 50//82 41//76 32//70 23//64 14//58
f 6//53 64//96 7//5
f 7//5 16//12 15//59 6//54
f 7//5 64//97 8//6
f 8//6 17//13 16//12 7//5
f 8//6 64//98 9//7
f 9//7 18//14 17//13 8//6
f 9//7 64//99 1//1
f 10//8 19//15 27//21 18//14
f 11//9 20//16 19//15 10//8
f 12//10 21//17 20//16 11//9
f 13//11 22//18 21//17 12//10
f 14//57 23//62 22//18 13//11
f 16//12 25//19 24//65 15//60
f 17//13 26//20 25//19 16//12
f 18//14 27//21 26//20 17//13
f 19//15 28//22 36//28 27//21
f 20//16 29//23 28//22 19//15
f 21//17 30//24 29//23 20//16
f 22//18 31//25 30//24 21//17
f 23//63 32//68 31//25 22//18
f 25//19 34//26 33//71 24//66
f 26//20 35//27 34//26 25//19
f 27//21 36//28 35//27 26//20
f 28//22 37//29 45//35 36//28
f 29//23 38//30 37//29 28//22
f 30//24 39//31 38//30 29//23
f 31//25 40//32 39//31 30//24
f 32//69 41//74 40//32 31//25
f 34//26 43//33 42//77 33//72
f 35//27 44//34 43//33 34//26
f 36//28 45//35 44//34 35//27
f 37//29 46//36 54//42 45//35
f 38//30 47//37 46//36 37//29
f 39//31 48//38 47//37 38//30
f 40//32 49//39 48//38 39//31
f 41//75 50//80 49//39 40//32
f 43//33 52//40 51//83 42//78
f 44//34 53//41 52//40 43//33
f 45//35 54//42 53//41 44//34
f 46//36 55//43 63//49 54//42
f 47//37 56//44 55//43 46//36
f 48//38 57//45 56//44 47//37
f 49//39 58//46 57//45 48//38
f 50//81 59//87 58//46 49//39
f 52//40 61//47 60//90 51//84
f 53//41 62//48 61//47 52//40
f 54//42 63//49 62//48 53//41
f 55//43 65//108 63//49
f 56//44 65//101 55//43
f 57//45 65//102 56//44
f 58//46 65//103 57//45
f 59//86 65//104 58//46
f 61//47 65//105 60//89
f 62//48 65//106 61//47
f 63//49 65//107 62//48
o sphere6_copy11
#65 vertices, 65 faces
v -0.65273225 0.54878444 0.66895360
v -0.66010344 0.54878444 0.72584459
v -0.68109479 0.54878444 0.77407445
v -0.71251056 0.54878444 0.80630061
v -0.74956800 0.54878444 0.81761693
v -0.78662544 0.54878444 0.80630061
v -0.81804121 0.54878444 0.77407445
v -0.83903256 0.54878444 0.72584459
v -0.84640375 0.54878444 0.66895360
v -0.83903256 0.54878444 0.61206261
v -0.81804121 0.54878444 0.56383275
v -0.78662544 0.54878444 0.53160659
v -0.74956800 0.54878444 0.52029027
v -0.71251056 0.54878444 0.53160659
v -0.68109479 0.54878444 0.56383275
v -0.66010344 0.54878444 0.61206261
v -0.57063887 0.42002143 0.66895360
v -0.58425904 0.42002143 0.77407445
v -0.62304600 0.42002143 0.86319160
v -0.68109479 0.42002143 0.92273778
v -0.74956800 0.42002143 0.94364761
v -0.81804121 0.42002143 0.92273778
v -0.87609000 0.42002143 0.86319160
v -0.91487696 0.42002143 0.77407445
v -0.92849713 0.42002143 0.66895360
v -0.91487696 0.42002143 0.56383275
v -0.87609000 0.42002143 0.47471560
v -0.81804121 0.42002143 0.41516942
v -0.74956800 0.42002143 0.39425959
v -0.68109479 0.42002143 0.41516942
v -0.62304600 0.42002143 0.47471560
v -0.58425904 0.42002143 0.56383275
v -0.51578583 0.22731396 0.66895360
v -0.53358144 0.22731396 0.80630061
v -0.58425904 0.22731396 0.92273778
v -0.66010344 0.22731396 1.00053861
v -0.74956800 0.22731396 1.02785863
v -0.83903256 0.22731396 1.00053861
v -0.91487696 0.22731396 0.92273778
v -0.96555456 0.22731396 0.80630061
v -0.98335017 0.22731396 0.66895360
v -0.96555456 0.22731396 0.53160659
v -0.91487696 0.22731396 0.41516942
v -0.83903256 0.22731396 0.33736859
v -0.74956800 0.22731396 0.31004857
v -0.66010344 0.22731396 0.33736859
v -0.58425904 0.22731396 0.41516942
v -0.53358144 0.22731396 0.53160659
v -0.49652400 5.7206944e-17 0.66895360
v -0.51578583 5.7206944e-17 0.81761693
v -0.57063887 5.7206944e-17 0.94364761
v -0.65273225 5.7206944e-17 1.02785863
v -0.74956800 5.7206944e-17 1.05742960
v -0.84640375 5.7206944e-17 1.02785863
v -0.92849713 5.7206944e-17 0.94364761
v -0.98335017 5.7206944e-17 0.81761693
v -1.00261200 5.7206944e-17 0.66895360
v -0.98335017 5.7206944e-17 0.52029027
v -0.92849713 5.7206944e-17 0.39425959
v -0.84640375 5.7206944e-17 0.31004857
v -0.74956800 5.7206944e-17 0.28047760
v -0.65273225 5.7206944e-17 0.31004857
v -0.57063887 5.7206944e-17 0.39425959
v -0.51578583 5.7206944e-17 0.52029027
v -0.74956800 0.59400000 0.66895360
vn 0.65892374 0.75220974 -1.8496749e-16
vn 0.62180762 0.76451654 0.16991097
vn 0.50298875 0.79774391 0.33257626
vn 0.28957537 0.83730436 0.46375372
vn 8.7120189e-17 0.85605025 0.51689261
vn -0.28957537 0.83730436 0.46375372
vn -0.50298875 0.79774391 0.33257626
vn -0.62180762 0.76451654 0.16991097
vn -0.65892374 0.75220974 -1.7408705e-16
vn -0.62180762 0.76451654 -0.16991097
vn -0.50298875 0.79774391 -0.33257626
vn -0.28957537 0.83730436 -0.46375372
vn 1.2342027e-16 0.85605025 -0.51689261
vn 0.28957537 0.83730436 -0.46375372
vn 0.50298875 0.79774391 -0.33257626
vn 0.62180762 0.76451654 -0.16991097
vn 0.91203694 0.41010806 -3.3184811e-16
vn 0.87268147 0.42514908 0.24015683
vn 0.73458410 0.46911028 0.49022623
vn 0.44532987 0.52876101 0.72256010
vn 5.8181617e-17 0.56021969 0.82834407
vn -0.44532987 0.52876101 0.72256010
vn -0.73458410 0.46911028 0.49022623
vn -0.87268147 0.42514908 0.24015683
vn -0.91203694 0.41010806 -3.8480260e-16
vn -0.87268147 0.42514908 -0.24015683
vn -0.73458410 0.46911028 -0.49022623
vn -0.44532987 0.52876101 -0.72256010
vn -7.2727021e-17 0.56021969 -0.82834407
vn 0.44532987 0.52876101 -0.72256010
vn 0.73458410 0.46911028 -0.49022623
vn 0.87268147 0.42514908 -0.24015683
vn 0.98367327 0.17996358 -3.6541134e-16
vn 0.94674796 0.18795399 0.26142224
vn 0.81155517 0.21229106 0.54434429
vn 0.50522471 0.24784135 0.82663333
vn -1.4600896e-16 0.26780203 0.96347396
vn -0.50522471 0.24784135 0.82663333
vn -0.81155517 0.21229106 0.54434429
vn -0.94674796 0.18795399 0.26142224
vn -0.98367327 0.17996358 -4.2865561e-16
vn -0.94674796 0.18795399 -0.26142224
vn -0.81155517 0.21229106 -0.54434429
vn -0.50522471 0.24784135 -0.82663333
vn -2.4821524e-16 0.26780203 -0.96347396
vn 0.50522471 0.24784135 -0.82663333
vn 0.81155517 0.21229106 -0.54434429
vn 0.94674796 0.18795399 -0.26142224
vn 0.92158026 -0.38818787 -3.7531383e-16
vn 0.88923136 -0.38584305 0.24574933
vn 0.76813703 -0.37919595 0.51592241
vn 0.48330787 -0.37149107 0.79272182
vn -1.6310066e-16 -0.36877343 0.92951932
vn -0.48330787 -0.37149107 0.79272182
vn -0.76813703 -0.37919595 0.51592241
vn -0.88923136 -0.38584305 0.24574933
vn -0.92158026 -0.38818787 -3.7531383e-16
vn -0.88923136 -0.38584305 -0.24574933
vn -0.76813703 -0.37919595 -0.51592241
vn -0.48330787 -0.37149107 -0.79272182
vn -2.4465099e-16 -0.36877343 -0.92951932
vn 0.48330787 -0.37149107 -0.79272182
vn 0.76813703 -0.37919595 -0.51592241
vn 0.88923136 -0.38584305 -0.24574933
vn 9.3419028e-17 1.00000000 -6.3478229e-16
g sphere6_copy11_default
usemtl default
f 66//110 82//126 97//141 81//125
f 66//110 130//174 67//111
f 67//111 83//127 82//126 66//110
f 67//111 130//174 68//112
f 68//112 84//128 83//127 67//111
f 68//112 130//174 69//113
f 69//113 85//129 84//128 68//112
f 69//113 130//174 70//114
f 70//114 86//130 85//129 69//113
f 70//114 130//174 71//115
f 71//115 87//131 86//130 70//114
f 71//115 130//174 72//116
f 72//116 88//132 87//131 71//115
f 72//116 130//174 73//117
f 73//117 89//133 88//132 72//116
f 73//117 130//174 74//118
f 74//118 90//134 89//133 73//117
f 74//118 130//174 75//119
f 75//119 91//135 90//134 74//118
f 75//119 130//174 76//120
f 76//120 92//136 91//135 75//119
f 76//120 130//174 77//121
f 77//121 93//137 92//136 76//120
f 77//121 130//174 78//122
f 78//122 94//138 93//137 77//121
f 78//122 130//174 79//123
f 79//123 95//139 94//138 78//122
f 79//123 130//174 80//124
f 80//124 96//140 95//139 79//123
f 80//124 130//174 81//125
f 81//125 97//141 96//140 80//124
f 81//125 130//174 66//110
f 82//126 98//142 113//157 97//141
f 83//127 99//143 98//142 82//126
f 84//128 100//144 99//143 83//127
f 85//129 101//145 100//144 84//128
f 86//130 102//146 101//145 85//129
f 87//131 103//147 102//146 86//130
f 88//132 104//148 103//147 87//131
f 89//133 105//149 104//148 88//132
f 90//134 106//150 105//149 89//133
f 91//135 107//151 106//150 90//134
f 92//136 108//152 107//151 91//135
f 93//137 109//153 108//152 92//136
f 94//138 110//154 109//153 93//137
f 95//139 111//155 110//154 94//138
f 96//140 112//156 111//155 95//139
f 97//141 113//157 112//156 96//140
f 98//142 114//158 129//173 113//157
f 99//143 115//159 114//158 98//142
f 100//144 116//160 115//159 99//143
f 101//145 117//161 116//160 100//144
f 102//146 118//162 117//161 101//145
f 103//147 119//163 118//162 102//146
f 104//148 120//164 119//163 103//147
f 105//149 121//165 120//164 104//148
f 106//150 122//166 121//165 105//149
f 107//151 123//167 122//166 106//150
f 108//152 124//168 123//167 107//151
f 109//153 125//169 124//168 108//152
f 110//154 126//170 125//169 109//153
f 111//155 127//171 126//170 110//154
f 112//156 128//172 127//171 111//155
f 113//157 129//173 128//172 112//156
f 115//159 116//160 117//161 118//162 119//163 120//164 121//165 122//166 123//167 124//168 125//169 126//170 127//171 128//172 129//173 114//158
o sphere6_copy10
#65 vertices, 65 faces
v 0.82182775 0.54878444 0.66895360
v 0.81445656 0.54878444 0.72584459
v 0.79346521 0.54878444 0.77407445
v 0.76204944 0.54878444 0.80630061
v 0.72499200 0.54878444 0.81761693
v 0.68793456 0.54878444 0.80630061
v 0.65651879 0.54878444 0.77407445
v 0.63552744 0.54878444 0.72584459
v 0.62815625 0.54878444 0.66895360
v 0.63552744 0.54878444 0.61206261
v 0.65651879 0.54878444 0.56383275
v 0.68793456 0.54878444 0.53160659
v 0.72499200 0.54878444 0.52029027
v 0.76204944 0.54878444 0.53160659
v 0.79346521 0.54878444 0.56383275
v 0.81445656 0.54878444 0.61206261
v 0.90392113 0.42002143 0.66895360
v 0.89030096 0.42002143 0.77407445
v 0.85151400 0.42002143 0.86319160
v 0.79346521 0.42002143 0.92273778
v 0.72499200 0.42002143 0.94364761
v 0.65651879 0.42002143 0.92273778
v 0.59847000 0.42002143 0.86319160
v 0.55968304 0.42002143 0.77407445
v 0.54606287 0.42002143 0.66895360
v 0.55968304 0.42002143 0.56383275
v 0.59847000 0.42002143 0.47471560
v 0.65651879 0.42002143 0.41516942
v 0.72499200 0.42002143 0.39425959
v 0.79346521 0.42002143 0.41516942
v 0.85151400 0.42002143 0.47471560
v 0.89030096 0.42002143 0.56383275
v 0.95877417 0.22731396 0.66895360
v 0.94097856 0.22731396 0.80630061
v 0.89030096 0.22731396 0.92273778
v 0.81445656 0.22731396 1.00053861
v 0.72499200 0.22731396 1.02785863
v 0.63552744 0.22731396 1.00053861
v 0.55968304 0.22731396 0.92273778
v 0.50900544 0.22731396 0.80630061
v 0.49120983 0.22731396 0.66895360
v 0.50900544 0.22731396 0.53160659
v 0.55968304 0.22731396 0.41516942
v 0.63552744 0.22731396 0.33736859
v 0.72499200 0.22731396 0.31004857
v 0.81445656 0.22731396 0.33736859
v 0.89030096 0.22731396 0.41516942
v 0.94097856 0.22731396 0.53160659
v 0.97803600 5.7206944e-17 0.66895360
v 0.95877417 5.7206944e-17 0.81761693
v 0.90392113 5.7206944e-17 0.94364761
v 0.82182775 5.7206944e-17 1.02785863
v 0.72499200 5.7206944e-17 1.05742960
v 0.62815625 5.7206944e-17 1.02785863
v 0.54606287 5.7206944e-17 0.94364761
v 0.49120983 5.7206944e-17 0.81761693
v 0.47194800 5.7206944e-17 0.66895360
v 0.49120983 5.7206944e-17 0.52029027
v 0.54606287 5.7206944e-17 0.39425959
v 0.62815625 5.7206944e-17 0.31004857
v 0.72499200 5.7206944e-17 0.28047760
v 0.82182775 5.7206944e-17 0.31004857
v 0.90392113 5.7206944e-17 0.39425959
v 0.95877417 5.7206944e-17 0.52029027
v 0.72499200 0.59400000 0.66895360
vn 0.65892374 0.75220974 -1.8496749e-16
vn 0.62180762 0.76451654 0.16991097
vn 0.50298875 0.79774391 0.33257626
vn 0.28957537 0.83730436 0.46375372
vn 1.1616025e-16 0.85605025 0.51689261
vn -0.28957537 0.83730436 0.46375372
vn -0.50298875 0.79774391 0.33257626
vn -0.62180762 0.76451654 0.16991097
vn -0.65892374 0.75220974 -1.7408705e-16
vn -0.62180762 0.76451654 -0.16991097
vn -0.50298875 0.79774391 -0.33257626
vn -0.28957537 0.83730436 -0.46375372
vn 1.3794030e-16 0.85605025 -0.51689261
vn 0.28957537 0.83730436 -0.46375372
vn 0.50298875 0.79774391 -0.33257626
vn 0.62180762 0.76451654 -0.16991097
vn 0.91203694 0.41010806 -3.2831781e-16
vn 0.87268147 0.42514908 0.24015683
vn 0.73458410 0.46911028 0.49022623
vn 0.44532987 0.52876101 0.72256010
vn -4.3636213e-17 0.56021969 0.82834407
vn -0.44532987 0.52876101 0.72256010
vn -0.73458410 0.46911028 0.49022623
vn -0.87268147 0.42514908 0.24015683
vn -0.91203694 0.41010806 -3.8127230e-16
vn -0.87268147 0.42514908 -0.24015683
vn -0.73458410 0.46911028 -0.49022623
vn -0.44532987 0.52876101 -0.72256010
vn 5.8181617e-17 0.56021969 -0.82834407
vn 0.44532987 0.52876101 -0.72256010
vn 0.73458410 0.46911028 -0.49022623
vn 0.87268147 0.42514908 -0.24015683
vn 0.98367327 0.17996358 -4.1460133e-16
vn 0.94674796 0.18795399 0.26142224
vn 0.81155517 0.21229106 0.54434429
vn 0.50522471 0.24784135 0.82663333
vn -2.1901345e-16 0.26780203 0.96347396
vn -0.50522471 0.24784135 0.82663333
vn -0.81155517 0.21229106 0.54434429
vn -0.94674796 0.18795399 0.26142224
vn -0.98367327 0.17996358 -4.2865561e-16
vn -0.94674796 0.18795399 -0.26142224
vn -0.81155517 0.21229106 -0.54434429
vn -0.50522471 0.24784135 -0.82663333
vn -1.0220628e-16 0.26780203 -0.96347396
vn 0.50522471 0.24784135 -0.82663333
vn 0.81155517 0.21229106 -0.54434429
vn 0.94674796 0.18795399 -0.26142224
vn 0.92158026 -0.38818787 -4.7884868e-16
vn 0.88923136 -0.38584305 0.24574933
vn 0.76813703 -0.37919595 0.51592241
vn 0.48330787 -0.37149107 0.79272182
vn -1.6310066e-16 -0.36877343 0.92951932
vn -0.48330787 -0.37149107 0.79272182
vn -0.76813703 -0.37919595 0.51592241
vn -0.88923136 -0.38584305 0.24574933
vn -0.92158026 -0.38818787 -3.8825568e-16
vn -0.88923136 -0.38584305 -0.24574933
vn -0.76813703 -0.37919595 -0.51592241
vn -0.48330787 -0.37149107 -0.79272182
vn -2.4465099e-16 -0.36877343 -0.92951932
vn 0.48330787 -0.37149107 -0.79272182
vn 0.76813703 -0.37919595 -0.51592241
vn 0.88923136 -0.38584305 -0.24574933
vn 3.7367611e-18 1.00000000 -6.3104553e-16
g sphere6_copy10_default
usemtl default
f 131//175 147//191 162//206 146//190
f 131//175 195//239 132//176
f 132//176 148//192 147//191 131//175
f 132//176 195//239 133//177
f 133//177 149//193 148//192 132//176
f 133//177 195//239 134//178
f 134//178 150//194 149//193 133//177
f 134//178 195//239 135//179
f 135//179 151//195 150//194 134//178
f 135//179 195//239 136//180
f 136//180 152//196 151//195 135//179
f 136//180 195//239 137//181
f 137//181 153//197 152//196 136//180
f 137//181 195//239 138//182
f 138//182 154//198 153//197 137//181
f 138//182 195//239 139//183
f 139//183 155//199 154//198 138//182
f 139//183 195//239 140//184
f 140//184 156//200 155//199 139//183
f 140//184 195//239 141//185
f 141//185 157//201 156//200 140//184
f 141//185 195//239 142//186
f 142//186 158//202 157//201 141//185
f 142//186 195//239 143//187
f 143//187 159//203 158//202 142//186
f 143//187 195//239 144//188
f 144//188 160//204 159//203 143//187
f 144//188 195//239 145//189
f 145//189 161//205 160//204 144//188
f 145//189 195//239 146//190
f 146//190 162//206 161//205 145//189
f 146//190 195//239 131//175
f 147//191 163//207 178//222 162//206
f 148//192 164//208 163//207 147//191
f 149//193 165//209 164//208 148//192
f 150//194 166//210 165//209 149//193
f 151//195 167//211 166//210 150//194
f 152//196 168//212 167//211 151//195
f 153//197 169//213 168//212 152//196
f 154//198 170//214 169//213 153//197
f 155//199 171//215 170//214 154//198
f 156//200 172//216 171//215 155//199
f 157//201 173//217 172//216 156//200
f 158//202 174//218 173//217 157//201
f 159//203 175//219 174//218 158//202
f 160//204 176//220 175//219 159//203
f 161//205 177//221 176//220 160//204
f 162//206 178//222 177//221 161//205
f 163//207 179//223 194//238 178//222
f 164//208 180//224 179//223 163//207
f 165//209 181//225 180//224 164//208
f 166//210 182//226 181//225 165//209
f 167//211 183//227 182//226 166//210
f 168//212 184//228 183//227 167//211
f 169//213 185//229 184//228 168//212
f 170//214 186//230 185//229 169//213
f 171//215 187//231 186//230 170//214
f 172//216 188//232 187//231 171//215
f 173//217 189//233 188//232 172//216
f 174//218 190//234 189//233 173//217
f 175//219 191//235 190//234 174//218
f 176//220 192//236 191//235 175//219
f 177//221 193//237 192//236 176//220
f 178//222 194//238 193//237 177//221
f 180//224 181//225 182//226 183//227 184//228 185//229 186//230 187//231 188//232 189//233 190//234 191//235 192//236 193//237 194//238 179//223
o sphere6_copy8
#65 vertices, 65 faces
v -0.65273225 0.54878444 -0.55984640
v -0.66010344 0.54878444 -0.47285711
v -0.68109479 0.54878444 -0.39911116
v -0.71251056 0.54878444 -0.34983569
v -0.74956800 0.54878444 -0.33253244
v -0.78662544 0.54878444 -0.34983569
v -0.81804121 0.54878444 -0.39911116
v -0.83903256 0.54878444 -0.47285711
v -0.84640375 0.54878444 -0.55984640
v -0.83903256 0.54878444 -0.64683569
v -0.81804121 0.54878444 -0.72058164
v -0.78662544 0.54878444 -0.76985711
v -0.74956800 0.54878444 -0.78716036
v -0.71251056 0.54878444 -0.76985711
v -0.68109479 0.54878444 -0.72058164
v -0.66010344 0.54878444 -0.64683569
v -0.57063887 0.42002143 -0.55984640
v -0.58425904 0.42002143 -0.39911116
v -0.62304600 0.42002143 -0.26284640
v -0.68109479 0.42002143 -0.17179720
v -0.74956800 0.42002143 -0.13982497
v -0.81804121 0.42002143 -0.17179720
v -0.87609000 0.42002143 -0.26284640
v -0.91487696 0.42002143 -0.39911116
v -0.92849713 0.42002143 -0.55984640
v -0.91487696 0.42002143 -0.72058164
v -0.87609000 0.42002143 -0.85684640
v -0.81804121 0.42002143 -0.94789560
v -0.74956800 0.42002143 -0.97986783
v -0.68109479 0.42002143 -0.94789560
v -0.62304600 0.42002143 -0.85684640
v -0.58425904 0.42002143 -0.72058164
v -0.51578583 0.22731396 -0.55984640
v -0.53358144 0.22731396 -0.34983569
v -0.58425904 0.22731396 -0.17179720
v -0.66010344 0.22731396 -5.2835686e-2
v -0.74956800 0.22731396 -1.1061958e-2
v -0.83903256 0.22731396 -5.2835686e-2
v -0.91487696 0.22731396 -0.17179720
v -0.96555456 0.22731396 -0.34983569
v -0.98335017 0.22731396 -0.55984640
v -0.96555456 0.22731396 -0.76985711
v -0.91487696 0.22731396 -0.94789560
v -0.83903256 0.22731396 -1.06685711
v -0.74956800 0.22731396 -1.10863084
v -0.66010344 0.22731396 -1.06685711
v -0.58425904 0.22731396 -0.94789560
v -0.53358144 0.22731396 -0.76985711
v -0.49652400 5.7206944e-17 -0.55984640
v -0.51578583 5.7206944e-17 -0.33253244
v -0.57063887 5.7206944e-17 -0.13982497
v -0.65273225 5.7206944e-17 -1.1061958e-2
v -0.74956800 5.7206944e-17 3.4153600e-2
v -0.84640375 5.7206944e-17 -1.1061958e-2
v -0.92849713 5.7206944e-17 -0.13982497
v -0.98335017 5.7206944e-17 -0.33253244
v -1.00261200 5.7206944e-17 -0.55984640
v -0.98335017 5.7206944e-17 -0.78716036
v -0.92849713 5.7206944e-17 -0.97986783
v -0.84640375 5.7206944e-17 -1.10863084
v -0.74956800 5.7206944e-17 -1.15384640
v -0.65273225 5.7206944e-17 -1.10863084
v -0.57063887 5.7206944e-17 -0.97986783
v -0.51578583 5.7206944e-17 -0.78716036
v -0.74956800 0.59400000 -0.55984640
vn 0.65920045 0.75196727 5.4286987e-17
vn 0.62817281 0.76983505 0.11292879
vn 0.52318843 0.82106426 0.22831414
vn 0.31317680 0.88932505 0.33319850
vn 8.6461005e-17 0.92495788 0.38006962
vn -0.31317680 0.88932505 0.33319850
vn -0.52318843 0.82106426 0.22831414
vn -0.62817281 0.76983505 0.11292879
vn -0.65920045 0.75196727 0.0000000e+0
vn -0.62817281 0.76983505 -0.11292879
vn -0.52318843 0.82106426 -0.22831414
vn -0.31317680 0.88932505 -0.33319850
vn 2.5938301e-16 0.92495788 -0.38006962
vn 0.31317680 0.88932505 -0.33319850
vn 0.52318843 0.82106426 -0.22831414
vn 0.62817281 0.76983505 -0.11292879
vn 0.91206716 0.41004084 5.2748873e-17
vn 0.88721918 0.43227186 0.16119295
vn 0.78910428 0.50478589 0.35000806
vn 0.52368375 0.62842774 0.57518164
vn 1.4892951e-17 0.70974817 0.70445549
vn -0.52368375 0.62842774 0.57518164
vn -0.78910428 0.50478589 0.35000806
vn -0.88721918 0.43227186 0.16119295
vn -0.91206716 0.41004084 -7.0331830e-18
vn -0.88721918 0.43227186 -0.16119295
vn -0.78910428 0.50478589 -0.35000806
vn -0.52368375 0.62842774 -0.57518164
vn -1.6382246e-16 0.70974817 -0.70445549
vn 0.52368375 0.62842774 -0.57518164
vn 0.78910428 0.50478589 -0.35000806
vn 0.88721918 0.43227186 -0.16119295
vn 0.98367604 0.17994844 -3.8473664e-17
vn 0.96545175 0.19187092 0.17631923
vn 0.88733269 0.23376762 0.39748383
vn 0.62911347 0.31848577 0.70907197
vn -1.2294647e-16 0.38497918 0.92292526
vn -0.62911347 0.31848577 0.70907197
vn -0.88733269 0.23376762 0.39748383
vn -0.96545175 0.19187092 0.17631923
vn -0.98367604 0.17994844 -1.7488029e-17
vn -0.96545175 0.19187092 -0.17631923
vn -0.88733269 0.23376762 -0.39748383
vn -0.62911347 0.31848577 -0.70907197
vn -3.8420771e-16 0.38497918 -0.92292526
vn 0.62911347 0.31848577 -0.70907197
vn 0.88733269 0.23376762 -0.39748383
vn 0.96545175 0.19187092 -0.17631923
vn 0.92236342 -0.38632333 -1.2891947e-16
vn 0.90897968 -0.38226311 0.16622532
vn 0.84805657 -0.36833221 0.38096120
vn 0.61975352 -0.34499831 0.70489839
vn -2.3415204e-16 -0.34021686 0.94034700
vn -0.61975352 -0.34499831 0.70489839
vn -0.84805657 -0.36833221 0.38096120
vn -0.90897968 -0.38226311 0.16622532
vn -0.92236342 -0.38632333 -1.9337920e-17
vn -0.90897968 -0.38226311 -0.16622532
vn -0.84805657 -0.36833221 -0.38096120
vn -0.61975352 -0.34499831 -0.70489839
vn -3.5122805e-16 -0.34021686 -0.94034700
vn 0.61975352 -0.34499831 -0.70489839
vn 0.84805657 -0.36833221 -0.38096120
vn 0.90897968 -0.38226311 -0.16622532
vn 1.1069310e-16 1.00000000 -6.9183187e-17
g sphere6_copy8_default
usemtl default
f 196//240 212//256 227//271 211//255
f 196//240 260//304 197//241
f 197//241 213//257 212//256 196//240
f 197//241 260//304 198//242
f 198//242 214//258 213//257 197//241
f 198//242 260//304 199//243
f 199//243 215//259 214//258 198//242
f 199//243 260//304 200//244
f 200//244 216//260 215//259 199//243
f 200//244 260//304 201//245
f 201//245 217//261 216//260 200//244
f 201//245 260//304 202//246
f 202//246 218//262 217//261 201//245
f 202//246 260//304 203//247
f 203//247 219//263 218//262 202//246
f 203//247 260//304 204//248
f 204//248 220//264 219//263 203//247
f 204//248 260//304 205//249
f 205//249 221//265 220//264 204//248
f 205//249 260//304 206//250
f 206//250 222//266 221//265 205//249
f 206//250 260//304 207//251
f 207//251 223//267 222//266 206//250
f 207//251 260//304 208//252
f 208//252 224//268 223//267 207//251
f 208//252 260//304 209//253
f 209//253 225//269 224//268 208//252
f 209//253 260//304 210//254
f 210//254 226//270 225//269 209//253
f 210//254 260//304 211//255
f 211//255 227//271 226//270 210//254
f 211//255 260//304 196//240
f 212//256 228//272 243//287 227//271
f 213//257 229//273 228//272 212//256
f 214//258 230//274 229//273 213//257
f 215//259 231//275 230//274 214//258
f 216//260 232//276 231//275 215//259
f 217//261 233//277 232//276 216//260
f 218//262 234//278 233//277 217//261
f 219//263 235//279 234//278 218//262
f 220//264 236//280 235//279 219//263
f 221//265 237//281 236//280 220//264
f 222//266 238//282 237//281 221//265
f 223//267 239//283 238//282 222//266
f 224//268 240//284 239//283 223//267
f 225//269 241//285 240//284 224//268
f 226//270 242//286 241//285 225//269
f 227//271 243//287 242//286 226//270
f 228//272 244//288 259//303 243//287
f 229//273 245//289 244//288 228//272
f 230//274 246//290 245//289 229//273
f 231//275 247//291 246//290 230//274
f 232//276 248//292 247//291 231//275
f 233//277 249//293 248//292 232//276
f 234//278 250//294 249//293 233//277
f 235//279 251//295 250//294 234//278
f 236//280 252//296 251//295 235//279
f 237//281 253//297 252//296 236//280
f 238//282 254//298 253//297 237//281
f 239//283 255//299 254//298 238//282
f 240//284 256//300 255//299 239//283
f 241//285 257//301 256//300 240//284
f 242//286 258//302 257//301 241//285
f 243//287 259//303 258//302 242//286
f 245//289 246//290 247//291 248//292 249//293 250//294 251//295 252//296 253//297 254//298 255//299 256//300 257//301 258//302 259//303 244//288
o sphere6_cut7
#65 vertices, 65 faces
v 0.82182775 0.54878444 -0.55984640
v 0.81445656 0.54878444 -0.47285711
v 0.79346521 0.54878444 -0.39911116
v 0.76204944 0.54878444 -0.34983569
v 0.72499200 0.54878444 -0.33253244
v 0.68793456 0.54878444 -0.34983569
v 0.65651879 0.54878444 -0.39911116
v 0.63552744 0.54878444 -0.47285711
v 0.62815625 0.54878444 -0.55984640
v 0.63552744 0.54878444 -0.64683569
v 0.65651879 0.54878444 -0.72058164
v 0.68793456 0.54878444 -0.76985711
v 0.72499200 0.54878444 -0.78716036
v 0.76204944 0.54878444 -0.76985711
v 0.79346521 0.54878444 -0.72058164
v 0.81445656 0.54878444 -0.64683569
v 0.90392113 0.42002143 -0.55984640
v 0.89030096 0.42002143 -0.39911116
v 0.85151400 0.42002143 -0.26284640
v 0.79346521 0.42002143 -0.17179720
v 0.72499200 0.42002143 -0.13982497
v 0.65651879 0.42002143 -0.17179720
v 0.59847000 0.42002143 -0.26284640
v 0.55968304 0.42002143 -0.39911116
v 0.54606287 0.42002143 -0.55984640
v 0.55968304 0.42002143 -0.72058164
v 0.59847000 0.42002143 -0.85684640
v 0.65651879 0.42002143 -0.94789560
v 0.72499200 0.42002143 -0.97986783
v 0.79346521 0.42002143 -0.94789560
v 0.85151400 0.42002143 -0.85684640
v 0.89030096 0.42002143 -0.72058164
v 0.95877417 0.22731396 -0.55984640
v 0.94097856 0.22731396 -0.34983569
v 0.89030096 0.22731396 -0.17179720
v 0.81445656 0.22731396 -5.2835686e-2
v 0.72499200 0.22731396 -1.1061958e-2
v 0.63552744 0.22731396 -5.2835686e-2
v 0.55968304 0.22731396 -0.17179720
v 0.50900544 0.22731396 -0.34983569
v 0.49120983 0.22731396 -0.55984640
v 0.50900544 0.22731396 -0.76985711
v 0.55968304 0.22731396 -0.94789560
v 0.63552744 0.22731396 -1.06685711
v 0.72499200 0.22731396 -1.10863084
v 0.81445656 0.22731396 -1.06685711
v 0.89030096 0.22731396 -0.94789560
v 0.94097856 0.22731396 -0.76985711
v 0.97803600 5.7206944e-17 -0.55984640
v 0.95877417 5.7206944e-17 -0.33253244
v 0.90392113 5.7206944e-17 -0.13982497
v 0.82182775 5.7206944e-17 -1.1061958e-2
v 0.72499200 5.7206944e-17 3.4153600e-2
v 0.62815625 5.7206944e-17 -1.1061958e-2
v 0.54606287 5.7206944e-17 -0.13982497
v 0.49120983 5.7206944e-17 -0.33253244
v 0.47194800 5.7206944e-17 -0.55984640
v 0.49120983 5.7206944e-17 -0.78716036
v 0.54606287 5.7206944e-17 -0.97986783
v 0.62815625 5.7206944e-17 -1.10863084
v 0.72499200 5.7206944e-17 -1.15384640
v 0.82182775 5.7206944e-17 -1.10863084
v 0.90392113 5.7206944e-17 -0.97986783
v 0.95877417 5.7206944e-17 -0.78716036
v 0.72499200 0.59400000 -0.55984640
vn 0.65920045 0.75196727 5.7906120e-17
vn 0.62817281 0.76983505 0.11292879
vn 0.52318843 0.82106426 0.22831414
vn 0.31317680 0.88932505 0.33319850
vn 1.1528134e-16 0.92495788 0.38006962
vn -0.31317680 0.88932505 0.33319850
vn -0.52318843 0.82106426 0.22831414
vn -0.62817281 0.76983505 0.11292879
vn -0.65920045 0.75196727 0.0000000e+0
vn -0.62817281 0.76983505 -0.11292879
vn -0.52318843 0.82106426 -0.22831414
vn -0.31317680 0.88932505 -0.33319850
vn 2.7379318e-16 0.92495788 -0.38006962
vn 0.31317680 0.88932505 -0.33319850
vn 0.52318843 0.82106426 -0.22831414
vn 0.62817281 0.76983505 -0.11292879
vn 0.91206716 0.41004084 5.6265464e-17
vn 0.88721918 0.43227186 0.16119295
vn 0.78910428 0.50478589 0.35000806
vn 0.52368375 0.62842774 0.57518164
vn -1.0425066e-16 0.70974817 0.70445549
vn -0.52368375 0.62842774 0.57518164
vn -0.78910428 0.50478589 0.35000806
vn -0.88721918 0.43227186 0.16119295
vn -0.91206716 0.41004084 -3.5165915e-18
vn -0.88721918 0.43227186 -0.16119295
vn -0.78910428 0.50478589 -0.35000806
vn -0.52368375 0.62842774 -0.57518164
vn -1.4892951e-17 0.70974817 -0.70445549
vn 0.52368375 0.62842774 -0.57518164
vn 0.78910428 0.50478589 -0.35000806
vn 0.88721918 0.43227186 -0.16119295
vn 0.98367604 0.17994844 -7.3449723e-17
vn 0.96545175 0.19187092 0.17631923
vn 0.88733269 0.23376762 0.39748383
vn 0.62911347 0.31848577 0.70907197
vn -2.3052462e-16 0.38497918 0.92292526
vn -0.62911347 0.31848577 0.70907197
vn -0.88733269 0.23376762 0.39748383
vn -0.96545175 0.19187092 0.17631923
vn -0.98367604 0.17994844 -1.3990423e-17
vn -0.96545175 0.19187092 -0.17631923
vn -0.88733269 0.23376762 -0.39748383
vn -0.62911347 0.31848577 -0.70907197
vn -1.9978801e-16 0.38497918 -0.92292526
vn 0.62911347 0.31848577 -0.70907197
vn 0.88733269 0.23376762 -0.39748383
vn 0.96545175 0.19187092 -0.17631923
vn 0.92236342 -0.38632333 -1.9337920e-16
vn 0.90897968 -0.38226311 0.16622532
vn 0.84805657 -0.36833221 0.38096120
vn 0.61975352 -0.34499831 0.70489839
vn -2.3415204e-16 -0.34021686 0.94034700
vn -0.61975352 -0.34499831 0.70489839
vn -0.84805657 -0.36833221 0.38096120
vn -0.90897968 -0.38226311 0.16622532
vn -0.92236342 -0.38632333 -1.9337920e-17
vn -0.90897968 -0.38226311 -0.16622532
vn -0.84805657 -0.36833221 -0.38096120
vn -0.61975352 -0.34499831 -0.70489839
vn -3.5122805e-16 -0.34021686 -0.94034700
vn 0.61975352 -0.34499831 -0.70489839
vn 0.84805657 -0.36833221 -0.38096120
vn 0.90897968 -0.38226311 -0.16622532
vn 9.5934020e-17 1.00000000 -7.1028072e-17
g sphere6_cut7_default
usemtl default
f 261//305 277//321 292//336 276//320
f 261//305 325//369 262//306
f 262//306 278//322 277//321 261//305
f 262//306 325//369 263//307
f 263//307 279//323 278//322 262//306
f 263//307 325//369 264//308
f 264//308 280//324 279//323 263//307
f 264//308 325//369 265//309
f 265//309 281//325 280//324 264//308
f 265//309 325//369 266//310
f 266//310 282//326 281//325 265//309
f 266//310 325//369 267//311
f 267//311 283//327 282//326 266//310
f 267//311 325//369 268//312
f 268//312 284//328 283//327 267//311
f 268//312 325//369 269//313
f 269//313 285//329 284//328 268//312
f 269//313 325//369 270//314
f 270//314 286//330 285//329 269//313
f 270//314 325//369 271//315
f 271//315 287//331 286//330 270//314
f 271//315 325//369 272//316
f 272//316 288//332 287//331 271//315
f 272//316 325//369 273//317
f 273//317 289//333 288//332 272//316
f 273//317 325//369 274//318
f 274//318 290//334 289//333 273//317
f 274//318 325//369 275//319
f 275//319 291//335 290//334 274//318
f 275//319 325//369 276//320
f 276//320 292//336 291//335 275//319
f 276//320 325//369 261//305
f 277//321 293//337 308//352 292//336
f 278//322 294//338 293//337 277//321
f 279//323 295//339 294//338 278//322
f 280//324 296//340 295//339 279//323
f 281//325 297//341 296//340 280//324
f 282//326 298//342 297//341 281//325
f 283//327 299//343 298//342 282//326
f 284//328 300//344 299//343 283//327
f 285//329 301//345 300//344 284//328
f 286//330 302//346 301//345 285//329
f 287//331 303//347 302//346 286//330
f 288//332 304//348 303//347 287//331
f 289//333 305//349 304//348 288//332
f 290//334 306//350 305//349 289//333
f 291//335 307//351 306//350 290//334
f 292//336 308//352 307//351 291//335
f 293//337 309//353 324//368 308//352
f 294//338 310//354 309//353 293//337
f 295//339 311//355 310//354 294//338
f 296//340 312//356 311//355 295//339
f 297//341 313//357 312//356 296//340
f 298//342 314//358 313//357 297//341
f 299//343 315//359 314//358 298//342
f 300//344 316//360 315//359 299//343
f 301//345 317//361 316//360 300//344
f 302//346 318//362 317//361 301//345
f 303//347 319//363 318//362 302//346
f 304//348 320//364 319//363 303//347
f 305//349 321//365 320//364 304//348
f 306//350 322//366 321//365 305//349
f 307//351 323//367 322//366 306//350
f 308//352 324//368 323//367 307//351
f 310//354 311//355 312//356 313//357 314//358 315//359 316//360 317//361 318//362 319//363 320//364 321//365 322//366 323//367 324//368 309//353
o sphere4
#65 vertices, 65 faces
v 0.51118080 4.33748593 1.00287825
v 0.48599198 4.33748593 0.98924539
v 0.46463794 4.33748593 0.95042229
v 0.45036962 4.33748593 0.89231941
v 0.44535925 4.33748593 0.82378240
v 0.45036962 4.33748593 0.75524539
v 0.46463794 4.33748593 0.69714251
v 0.48599198 4.33748593 0.65831941
v 0.51118080 4.33748593 0.64468655
v 0.51118080 4.12071318 1.15470837
v 0.46463794 4.12071318 1.12951813
v 0.42518080 4.12071318 1.05778240
v 0.39881639 4.12071318 0.95042229
v 0.38955843 4.12071318 0.82378240
v 0.39881639 4.12071318 0.69714251
v 0.42518080 4.12071318 0.58978240
v 0.46463794 4.12071318 0.51804667
v 0.51118080 4.12071318 0.49285643
v 0.51118080 3.79628983 1.25615802
v 0.45036962 3.79628983 1.22324539
v 0.39881639 3.79628983 1.12951813
v 0.36436962 3.79628983 0.98924539
v 0.35227352 3.79628983 0.82378240
v 0.36436962 3.79628983 0.65831941
v 0.39881639 3.79628983 0.51804667
v 0.45036962 3.79628983 0.42431941
v 0.51118080 3.79628983 0.39140678
v 0.51118080 3.41360640 1.29178240
v 0.44535925 3.41360640 1.25615802
v 0.38955843 3.41360640 1.15470837
v 0.35227352 3.41360640 1.00287825
v 0.33918080 3.41360640 0.82378240
v 0.35227352 3.41360640 0.64468655
v 0.38955843 3.41360640 0.49285643
v 0.44535925 3.41360640 0.39140678
v 0.51118080 3.41360640 0.35578240
v 0.51118080 3.03092297 1.25615802
v 0.45036962 3.03092297 1.22324539
v 0.39881639 3.03092297 1.12951813
v 0.36436962 3.03092297 0.98924539
v 0.35227352 3.03092297 0.82378240
v 0.36436962 3.03092297 0.65831941
v 0.39881639 3.03092297 0.51804667
v 0.45036962 3.03092297 0.42431941
v 0.51118080 3.03092297 0.39140678
v 0.51118080 2.70649962 1.15470837
v 0.46463794 2.70649962 1.12951813
v 0.42518080 2.70649962 1.05778240
v 0.39881639 2.70649962 0.95042229
v 0.38955843 2.70649962 0.82378240
v 0.39881639 2.70649962 0.69714251
v 0.42518080 2.70649962 0.58978240
v 0.46463794 2.70649962 0.51804667
v 0.51118080 2.70649962 0.49285643
v 0.51118080 2.48972687 1.00287825
v 0.48599198 2.48972687 0.98924539
v 0.46463794 2.48972687 0.95042229
v 0.45036962 2.48972687 0.89231941
v 0.44535925 2.48972687 0.82378240
v 0.45036962 2.48972687 0.75524539
v 0.46463794 2.48972687 0.69714251
v 0.48599198 2.48972687 0.65831941
v 0.51118080 2.48972687 0.64468655
v 0.51118080 4.41360640 0.82378240
v 0.51118080 2.41360640 0.82378240
vn -0.52083846 0.69290596 0.49860670
vn -0.77196053 0.56262068 0.29586299
vn -0.86267949 0.48733515 0.13523516
vn -0.88580462 0.46405838 -4.6421556e-17
vn -0.86267949 0.48733515 -0.13523516
vn -0.77196053 0.56262068 -0.29586299
vn -0.52083846 0.69290596 -0.49860670
vn -0.66538177 0.34948186 0.65964349
vn -0.90425783 0.24266597 0.35132749
vn -0.96875968 0.19517878 0.15300305
vn -0.98326758 0.18216714 -2.4406179e-17
vn -0.96875968 0.19517878 -0.15300305
vn -0.90425783 0.24266597 -0.35132749
vn -0.66538177 0.34948186 -0.65964349
vn -0.69787980 0.15014160 0.70030086
vn -0.92704382 0.10040034 0.36126103
vn -0.98457777 7.9770475e-2 0.15570256
vn -0.99724008 7.4244402e-2 0.0000000e+0
vn -0.98457777 7.9770475e-2 -0.15570256
vn -0.92704382 0.10040034 -0.36126103
vn -0.69787980 0.15014160 -0.70030086
vn -0.70490553 6.5247046e-17 0.70930120
vn -0.93167648 5.9555034e-17 0.36328906
vn -0.98771924 -8.7101199e-18 0.15623925
vn -1.00000000 0.0000000e+0 0.0000000e+0
vn -0.98771924 -5.2260720e-18 -0.15623925
vn -0.93167648 -3.5032373e-18 -0.36328906
vn -0.70490553 2.1749015e-17 -0.70930120
vn -0.69787980 -0.15014160 0.70030086
vn -0.92704382 -0.10040034 0.36126103
vn -0.98457777 -7.9770475e-2 0.15570256
vn -0.99724008 -7.4244402e-2 1.4622049e-16
vn -0.98457777 -7.9770475e-2 -0.15570256
vn -0.92704382 -0.10040034 -0.36126103
vn -0.69787980 -0.15014160 -0.70030086
vn -0.66538177 -0.34948186 0.65964349
vn -0.90425783 -0.24266597 0.35132749
vn -0.96875968 -0.19517878 0.15300305
vn -0.98326758 -0.18216714 3.1728033e-16
vn -0.96875968 -0.19517878 -0.15300305
vn -0.90425783 -0.24266597 -0.35132749
vn -0.66538177 -0.34948186 -0.65964349
vn -0.52083846 -0.69290596 0.49860670
vn -0.77196053 -0.56262068 0.29586299
vn -0.86267949 -0.48733515 0.13523516
vn -0.88580462 -0.46405838 1.5354822e-16
vn -0.86267949 -0.48733515 -0.13523516
vn -0.77196053 -0.56262068 -0.29586299
vn -0.52083846 -0.69290596 -0.49860670
vn -0.31899373 0.74220086 0.58939026
vn -0.31899373 0.74220086 0.58939026
vn 1.00000000 1.9372012e-17 -1.2638195e-16
vn -0.31899373 0.74220086 -0.58939026
vn -0.31899373 0.74220086 -0.58939026
vn 1.00000000 1.9372012e-17 -1.2638195e-16
vn -0.43649078 0.39882199 0.80648423
vn -0.43649078 0.39882199 0.80648423
vn 1.00000000 1.9372012e-17 -1.2638195e-16
vn -0.43649078 0.39882199 -0.80648423
vn -0.43649078 0.39882199 -0.80648423
vn 1.00000000 1.9372012e-17 -1.2638195e-16
vn -0.46871136 0.17413983 0.86601673
vn -0.46871136 0.17413983 0.86601673
vn 1.00000000 1.9372012e-17 -1.2638195e-16
vn -0.46871136 0.17413983 -0.86601673
vn -0.46871136 0.17413983 -0.86601673
vn 1.00000000 1.9372012e-17 -1.2638195e-16
vn -0.47598395 -1.3924219e-17 0.87945397
vn -0.47598395 -1.3924219e-17 0.87945397
vn 1.00000000 1.9372012e-17 -1.2638195e-16
vn -0.47598395 4.8734765e-17 -0.87945397
vn -0.47598395 4.8734765e-17 -0.87945397
vn 1.00000000 1.9372012e-17 -1.2638195e-16
vn -0.46871136 -0.17413983 0.86601673
vn -0.46871136 -0.17413983 0.86601673
vn 1.00000000 1.9372012e-17 -1.2638195e-16
vn -0.46871136 -0.17413983 -0.86601673
vn -0.46871136 -0.17413983 -0.86601673
vn 1.00000000 1.9372012e-17 -1.2638195e-16
vn -0.43649078 -0.39882199 0.80648423
vn -0.43649078 -0.39882199 0.80648423
vn 1.00000000 1.9372012e-17 -1.2638195e-16
vn -0.43649078 -0.39882199 -0.80648423
vn -0.43649078 -0.39882199 -0.80648423
vn 1.00000000 1.9372012e-17 -1.2638195e-16
vn -0.31899373 -0.74220086 0.58939026
vn -0.31899373 -0.74220086 0.58939026
vn 1.00000000 1.9372012e-17 -1.2638195e-16
vn -0.31899373 -0.74220086 -0.58939026
vn -0.31899373 -0.74220086 -0.58939026
vn 1.00000000 1.9372012e-17 -1.2638195e-16
vn -0.57994027 0.81465900 -2.9575661e-17
vn -0.57994027 0.81465900 -3.6969576e-17
vn -0.57994027 0.81465900 -3.3272618e-17
vn -0.57994027 0.81465900 -3.6969576e-17
vn -0.57994027 0.81465900 -4.7136209e-17
vn -0.57994027 0.81465900 -4.0666533e-17
vn -0.57994027 0.81465900 -3.6969576e-17
vn -0.57994027 0.81465900 -3.6969576e-17
vn 1.00000000 1.9372012e-17 -1.2638195e-16
vn -0.57994027 -0.81465900 1.1090873e-16
vn -0.57994027 -0.81465900 1.1830264e-16
vn -0.57994027 -0.81465900 1.1830264e-16
vn -0.57994027 -0.81465900 1.2107536e-16
vn -0.57994027 -0.81465900 1.2754504e-16
vn -0.57994027 -0.81465900 1.1830264e-16
vn -0.57994027 -0.81465900 1.1830264e-16
vn -0.57994027 -0.81465900 1.1830264e-16
vn 1.00000000 1.9372012e-17 -1.2638195e-16
g sphere4_default
usemtl default
f 326//419 389//461 327//370
f 327//370 336//377 335//425 326//420
f 327//370 389//462 328//371
f 328//371 337//378 336//377 327//370
f 328//371 389//463 329//372
f 329//372 338//379 337//378 328//371
f 329//372 389//464 330//373
f 330//373 339//380 338//379 329//372
f 330//373 389//465 331//374
f 331//374 340//381 339//380 330//373
f 331//374 389//466 332//375
f 332//375 341//382 340//381 331//374
f 332//375 389//467 333//376
f 333//376 342//383 341//382 332//375
f 333//376 389//468 334//422
f 334//423 343//428 342//383 333//376
f 335//427 344//433 353//439 362//445 371//451 380//457 390//478 388//460 379//454 370//448 361//442 352//436 343//430 334//424 389//469 326//421
f 336//377 345//384 344//431 335//426
f 337//378 346//385 345//384 336//377
f 338//379 347//386 346//385 337//378
f 339//380 348//387 347//386 338//379
f 340//381 349//388 348//387 339//380
f 341//382 350//389 349//388 340//381
f 342//383 351//390 350//389 341//382
f 343//429 352//434 351//390 342//383
f 345//384 354//391 353//437 344//432
f 346//385 355//392 354//391 345//384
f 347//386 356//393 355//392 346//385
f 348//387 357//394 356//393 347//386
f 349//388 358//395 357//394 348//387
f 350//389 359//396 358//395 349//388
f 351//390 360//397 359//396 350//389
f 352//435 361//440 360//397 351//390
f 354//391 363//398 362//443 353//438
f 355//392 364//399 363//398 354//391
f 356//393 365//400 364//399 355//392
f 357//394 366//401 365//400 356//393
f 358//395 367//402 366//401 357//394
f 359//396 368//403 367//402 358//395
f 360//397 369//404 368//403 359//396
f 361//441 370//446 369//404 360//397
f 363//398 372//405 371//449 362//444
f 364//399 373//406 372//405 363//398
f 365//400 374//407 373//406 364//399
f 366//401 375//408 374//407 365//400
f 367//402 376//409 375//408 366//401
f 368//403 377//410 376//409 367//402
f 369//404 378//411 377//410 368//403
f 370//447 379//452 378//411 369//404
f 372//405 381//412 380//456 371//450
f 373//406 382//413 381//412 372//405
f 374//407 383//414 382//413 373//406
f 375//408 384//415 383//414 374//407
f 376//409 385//416 384//415 375//408
f 377//410 386//417 385//416 376//409
f 378//411 387//418 386//417 377//410
f 379//453 388//459 387//418 378//411
f 381//412 390//470 380//455
f 382//413 390//471 381//412
f 383//414 390//472 382//413
f 384//415 390//473 383//414
f 385//416 390//474 384//415
f 386//417 390//475 385//416
f 387//418 390//476 386//417
f 388//458 390//477 387//418
o sphere3
#26 vertices, 32 faces
v 0.25031580 0.66098247 -1.07200000
v 0.17700000 0.66098247 -0.89500000
v -6.3562636e-17 0.66098247 -0.82168420
v -0.17700000 0.66098247 -0.89500000
v -0.25031580 0.66098247 -1.07200000
v -0.17700000 0.66098247 -1.24900000
v -1.2487030e-16 0.66098247 -1.32231580
v 0.17700000 0.66098247 -1.24900000
v 0.35400000 0.41066667 -1.07200000
v 0.25031580 0.41066667 -0.82168420
v -5.7214020e-17 0.41066667 -0.71800000
v -0.25031580 0.41066667 -0.82168420
v -0.35400000 0.41066667 -1.07200000
v -0.25031580 0.41066667 -1.32231580
v -1.4391615e-16 0.41066667 -1.42600000
v 0.25031580 0.41066667 -1.32231580
v 0.25031580 0.16035087 -1.07200000
v 0.17700000 0.16035087 -0.89500000
v -6.3562636e-17 0.16035087 -0.82168420
v -0.17700000 0.16035087 -0.89500000
v -0.25031580 0.16035087 -1.07200000
v -0.17700000 0.16035087 -1.24900000
v -1.2487030e-16 0.16035087 -1.32231580
v 0.17700000 0.16035087 -1.24900000
v -7.8889552e-17 0.76466667 -1.07200000
v -7.8889552e-17 5.6666667e-2 -1.07200000
vn 0.69887193 0.71524683 3.1265747e-17
vn 0.49417708 0.71524683 0.49417708
vn -3.1265747e-17 0.71524683 0.69887193
vn -0.49417708 0.71524683 0.49417708
vn -0.69887193 0.71524683 -1.4069586e-16
vn -0.49417708 0.71524683 -0.49417708
vn -5.4715057e-16 0.71524683 -0.69887193
vn 0.49417708 0.71524683 -0.49417708
vn 1.00000000 1.6083546e-17 -1.2866837e-16
vn 0.70710678 1.4475192e-16 0.70710678
vn -1.6083546e-17 1.6083546e-16 1.00000000
vn -0.70710678 1.1258482e-16 0.70710678
vn -1.00000000 1.9300256e-16 -6.4334185e-17
vn -0.70710678 8.0417732e-17 -0.70710678
vn -4.5033930e-16 1.4475192e-16 -1.00000000
vn 0.70710678 1.1258482e-16 -0.70710678
vn 0.69887193 -0.71524683 -7.8164367e-17
vn 0.49417708 -0.71524683 0.49417708
vn 1.5632873e-17 -0.71524683 0.69887193
vn -0.49417708 -0.71524683 0.49417708
vn -0.69887193 -0.71524683 -9.3797240e-17
vn -0.49417708 -0.71524683 -0.49417708
vn -5.0025195e-16 -0.71524683 -0.69887193
vn 0.49417708 -0.71524683 -0.49417708
vn -7.6043760e-17 1.00000000 -1.1406564e-16
vn -7.6043760e-17 -1.00000000 -1.0646126e-16
g sphere3_default
usemtl default
f 391//479 399//487 406//494 398//486
f 391//479 415//503 392//480
f 392//480 400//488 399//487 391//479
f 392//480 415//503 393//481
f 393//481 401//489 400//488 392//480
f 393//481 415//503 394//482
f 394//482 402//490 401//489 393//481
f 394//482 415//503 395//483
f 395//483 403//491 402//490 394//482
f 395//483 415//503 396//484
f 396//484 404//492 403//491 395//483
f 396//484 415//503 397//485
f 397//485 405//493 404//492 396//484
f 397//485 415//503 398//486
f 398//486 406//494 405//493 397//485
f 398//486 415//503 391//479
f 399//487 407//495 414//502 406//494
f 400//488 408//496 407//495 399//487
f 401//489 409//497 408//496 400//488
f 402//490 410//498 409//497 401//489
f 403//491 411//499 410//498 402//490
f 404//492 412//500 411//499 403//491
f 405//493 413//501 412//500 404//492
f 406//494 414//502 413//501 405//493
f 407//495 416//504 414//502
f 408//496 416//504 407//495
f 409//497 416//504 408//496
f 410//498 416//504 409//497
f 411//499 416//504 410//498
f 412//500 416//504 411//499
f 413//501 416//504 412//500
f 414//502 416//504 413//501
o sphere2
#114 vertices, 128 faces
v 0.38268343 1.93010175 3.5555556e-3
v 0.35355339 1.93010175 0.15000216
v 0.27059805 1.93010175 0.27415361
v 0.14644661 1.93010175 0.35710895
v -9.9246515e-17 1.93010175 0.38623899
v -0.14644661 1.93010175 0.35710895
v -0.27059805 1.93010175 0.27415361
v -0.35355339 1.93010175 0.15000216
v -0.38268343 1.93010175 3.5555556e-3
v -0.35355339 1.93010175 -0.14289105
v -0.27059805 1.93010175 -0.26704249
v -0.14644661 1.93010175 -0.34999784
v -1.9297383e-16 1.93010175 -0.37912788
v 0.14644661 1.93010175 -0.34999784
v 0.27059805 1.93010175 -0.26704249
v 0.35355339 1.93010175 -0.14289105
v 0.70710678 1.71332900 3.5555556e-3
v 0.65328148 1.71332900 0.27415361
v 0.50000000 1.71332900 0.50355556
v 0.27059805 1.71332900 0.65683704
v -7.9381970e-17 1.71332900 0.71066234
v -0.27059805 1.71332900 0.65683704
v -0.50000000 1.71332900 0.50355556
v -0.65328148 1.71332900 0.27415361
v -0.70710678 1.71332900 3.5555556e-3
v -0.65328148 1.71332900 -0.26704249
v -0.50000000 1.71332900 -0.49644444
v -0.27059805 1.71332900 -0.64972593
v -2.5256746e-16 1.71332900 -0.70355123
v 0.27059805 1.71332900 -0.64972593
v 0.50000000 1.71332900 -0.49644444
v 0.65328148 1.71332900 -0.26704249
v 0.92387953 1.38890565 3.5555556e-3
v 0.85355339 1.38890565 0.35710895
v 0.65328148 1.38890565 0.65683704
v 0.35355339 1.38890565 0.85710895
v -6.6108906e-17 1.38890565 0.92743509
v -0.35355339 1.38890565 0.85710895
v -0.65328148 1.38890565 0.65683704
v -0.85355339 1.38890565 0.35710895
v -0.92387953 1.38890565 3.5555556e-3
v -0.85355339 1.38890565 -0.34999784
v -0.65328148 1.38890565 -0.64972593
v -0.35355339 1.38890565 -0.84999784
v -2.9238666e-16 1.38890565 -0.92032398
v 0.35355339 1.38890565 -0.84999784
v 0.65328148 1.38890565 -0.64972593
v 0.85355339 1.38890565 -0.34999784
v 1.00000000 1.00622222 3.5555556e-3
v 0.92387953 1.00622222 0.38623899
v 0.70710678 1.00622222 0.71066234
v 0.38268343 1.00622222 0.92743509
v -6.1448025e-17 1.00622222 1.00355556
v -0.38268343 1.00622222 0.92743509
v -0.70710678 1.00622222 0.71066234
v -0.92387953 1.00622222 0.38623899
v -1.00000000 1.00622222 3.5555556e-3
v -0.92387953 1.00622222 -0.37912788
v -0.70710678 1.00622222 -0.70355123
v -0.38268343 1.00622222 -0.92032398
v -3.0636930e-16 1.00622222 -0.99644444
v 0.38268343 1.00622222 -0.92032398
v 0.70710678 1.00622222 -0.70355123
v 0.92387953 1.00622222 -0.37912788
v 0.92387953 0.62353879 3.5555556e-3
v 0.85355339 0.62353879 0.35710895
v 0.65328148 0.62353879 0.65683704
v 0.35355339 0.62353879 0.85710895
v -6.6108906e-17 0.62353879 0.92743509
v -0.35355339 0.62353879 0.85710895
v -0.65328148 0.62353879 0.65683704
v -0.85355339 0.62353879 0.35710895
v -0.92387953 0.62353879 3.5555556e-3
v -0.85355339 0.62353879 -0.34999784
v -0.65328148 0.62353879 -0.64972593
v -0.35355339 0.62353879 -0.84999784
v -2.9238666e-16 0.62353879 -0.92032398
v 0.35355339 0.62353879 -0.84999784
v 0.65328148 0.62353879 -0.64972593
v 0.85355339 0.62353879 -0.34999784
v 0.70710678 0.29911544 3.5555556e-3
v 0.65328148 0.29911544 0.27415361
v 0.50000000 0.29911544 0.50355556
v 0.27059805 0.29911544 0.65683704
v -7.9381970e-17 0.29911544 0.71066234
v -0.27059805 0.29911544 0.65683704
v -0.50000000 0.29911544 0.50355556
v -0.65328148 0.29911544 0.27415361
v -0.70710678 0.29911544 3.5555556e-3
v -0.65328148 0.29911544 -0.26704249
v -0.50000000 0.29911544 -0.49644444
v -0.27059805 0.29911544 -0.64972593
v -2.5256746e-16 0.29911544 -0.70355123
v 0.27059805 0.29911544 -0.64972593
v 0.50000000 0.29911544 -0.49644444
v 0.65328148 0.29911544 -0.26704249
v 0.38268343 8.2342690e-2 3.5555556e-3
v 0.35355339 8.2342690e-2 0.15000216
v 0.27059805 8.2342690e-2 0.27415361
v 0.14644661 8.2342690e-2 0.35710895
v -9.9246515e-17 8.2342690e-2 0.38623899
v -0.14644661 8.2342690e-2 0.35710895
v -0.27059805 8.2342690e-2 0.27415361
v -0.35355339 8.2342690e-2 0.15000216
v -0.38268343 8.2342690e-2 3.5555556e-3
v -0.35355339 8.2342690e-2 -0.14289105
v -0.27059805 8.2342690e-2 -0.26704249
v -0.14644661 8.2342690e-2 -0.34999784
v -1.9297383e-16 8.2342690e-2 -0.37912788
v 0.14644661 8.2342690e-2 -0.34999784
v 0.27059805 8.2342690e-2 -0.26704249
v 0.35355339 8.2342690e-2 -0.14289105
v -1.2267834e-16 2.00622222 3.5555556e-3
v -1.2267834e-16 6.2222222e-3 3.5555556e-3
vn 0.38219484 0.92408176 -1.0648471e-17
vn 0.35310199 0.92408176 0.14625963
vn 0.27025256 0.92408176 0.27025256
vn 0.14625963 0.92408176 0.35310199
vn 0.0000000e+0 0.92408176 0.38219484
vn -0.14625963 0.92408176 0.35310199
vn -0.27025256 0.92408176 0.27025256
vn -0.35310199 0.92408176 0.14625963
vn -0.38219484 0.92408176 0.0000000e+0
vn -0.35310199 0.92408176 -0.14625963
vn -0.27025256 0.92408176 -0.27025256
vn -0.14625963 0.92408176 -0.35310199
vn 1.8102401e-16 0.92408176 -0.38219484
vn 0.14625963 0.92408176 -0.35310199
vn 0.27025256 0.92408176 -0.27025256
vn 0.35310199 0.92408176 -0.14625963
vn 0.70658450 0.70762868 -4.2865941e-17
vn 0.65279895 0.70762868 0.27039818
vn 0.49963069 0.70762868 0.49963069
vn 0.27039818 0.70762868 0.65279895
vn -1.4288647e-17 0.70762868 0.70658450
vn -0.27039818 0.70762868 0.65279895
vn -0.49963069 0.70762868 0.49963069
vn -0.65279895 0.70762868 0.27039818
vn -0.70658450 0.70762868 3.5721617e-17
vn -0.65279895 0.70762868 -0.27039818
vn -0.49963069 0.70762868 -0.49963069
vn -0.27039818 0.70762868 -0.65279895
vn 1.7860809e-16 0.70762868 -0.70658450
vn 0.27039818 0.70762868 -0.65279895
vn 0.49963069 0.70762868 -0.49963069
vn 0.65279895 0.70762868 -0.27039818
vn 0.92368212 0.38315969 -1.6535916e-16
vn 0.85337100 0.38315969 0.35347784
vn 0.65314189 0.38315969 0.65314189
vn 0.35347784 0.38315969 0.85337100
vn 0.0000000e+0 0.38315969 0.92368212
vn -0.35347784 0.38315969 0.85337100
vn -0.65314189 0.38315969 0.65314189
vn -0.85337100 0.38315969 0.35347784
vn -0.92368212 0.38315969 7.9084817e-17
vn -0.85337100 0.38315969 -0.35347784
vn -0.65314189 0.38315969 -0.65314189
vn -0.35347784 0.38315969 -0.85337100
vn 0.0000000e+0 0.38315969 -0.92368212
vn 0.35347784 0.38315969 -0.85337100
vn 0.65314189 0.38315969 -0.65314189
vn 0.85337100 0.38315969 -0.35347784
vn 1.00000000 -7.2082126e-18 -2.0903816e-16
vn 0.92387953 -7.2082126e-18 0.38268343
vn 0.70710678 -1.4416425e-17 0.70710678
vn 0.38268343 -1.4416425e-17 0.92387953
vn 7.2082126e-18 0.0000000e+0 1.00000000
vn -0.38268343 -7.2082126e-18 0.92387953
vn -0.70710678 0.0000000e+0 0.70710678
vn -0.92387953 7.2082126e-18 0.38268343
vn -1.00000000 -7.2082126e-18 1.1533140e-16
vn -0.92387953 0.0000000e+0 -0.38268343
vn -0.70710678 5.0457488e-17 -0.70710678
vn -0.38268343 1.4416425e-16 -0.92387953
vn 0.0000000e+0 5.0457488e-17 -1.00000000
vn 0.38268343 -7.2082126e-17 -0.92387953
vn 0.70710678 -7.2082126e-18 -0.70710678
vn 0.92387953 2.8832850e-17 -0.38268343
vn 0.92368212 -0.38315969 -2.3006492e-16
vn 0.85337100 -0.38315969 0.35347784
vn 0.65314189 -0.38315969 0.65314189
vn 0.35347784 -0.38315969 0.85337100
vn 1.4379058e-17 -0.38315969 0.92368212
vn -0.35347784 -0.38315969 0.85337100
vn -0.65314189 -0.38315969 0.65314189
vn -0.85337100 -0.38315969 0.35347784
vn -0.92368212 -0.38315969 7.9084817e-17
vn -0.85337100 -0.38315969 -0.35347784
vn -0.65314189 -0.38315969 -0.65314189
vn -0.35347784 -0.38315969 -0.85337100
vn 0.0000000e+0 -0.38315969 -0.92368212
vn 0.35347784 -0.38315969 -0.85337100
vn 0.65314189 -0.38315969 -0.65314189
vn 0.85337100 -0.38315969 -0.35347784
vn 0.70658450 -0.70762868 -1.9646890e-16
vn 0.65279895 -0.70762868 0.27039818
vn 0.49963069 -0.70762868 0.49963069
vn 0.27039818 -0.70762868 0.65279895
vn 3.2149456e-17 -0.70762868 0.70658450
vn -0.27039818 -0.70762868 0.65279895
vn -0.49963069 -0.70762868 0.49963069
vn -0.65279895 -0.70762868 0.27039818
vn -0.70658450 -0.70762868 8.2159720e-17
vn -0.65279895 -0.70762868 -0.27039818
vn -0.49963069 -0.70762868 -0.49963069
vn -0.27039818 -0.70762868 -0.65279895
vn -6.0726750e-17 -0.70762868 -0.70658450
vn 0.27039818 -0.70762868 -0.65279895
vn 0.49963069 -0.70762868 -0.49963069
vn 0.65279895 -0.70762868 -0.27039818
vn 0.38219484 -0.92408176 -8.1638280e-17
vn 0.35310199 -0.92408176 0.14625963
vn 0.27025256 -0.92408176 0.27025256
vn 0.14625963 -0.92408176 0.35310199
vn 1.7747452e-17 -0.92408176 0.38219484
vn -0.14625963 -0.92408176 0.35310199
vn -0.27025256 -0.92408176 0.27025256
vn -0.35310199 -0.92408176 0.14625963
vn -0.38219484 -0.92408176 8.1638280e-17
vn -0.35310199 -0.92408176 -0.14625963
vn -0.27025256 -0.92408176 -0.27025256
vn -0.14625963 -0.92408176 -0.35310199
vn -1.3843013e-16 -0.92408176 -0.38219484
vn 0.14625963 -0.92408176 -0.35310199
vn 0.27025256 -0.92408176 -0.27025256
vn 0.35310199 -0.92408176 -0.14625963
vn 3.1860719e-17 1.00000000 -1.7700400e-18
vn -8.8501998e-18 -1.00000000 -1.5045340e-17
g sphere2_default
usemtl default
f 417//505 433//521 448//536 432//520
f 417//505 529//617 418//506
f 418//506 434//522 433//521 417//505
f 418//506 529//617 419//507
f 419//507 435//523 434//522 418//506
f 419//507 529//617 420//508
f 420//508 436//524 435//523 419//507
f 420//508 529//617 421//509
f 421//509 437//525 436//524 420//508
f 421//509 529//617 422//510
f 422//510 438//526 437//525 421//509
f 422//510 529//617 423//511
f 423//511 439//527 438//526 422//510
f 423//511 529//617 424//512
f 424//512 440//528 439//527 423//511
f 424//512 529//617 425//513
f 425//513 441//529 440//528 424//512
f 425//513 529//617 426//514
f 426//514 442//530 441//529 425//513
f 426//514 529//617 427//515
f 427//515 443//531 442//530 426//514
f 427//515 529//617 428//516
f 428//516 444//532 443//531 427//515
f 428//516 529//617 429//517
f 429//517 445//533 444//532 428//516
f 429//517 529//617 430//518
f 430//518 446//534 445//533 429//517
f 430//518 529//617 431//519
f 431//519 447//535 446//534 430//518
f 431//519 529//617 432//520
f 432//520 448//536 447//535 431//519
f 432//520 529//617 417//505
f 433//521 449//537 464//552 448//536
f 434//522 450//538 449//537 433//521
f 435//523 451//539 450//538 434//522
f 436//524 452//540 451//539 435//523
f 437//525 453//541 452//540 436//524
f 438//526 454//542 453//541 437//525
f 439//527 455//543 454//542 438//526
f 440//528 456//544 455//543 439//527
f 441//529 457//545 456//544 440//528
f 442//530 458//546 457//545 441//529
f 443//531 459//547 458//546 442//530
f 444//532 460//548 459//547 443//531
f 445//533 461//549 460//548 444//532
f 446//534 462//550 461//549 445//533
f 447//535 463//551 462//550 446//534
f 448//536 464//552 463//551 447//535
f 449//537 465//553 480//568 464//552
f 450//538 466//554 465//553 449//537
f 451//539 467//555 466//554 450//538
f 452//540 468//556 467//555 451//539
f 453//541 469//557 468//556 452//540
f 454//542 470//558 469//557 453//541
f 455//543 471//559 470//558 454//542
f 456//544 472//560 471//559 455//543
f 457//545 473//561 472//560 456//544
f 458//546 474//562 473//561 457//545
f 459//547 475//563 474//562 458//546
f 460//548 476//564 475//563 459//547
f 461//549 477//565 476//564 460//548
f 462//550 478//566 477//565 461//549
f 463//551 479//567 478//566 462//550
f 464//552 480//568 479//567 463//551
f 465//553 481//569 496//584 480//568
f 466//554 482//570 481//569 465//553
f 467//555 483//571 482//570 466//554
f 468//556 484//572 483//571 467//555
f 469//557 485//573 484//572 468//556
f 470//558 486//574 485//573 469//557
f 471//559 487//575 486//574 470//558
f 472//560 488//576 487//575 471//559
f 473//561 489//577 488//576 472//560
f 474//562 490//578 489//577 473//561
f 475//563 491//579 490//578 474//562
f 476//564 492//580 491//579 475//563
f 477//565 493//581 492//580 476//564
f 478//566 494//582 493//581 477//565
f 479//567 495//583 494//582 478//566
f 480//568 496//584 495//583 479//567
f 481//569 497//585 512//600 496//584
f 482//570 498//586 497//585 481//569
f 483//571 499//587 498//586 482//570
f 484//572 500//588 499//587 483//571
f 485//573 501//589 500//588 484//572
f 486//574 502//590 501//589 485//573
f 487//575 503//591 502//590 486//574
f 488//576 504//592 503//591 487//575
f 489//577 505//593 504//592 488//576
f 490//578 506//594 505//593 489//577
f 491//579 507//595 506//594 490//578
f 492//580 508//596 507//595 491//579
f 493//581 509//597 508//596 492//580
f 494//582 510//598 509//597 493//581
f 495//583 511//599 510//598 494//582
f 496//584 512//600 511//599 495//583
f 497//585 513//601 528//616 512//600
f 498//586 514//602 513//601 497//585
f 499//587 515//603 514//602 498//586
f 500//588 516//604 515//603 499//587
f 501//589 517//605 516//604 500//588
f 502//590 518//606 517//605 501//589
f 503//591 519//607 518//606 502//590
f 504//592 520//608 519//607 503//591
f 505//593 521//609 520//608 504//592
f 506//594 522//610 521//609 505//593
f 507//595 523//611 522//610 506//594
f 508//596 524//612 523//611 507//595
f 509//597 525//613 524//612 508//596
f 510//598 526//614 525//613 509//597
f 511//599 527//615 526//614 510//598
f 512//600 528//616 527//615 511//599
f 513//601 530//618 528//616
f 514//602 530//618 513//601
f 515//603 530//618 514//602
f 516//604 530//618 515//603
f 517//605 530//618 516//604
f 518//606 530//618 517//605
f 519//607 530//618 518//606
f 520//608 530//618 519//607
f 521//609 530//618 520//608
f 522//610 530//618 521//609
f 523//611 530//618 522//610
f 524//612 530//618 523//611
f 525//613 530//618 524//612
f 526//614 530//618 525//613
f 527//615 530//618 526//614
f 528//616 530//618 527//615
o sphere1
#114 vertices, 128 faces
v 0.28854331 2.82104961 0.96000000
v 0.26657926 2.82104961 1.07042074
v 0.20403093 2.82104961 1.16403093
v 0.11042074 2.82104961 1.22657926
v -1.7491091e-16 2.82104961 1.24854331
v -0.11042074 2.82104961 1.22657926
v -0.20403093 2.82104961 1.16403093
v -0.26657926 2.82104961 1.07042074
v -0.28854331 2.82104961 0.96000000
v -0.26657926 2.82104961 0.84957926
v -0.20403093 2.82104961 0.75596907
v -0.11042074 2.82104961 0.69342074
v -2.4558130e-16 2.82104961 0.67145669
v 0.11042074 2.82104961 0.69342074
v 0.20403093 2.82104961 0.75596907
v 0.26657926 2.82104961 0.84957926
v 0.53315851 2.65760296 0.96000000
v 0.49257424 2.65760296 1.16403093
v 0.37700000 2.65760296 1.33700000
v 0.20403093 2.65760296 1.45257424
v -1.5993304e-16 2.65760296 1.49315851
v -0.20403093 2.65760296 1.45257424
v -0.37700000 2.65760296 1.33700000
v -0.49257424 2.65760296 1.16403093
v -0.53315851 2.65760296 0.96000000
v -0.49257424 2.65760296 0.75596907
v -0.37700000 2.65760296 0.58300000
v -0.20403093 2.65760296 0.46742576
v -2.9051490e-16 2.65760296 0.42684149
v 0.20403093 2.65760296 0.46742576
v 0.37700000 2.65760296 0.58300000
v 0.49257424 2.65760296 0.75596907
v 0.69660517 2.41298775 0.96000000
v 0.64357926 2.41298775 1.22657926
v 0.49257424 2.41298775 1.45257424
v 0.26657926 2.41298775 1.60357926
v -1.4992515e-16 2.41298775 1.65660517
v -0.26657926 2.41298775 1.60357926
v -0.49257424 2.41298775 1.45257424
v -0.64357926 2.41298775 1.22657926
v -0.69660517 2.41298775 0.96000000
v -0.64357926 2.41298775 0.69342074
v -0.49257424 2.41298775 0.46742576
v -0.26657926 2.41298775 0.31642074
v -3.2053857e-16 2.41298775 0.26339483
v 0.26657926 2.41298775 0.31642074
v 0.49257424 2.41298775 0.46742576
v 0.64357926 2.41298775 0.69342074
v 0.75400000 2.12444444 0.96000000
v 0.69660517 2.12444444 1.24854331
v 0.53315851 2.12444444 1.49315851
v 0.28854331 2.12444444 1.65660517
v -1.4641085e-16 2.12444444 1.71400000
v -0.28854331 2.12444444 1.65660517
v -0.53315851 2.12444444 1.49315851
v -0.69660517 2.12444444 1.24854331
v -0.75400000 2.12444444 0.96000000
v -0.69660517 2.12444444 0.67145669
v -0.53315851 2.12444444 0.42684149
v -0.28854331 2.12444444 0.26339483
v -3.3108149e-16 2.12444444 0.20600000
v 0.28854331 2.12444444 0.26339483
v 0.53315851 2.12444444 0.42684149
v 0.69660517 2.12444444 0.67145669
v 0.69660517 1.83590114 0.96000000
v 0.64357926 1.83590114 1.22657926
v 0.49257424 1.83590114 1.45257424
v 0.26657926 1.83590114 1.60357926
v -1.4992515e-16 1.83590114 1.65660517
v -0.26657926 1.83590114 1.60357926
v -0.49257424 1.83590114 1.45257424
v -0.64357926 1.83590114 1.22657926
v -0.69660517 1.83590114 0.96000000
v -0.64357926 1.83590114 0.69342074
v -0.49257424 1.83590114 0.46742576
v -0.26657926 1.83590114 0.31642074
v -3.2053857e-16 1.83590114 0.26339483
v 0.26657926 1.83590114 0.31642074
v 0.49257424 1.83590114 0.46742576
v 0.64357926 1.83590114 0.69342074
v 0.53315851 1.59128593 0.96000000
v 0.49257424 1.59128593 1.16403093
v 0.37700000 1.59128593 1.33700000
v 0.20403093 1.59128593 1.45257424
v -1.5993304e-16 1.59128593 1.49315851
v -0.20403093 1.59128593 1.45257424
v -0.37700000 1.59128593 1.33700000
v -0.49257424 1.59128593 1.16403093
v -0.53315851 1.59128593 0.96000000
v -0.49257424 1.59128593 0.75596907
v -0.37700000 1.59128593 0.58300000
v -0.20403093 1.59128593 0.46742576
v -2.9051490e-16 1.59128593 0.42684149
v 0.20403093 1.59128593 0.46742576
v 0.37700000 1.59128593 0.58300000
v 0.49257424 1.59128593 0.75596907
v 0.28854331 1.42783928 0.96000000
v 0.26657926 1.42783928 1.07042074
v 0.20403093 1.42783928 1.16403093
v 0.11042074 1.42783928 1.22657926
v -1.7491091e-16 1.42783928 1.24854331
v -0.11042074 1.42783928 1.22657926
v -0.20403093 1.42783928 1.16403093
v -0.26657926 1.42783928 1.07042074
v -0.28854331 1.42783928 0.96000000
v -0.26657926 1.42783928 0.84957926
v -0.20403093 1.42783928 0.75596907
v -0.11042074 1.42783928 0.69342074
v -2.4558130e-16 1.42783928 0.67145669
v 0.11042074 1.42783928 0.69342074
v 0.20403093 1.42783928 0.75596907
v 0.26657926 1.42783928 0.84957926
v -1.9257851e-16 2.87844444 0.96000000
v -1.9257851e-16 1.37044444 0.96000000
vn 0.38219484 0.92408176 -8.9092210e-16
vn 0.35310199 0.92408176 0.14625963
vn 0.27025256 0.92408176 0.27025256
vn 0.14625963 0.92408176 0.35310199
vn 7.0989809e-18 0.92408176 0.38219484
vn -0.14625963 0.92408176 0.35310199
vn -0.27025256 0.92408176 0.27025256
vn -0.35310199 0.92408176 0.14625963
vn -0.38219484 0.92408176 7.0989809e-17
vn -0.35310199 0.92408176 -0.14625963
vn -0.27025256 0.92408176 -0.27025256
vn -0.14625963 0.92408176 -0.35310199
vn 3.5494904e-18 0.92408176 -0.38219484
vn 0.14625963 0.92408176 -0.35310199
vn 0.27025256 0.92408176 -0.27025256
vn 0.35310199 0.92408176 -0.14625963
vn 0.70658450 0.70762868 8.5731882e-17
vn 0.65279895 0.70762868 0.27039818
vn 0.49963069 0.70762868 0.49963069
vn 0.27039818 0.70762868 0.65279895
vn -9.2876205e-17 0.70762868 0.70658450
vn -0.27039818 0.70762868 0.65279895
vn -0.49963069 0.70762868 0.49963069
vn -0.65279895 0.70762868 0.27039818
vn -0.70658450 0.70762868 1.5003079e-16
vn -0.65279895 0.70762868 -0.27039818
vn -0.49963069 0.70762868 -0.49963069
vn -0.27039818 0.70762868 -0.65279895
vn -7.1443235e-18 0.70762868 -0.70658450
vn 0.27039818 0.70762868 -0.65279895
vn 0.49963069 0.70762868 -0.49963069
vn 0.65279895 0.70762868 -0.27039818
vn 0.92368212 0.38315969 -4.3137173e-17
vn 0.85337100 0.38315969 0.35347784
vn 0.65314189 0.38315969 0.65314189
vn 0.35347784 0.38315969 0.85337100
vn -1.1503246e-16 0.38315969 0.92368212
vn -0.35347784 0.38315969 0.85337100
vn -0.65314189 0.38315969 0.65314189
vn -0.85337100 0.38315969 0.35347784
vn -0.92368212 0.38315969 2.0849634e-16
vn -0.85337100 0.38315969 -0.35347784
vn -0.65314189 0.38315969 -0.65314189
vn -0.35347784 0.38315969 -0.85337100
vn -3.5947644e-17 0.38315969 -0.92368212
vn 0.35347784 0.38315969 -0.85337100
vn 0.65314189 0.38315969 -0.65314189
vn 0.85337100 0.38315969 -0.35347784
vn 1.00000000 5.7665700e-17 -1.6578889e-16
vn 0.92387953 7.2082126e-18 0.38268343
vn 0.70710678 -1.4416425e-17 0.70710678
vn 0.38268343 2.1624638e-17 0.92387953
vn -2.1624638e-17 -7.2082126e-18 1.00000000
vn -0.38268343 1.4416425e-17 0.92387953
vn -0.70710678 1.1533140e-16 0.70710678
vn -0.92387953 1.5137246e-16 0.38268343
vn -1.00000000 8.6498551e-17 2.5228744e-16
vn -0.92387953 -7.2082126e-18 -0.38268343
vn -0.70710678 -5.0457488e-17 -0.70710678
vn -0.38268343 2.8832850e-17 -0.92387953
vn -6.4873913e-17 5.0457488e-17 -1.00000000
vn 0.38268343 5.7665700e-17 -0.92387953
vn 0.70710678 -1.4416425e-17 -0.70710678
vn 0.92387953 -2.1624638e-17 -0.38268343
vn 0.92368212 -0.38315969 -1.1503246e-16
vn 0.85337100 -0.38315969 0.35347784
vn 0.65314189 -0.38315969 0.65314189
vn 0.35347784 -0.38315969 0.85337100
vn -2.1568586e-17 -0.38315969 0.92368212
vn -0.35347784 -0.38315969 0.85337100
vn -0.65314189 -0.38315969 0.65314189
vn -0.85337100 -0.38315969 0.35347784
vn -0.92368212 -0.38315969 2.3006492e-16
vn -0.85337100 -0.38315969 -0.35347784
vn -0.65314189 -0.38315969 -0.65314189
vn -0.35347784 -0.38315969 -0.85337100
vn -4.3137173e-17 -0.38315969 -0.92368212
vn 0.35347784 -0.38315969 -0.85337100
vn 0.65314189 -0.38315969 -0.65314189
vn 0.85337100 -0.38315969 -0.35347784
vn 0.70658450 -0.70762868 8.2159720e-17
vn 0.65279895 -0.70762868 0.27039818
vn 0.49963069 -0.70762868 0.49963069
vn 0.27039818 -0.70762868 0.65279895
vn -1.4288647e-17 -0.70762868 0.70658450
vn -0.27039818 -0.70762868 0.65279895
vn -0.49963069 -0.70762868 0.49963069
vn -0.65279895 -0.70762868 0.27039818
vn -0.70658450 -0.70762868 2.1432970e-16
vn -0.65279895 -0.70762868 -0.27039818
vn -0.49963069 -0.70762868 -0.49963069
vn -0.27039818 -0.70762868 -0.65279895
vn -2.5005132e-17 -0.70762868 -0.70658450
vn 0.27039818 -0.70762868 -0.65279895
vn 0.49963069 -0.70762868 -0.49963069
vn 0.65279895 -0.70762868 -0.27039818
vn 0.38219484 -0.92408176 -1.7747452e-16
vn 0.35310199 -0.92408176 0.14625963
vn 0.27025256 -0.92408176 0.27025256
vn 0.14625963 -0.92408176 0.35310199
vn 0.0000000e+0 -0.92408176 0.38219484
vn -0.14625963 -0.92408176 0.35310199
vn -0.27025256 -0.92408176 0.27025256
vn -0.35310199 -0.92408176 0.14625963
vn -0.38219484 -0.92408176 5.3952254e-16
vn -0.35310199 -0.92408176 -0.14625963
vn -0.27025256 -0.92408176 -0.27025256
vn -0.14625963 -0.92408176 -0.35310199
vn -1.7747452e-17 -0.92408176 -0.38219484
vn 0.14625963 -0.92408176 -0.35310199
vn 0.27025256 -0.92408176 -0.27025256
vn 0.35310199 -0.92408176 -0.14625963
vn -1.5930360e-17 1.00000000 8.7616978e-17
vn -4.6021039e-17 -1.00000000 2.6550599e-17
g sphere1_default
usemtl default
f 531//619 547//635 562//650 546//634
f 531//619 643//731 532//620
f 532//620 548//636 547//635 531//619
f 532//620 643//731 533//621
f 533//621 549//637 548//636 532//620
f 533//621 643//731 534//622
f 534//622 550//638 549//637 533//621
f 534//622 643//731 535//623
f 535//623 551//639 550//638 534//622
f 535//623 643//731 536//624
f 536//624 552//640 551//639 535//623
f 536//624 643//731 537//625
f 537//625 553//641 552//640 536//624
f 537//625 643//731 538//626
f 538//626 554//642 553//641 537//625
f 538//626 643//731 539//627
f 539//627 555//643 554//642 538//626
f 539//627 643//731 540//628
f 540//628 556//644 555//643 539//627
f 540//628 643//731 541//629
f 541//629 557//645 556//644 540//628
f 541//629 643//731 542//630
f 542//630 558//646 557//645 541//629
f 542//630 643//731 543//631
f 543//631 559//647 558//646 542//630
f 543//631 643//731 544//632
f 544//632 560//648 559//647 543//631
f 544//632 643//731 545//633
f 545//633 561//649 560//648 544//632
f 545//633 643//731 546//634
f 546//634 562//650 561//649 545//633
f 546//634 643//731 531//619
f 547//635 563//651 578//666 562//650
f 548//636 564//652 563//651 547//635
f 549//637 565//653 564//652 548//636
f 550//638 566//654 565//653 549//637
f 551//639 567//655 566//654 550//638
f 552//640 568//656 567//655 551//639
f 553//641 569//657 568//656 552//640
f 554//642 570//658 569//657 553//641
f 555//643 571//659 570//658 554//642
f 556//644 572//660 571//659 555//643
f 557//645 573//661 572//660 556//644
f 558//646 574//662 573//661 557//645
f 559//647 575//663 574//662 558//646
f 560//648 576//664 575//663 559//647
f 561//649 577//665 576//664 560//648
f 562//650 578//666 577//665 561//649
f 563//651 579//667 594//682 578//666
f 564//652 580//668 579//667 563//651
f 565//653 581//669 580//668 564//652
f 566//654 582//670 581//669 565//653
f 567//655 583//671 582//670 566//654
f 568//656 584//672 583//671 567//655
f 569//657 585//673 584//672 568//656
f 570//658 586//674 585//673 569//657
f 571//659 587//675 586//674 570//658
f 572//660 588//676 587//675 571//659
f 573//661 589//677 588//676 572//660
f 574//662 590//678 589//677 573//661
f 575//663 591//679 590//678 574//662
f 576//664 592//680 591//679 575//663
f 577//665 593//681 592//680 576//664
f 578//666 594//682 593//681 577//665
f 579//667 595//683 610//698 594//682
f 580//668 596//684 595//683 579//667
f 581//669 597//685 596//684 580//668
f 582//670 598//686 597//685 581//669
f 583//671 599//687 598//686 582//670
f 584//672 600//688 599//687 583//671
f 585//673 601//689 600//688 584//672
f 586//674 602//690 601//689 585//673
f 587//675 603//691 602//690 586//674
f 588//676 604//692 603//691 587//675
f 589//677 605//693 604//692 588//676
f 590//678 606//694 605//693 589//677
f 591//679 607//695 606//694 590//678
f 592//680 608//696 607//695 591//679
f 593//681 609//697 608//696 592//680
f 594//682 610//698 609//697 593//681
f 595//683 611//699 626//714 610//698
f 596//684 612//700 611//699 595//683
f 597//685 613//701 612//700 596//684
f 598//686 614//702 613//701 597//685
f 599//687 615//703 614//702 598//686
f 600//688 616//704 615//703 599//687
f 601//689 617//705 616//704 600//688
f 602//690 618//706 617//705 601//689
f 603//691 619//707 618//706 602//690
f 604//692 620//708 619//707 603//691
f 605//693 621//709 620//708 604//692
f 606//694 622//710 621//709 605//693
f 607//695 623//711 622//710 606//694
f 608//696 624//712 623//711 607//695
f 609//697 625//713 624//712 608//696
f 610//698 626//714 625//713 609//697
f 611//699 627//715 642//730 626//714
f 612//700 628//716 627//715 611//699
f 613//701 629//717 628//716 612//700
f 614//702 630//718 629//717 613//701
f 615//703 631//719 630//718 614//702
f 616//704 632//720 631//719 615//703
f 617//705 633//721 632//720 616//704
f 618//706 634//722 633//721 617//705
f 619//707 635//723 634//722 618//706
f 620//708 636//724 635//723 619//707
f 621//709 637//725 636//724 620//708
f 622//710 638//726 637//725 621//709
f 623//711 639//727 638//726 622//710
f 624//712 640//728 639//727 623//711
f 625//713 641//729 640//728 624//712
f 626//714 642//730 641//729 625//713
f 627//715 644//732 642//730
f 628//716 644//732 627//715
f 629//717 644//732 628//716
f 630//718 644//732 629//717
f 631//719 644//732 630//718
f 632//720 644//732 631//719
f 633//721 644//732 632//720
f 634//722 644//732 633//721
f 635//723 644//732 634//722
f 636//724 644//732 635//723
f 637//725 644//732 636//724
f 638//726 644//732 637//725
f 639//727 644//732 638//726
f 640//728 644//732 639//727
f 641//729 644//732 640//728
f 642//730 644//732 641//729
