# Exported from Wings 3D 0.98.29b
mtllib rabbit-hopping.mtl
o sphere4_cut11
#65 vertices, 65 faces
v -0.47730805 4.17463940 2.2159934e-2
v -0.48231842 4.20540232 8.3405056e-2
v -0.49658674 4.23148186 0.13532616
v -0.51794078 4.24890765 0.17001874
v -0.54312960 4.25502678 0.18220115
v -0.54312960 4.09425202 -0.13788128
v -0.51794078 4.10037114 -0.12569887
v -0.49658674 4.11779694 -9.1006296e-2
v -0.48231842 4.14387648 -3.9085189e-2
v -0.42150723 3.98092985 0.11945864
v -0.43076519 4.03777232 0.23262487
v -0.45712960 4.08596103 0.32856256
v -0.49658674 4.11815970 0.39266608
v -0.54312960 4.12946636 0.41517625
v -0.54312960 3.83239334 -0.17625897
v -0.49658674 3.84370001 -0.15374881
v -0.45712960 3.87589868 -8.9645291e-2
v -0.43076519 3.92408739 6.2924064e-3
v -0.38422232 3.69102303 0.26507644
v -0.39631842 3.76529129 0.41293524
v -0.43076519 3.82825287 0.53828388
v -0.48231842 3.87032246 0.62203917
v -0.54312960 3.88509533 0.65145011
v -0.54312960 3.49695073 -0.12129724
v -0.48231842 3.51172360 -9.1886297e-2
v -0.43076519 3.55379319 -8.1310118e-3
v -0.39631842 3.61675478 0.11721763
v -0.37112960 3.34905462 0.43684434
v -0.38422232 3.42944200 0.59688556
v -0.42150723 3.49759113 0.73256195
v -0.47730805 3.54312692 0.82321802
v -0.54312960 3.55911696 0.85505220
v -0.54312960 3.13899227 1.8636486e-2
v -0.47730805 3.15498231 5.0470664e-2
v -0.42150723 3.20051811 0.14112673
v -0.38422232 3.26866724 0.27680312
v -0.38422232 3.00708620 0.60861225
v -0.39631842 3.08135446 0.75647105
v -0.43076519 3.14431605 0.88181970
v -0.48231842 3.18638563 0.96557498
v -0.54312960 3.20115851 0.99498593
v -0.54312960 2.81301390 0.22223857
v -0.48231842 2.82778678 0.25164951
v -0.43076519 2.86985636 0.33540480
v -0.39631842 2.93281795 0.46075344
v -0.42150723 2.71717938 0.75423005
v -0.43076519 2.77402184 0.86739628
v -0.45712960 2.82221056 0.96333397
v -0.49658674 2.85440922 1.02743749
v -0.54312960 2.86571589 1.04994766
v -0.54312960 2.56864287 0.45851244
v -0.49658674 2.57994954 0.48102260
v -0.45712960 2.61214821 0.54512612
v -0.43076519 2.66033692 0.64106382
v -0.47730805 2.52346984 0.85152875
v -0.48231842 2.55423275 0.91277387
v -0.49658674 2.58031230 0.96469498
v -0.51794078 2.59773809 0.99938756
v -0.54312960 2.60385722 1.01156997
v -0.54312960 2.44308246 0.69148753
v -0.51794078 2.44920158 0.70366994
v -0.49658674 2.46662737 0.73836252
v -0.48231842 2.49270692 0.79028363
v -0.54312960 4.24266115 -1.2006827e-2
v -0.54312960 2.45544809 0.88569551
vn 0.88580462 0.41468560 -0.20829315
vn 0.86267949 0.49618633 -9.7893926e-2
vn 0.77196053 0.63555996 1.1852149e-2
vn 0.52083846 0.84298549 0.13454655
vn 0.52083846 0.39538509 -0.75656985
vn 0.77196053 0.36996306 -0.51691805
vn 0.86267949 0.37478541 -0.33958798
vn 0.98326758 0.16278574 -8.1765932e-2
vn 0.96875968 0.24308863 4.9118300e-2
vn 0.90425783 0.37454165 0.20502764
vn 0.66538177 0.60838103 0.43259639
vn 0.66538177 1.6217524e-2 -0.74632707
vn 0.90425783 5.9154141e-2 -0.42286945
vn 0.96875968 0.10573743 -0.22433075
vn 0.99724008 6.6345283e-2 -3.3324687e-2
vn 0.98457777 0.14117069 0.10333175
vn 0.92704382 0.25187083 0.27776040
vn 0.69787980 0.44849837 0.55840219
vn 0.69787980 -0.18016334 -0.69318465
vn 0.92704382 -7.2434037e-2 -0.36789002
vn 0.98457777 1.3961407e-3 -0.17494190
vn 1.00000000 -1.7403650e-16 -2.4191073e-16
vn 0.98771924 7.0128170e-2 0.13961641
vn 0.93167648 0.16306272 0.32463748
vn 0.70490553 0.31837067 0.63383619
vn 0.70490553 -0.31837067 -0.63383619
vn 0.93167648 -0.16306272 -0.32463748
vn 0.98771924 -7.0128170e-2 -0.13961641
vn 0.99724008 -6.6345283e-2 3.3324687e-2
vn 0.98457777 -1.3961407e-3 0.17494190
vn 0.92704382 7.2434037e-2 0.36789002
vn 0.69787980 0.18016334 0.69318465
vn 0.69787980 -0.44849837 -0.55840219
vn 0.92704382 -0.25187083 -0.27776040
vn 0.98457777 -0.14117069 -0.10333175
vn 0.98326758 -0.16278574 8.1765932e-2
vn 0.96875968 -0.10573743 0.22433075
vn 0.90425783 -5.9154141e-2 0.42286945
vn 0.66538177 -1.6217524e-2 0.74632707
vn 0.66538177 -0.60838103 -0.43259639
vn 0.90425783 -0.37454165 -0.20502764
vn 0.96875968 -0.24308863 -4.9118300e-2
vn 0.88580462 -0.41468560 0.20829315
vn 0.86267949 -0.37478541 0.33958798
vn 0.77196053 -0.36996306 0.51691805
vn 0.52083846 -0.39538509 0.75656985
vn 0.52083846 -0.84298549 -0.13454655
vn 0.77196053 -0.63555996 -1.1852149e-2
vn 0.86267949 -0.49618633 9.7893926e-2
vn 0.31899373 0.92778404 0.19354526
vn 0.31899373 0.92778404 0.19354526
vn -1.00000000 1.5497610e-16 1.1293573e-16
vn 0.31899373 0.39868703 -0.85982071
vn 0.31899373 0.39868703 -0.85982071
vn -1.00000000 1.5497610e-16 1.1293573e-16
vn 0.43649078 0.71838133 0.54166786
vn 0.43649078 0.71838133 0.54166786
vn -1.00000000 1.5497610e-16 1.1293573e-16
vn 0.43649078 -5.6014549e-3 -0.89969129
vn 0.43649078 -5.6014549e-3 -0.89969129
vn -1.00000000 1.5497610e-16 1.1293573e-16
vn 0.46871136 0.54432511 0.69571534
vn 0.46871136 0.54432511 0.69571534
vn -1.00000000 1.5497610e-16 1.1293573e-16
vn 0.46871136 -0.23310013 -0.85204107
vn 0.46871136 -0.23310013 -0.85204107
vn -1.00000000 1.5497610e-16 1.1293573e-16
vn 0.47598395 0.39474394 0.78588581
vn 0.47598395 0.39474394 0.78588581
vn -1.00000000 1.5497610e-16 1.1293573e-16
vn 0.47598395 -0.39474394 -0.78588581
vn 0.47598395 -0.39474394 -0.78588581
vn -1.00000000 1.5497610e-16 1.1293573e-16
vn 0.46871136 0.23310013 0.85204107
vn 0.46871136 0.23310013 0.85204107
vn -1.00000000 1.5497610e-16 1.1293573e-16
vn 0.46871136 -0.54432511 -0.69571534
vn 0.46871136 -0.54432511 -0.69571534
vn -1.00000000 1.5497610e-16 1.1293573e-16
vn 0.43649078 5.6014549e-3 0.89969129
vn 0.43649078 5.6014549e-3 0.89969129
vn -1.00000000 1.5497610e-16 1.1293573e-16
vn 0.43649078 -0.71838133 -0.54166786
vn 0.43649078 -0.71838133 -0.54166786
vn -1.00000000 1.5497610e-16 1.1293573e-16
vn 0.31899373 -0.39868703 0.85982071
vn 0.31899373 -0.39868703 0.85982071
vn -1.00000000 1.5497610e-16 1.1293573e-16
vn 0.31899373 -0.92778404 -0.19354526
vn 0.31899373 -0.92778404 -0.19354526
vn -1.00000000 1.5497610e-16 1.1293573e-16
vn 0.57994027 0.72798460 -0.36566064
vn 0.57994027 0.72798460 -0.36566064
vn 0.57994027 0.72798460 -0.36566064
vn 0.57994027 0.72798460 -0.36566064
vn 0.57994027 0.72798460 -0.36566064
vn 0.57994027 0.72798460 -0.36566064
vn 0.57994027 0.72798460 -0.36566064
vn 0.57994027 0.72798460 -0.36566064
vn -1.00000000 1.5497610e-16 1.1293573e-16
vn 0.57994027 -0.72798460 0.36566064
vn 0.57994027 -0.72798460 0.36566064
vn 0.57994027 -0.72798460 0.36566064
vn 0.57994027 -0.72798460 0.36566064
vn 0.57994027 -0.72798460 0.36566064
vn 0.57994027 -0.72798460 0.36566064
vn 0.57994027 -0.72798460 0.36566064
vn 0.57994027 -0.72798460 0.36566064
vn -1.00000000 1.5497610e-16 1.1293573e-16
g sphere4_cut11_default
usemtl default
f 1//1 10//8 18//14 9//7
f 1//1 64//92 2//2
f 2//2 11//9 10//8 1//1
f 2//2 64//93 3//3
f 3//3 12//10 11//9 2//2
f 3//3 64//94 4//4
f 4//4 13//11 12//10 3//3
f 4//4 64//95 5//50
f 5//51 14//56 13//11 4//4
f 5//52 64//100 6//55 15//61 24//67 33//73 42//79 51//85 60//91 65//109 59//88 50//82 41//76 32//70 23//64 14//58
f 6//53 64//96 7//5
f 7//5 16//12 15//59 6//54
f 7//5 64//97 8//6
f 8//6 17//13 16//12 7//5
f 8//6 64//98 9//7
f 9//7 18//14 17//13 8//6
f 9//7 64//99 1//1
f 10//8 19//15 27//21 18//14
f 11//9 20//16 19//15 10//8
f 12//10 21//17 20//16 11//9
f 13//11 22//18 21//17 12//10
f 14//57 23//62 22//18 13//11
f 16//12 25//19 24//65 15//60
f 17//13 26//20 25//19 16//12
f 18//14 27//21 26//20 17//13
f 19//15 28//22 36//28 27//21
f 20//16 29//23 28//22 19//15
f 21//17 30//24 29//23 20//16
f 22//18 31//25 30//24 21//17
f 23//63 32//68 31//25 22//18
f 25//19 34//26 33//71 24//66
f 26//20 35//27 34//26 25//19
f 27//21 36//28 35//27 26//20
f 28//22 37//29 45//35 36//28
f 29//23 38//30 37//29 28//22
f 30//24 39//31 38//30 29//23
f 31//25 40//32 39//31 30//24
f 32//69 41//74 40//32 31//25
f 34//26 43//33 42//77 33//72
f 35//27 44//34 43//33 34//26
f 36//28 45//35 44//34 35//27
f 37//29 46//36 54//42 45//35
f 38//30 47//37 46//36 37//29
f 39//31 48//38 47//37 38//30
f 40//32 49//39 48//38 39//31
f 41//75 50//80 49//39 40//32
f 43//33 52//40 51//83 42//78
f 44//34 53//41 52//40 43//33
f 45//35 54//42 53//41 44//34
f 46//36 55//43 63//49 54//42
f 47//37 56//44 55//43 46//36
f 48//38 57//45 56//44 47//37
f 49//39 58//46 57//45 48//38
f 50//81 59//87 58//46 49//39
f 52//40 61//47 60//90 51//84
f 53//41 62//48 61//47 52//40
f 54//42 63//49 62//48 53//41
f 55//43 65//108 63//49
f 56//44 65//101 55//43
f 57//45 65//102 56//44
f 58//46 65//103 57//45
f 59//86 65//104 58//46
f 61//47 65//105 60//89
f 62//48 65//106 61//47
f 63//49 65//107 62//48
o sphere4_copy13
#65 vertices, 65 faces
v 0.51118080 4.25502678 0.18220115
v 0.48599198 4.24890765 0.17001874
v 0.46463794 4.23148186 0.13532616
v 0.45036962 4.20540232 8.3405056e-2
v 0.44535925 4.17463940 2.2159934e-2
v 0.45036962 4.14387648 -3.9085189e-2
v 0.46463794 4.11779694 -9.1006296e-2
v 0.48599198 4.10037114 -0.12569887
v 0.51118080 4.09425202 -0.13788128
v 0.51118080 4.12946636 0.41517625
v 0.46463794 4.11815970 0.39266608
v 0.42518080 4.08596103 0.32856256
v 0.39881639 4.03777232 0.23262487
v 0.38955843 3.98092985 0.11945864
v 0.39881639 3.92408739 6.2924064e-3
v 0.42518080 3.87589868 -8.9645291e-2
v 0.46463794 3.84370001 -0.15374881
v 0.51118080 3.83239334 -0.17625897
v 0.51118080 3.88509533 0.65145011
v 0.45036962 3.87032246 0.62203917
v 0.39881639 3.82825287 0.53828388
v 0.36436962 3.76529129 0.41293524
v 0.35227352 3.69102303 0.26507644
v 0.36436962 3.61675478 0.11721763
v 0.39881639 3.55379319 -8.1310118e-3
v 0.45036962 3.51172360 -9.1886297e-2
v 0.51118080 3.49695073 -0.12129724
v 0.51118080 3.55911696 0.85505220
v 0.44535925 3.54312692 0.82321802
v 0.38955843 3.49759113 0.73256195
v 0.35227352 3.42944200 0.59688556
v 0.33918080 3.34905462 0.43684434
v 0.35227352 3.26866724 0.27680312
v 0.38955843 3.20051811 0.14112673
v 0.44535925 3.15498231 5.0470664e-2
v 0.51118080 3.13899227 1.8636486e-2
v 0.51118080 3.20115851 0.99498593
v 0.45036962 3.18638563 0.96557498
v 0.39881639 3.14431605 0.88181970
v 0.36436962 3.08135446 0.75647105
v 0.35227352 3.00708620 0.60861225
v 0.36436962 2.93281795 0.46075344
v 0.39881639 2.86985636 0.33540480
v 0.45036962 2.82778678 0.25164951
v 0.51118080 2.81301390 0.22223857
v 0.51118080 2.86571589 1.04994766
v 0.46463794 2.85440922 1.02743749
v 0.42518080 2.82221056 0.96333397
v 0.39881639 2.77402184 0.86739628
v 0.38955843 2.71717938 0.75423005
v 0.39881639 2.66033692 0.64106382
v 0.42518080 2.61214821 0.54512612
v 0.46463794 2.57994954 0.48102260
v 0.51118080 2.56864287 0.45851244
v 0.51118080 2.60385722 1.01156997
v 0.48599198 2.59773809 0.99938756
v 0.46463794 2.58031230 0.96469498
v 0.45036962 2.55423275 0.91277387
v 0.44535925 2.52346984 0.85152875
v 0.45036962 2.49270692 0.79028363
v 0.46463794 2.46662737 0.73836252
v 0.48599198 2.44920158 0.70366994
v 0.51118080 2.44308246 0.69148753
v 0.51118080 4.24266115 -1.2006827e-2
v 0.51118080 2.45544809 0.88569551
vn -0.52083846 0.84298549 0.13454655
vn -0.77196053 0.63555996 1.1852149e-2
vn -0.86267949 0.49618633 -9.7893926e-2
vn -0.88580462 0.41468560 -0.20829315
vn -0.86267949 0.37478541 -0.33958798
vn -0.77196053 0.36996306 -0.51691805
vn -0.52083846 0.39538509 -0.75656985
vn -0.66538177 0.60838103 0.43259639
vn -0.90425783 0.37454165 0.20502764
vn -0.96875968 0.24308863 4.9118300e-2
vn -0.98326758 0.16278574 -8.1765932e-2
vn -0.96875968 0.10573743 -0.22433075
vn -0.90425783 5.9154141e-2 -0.42286945
vn -0.66538177 1.6217524e-2 -0.74632707
vn -0.69787980 0.44849837 0.55840219
vn -0.92704382 0.25187083 0.27776040
vn -0.98457777 0.14117069 0.10333175
vn -0.99724008 6.6345283e-2 -3.3324687e-2
vn -0.98457777 1.3961407e-3 -0.17494190
vn -0.92704382 -7.2434037e-2 -0.36789002
vn -0.69787980 -0.18016334 -0.69318465
vn -0.70490553 0.31837067 0.63383619
vn -0.93167648 0.16306272 0.32463748
vn -0.98771924 7.0128170e-2 0.13961641
vn -1.00000000 -2.4365110e-17 -4.6989855e-17
vn -0.98771924 -7.0128170e-2 -0.13961641
vn -0.93167648 -0.16306272 -0.32463748
vn -0.70490553 -0.31837067 -0.63383619
vn -0.69787980 0.18016334 0.69318465
vn -0.92704382 7.2434037e-2 0.36789002
vn -0.98457777 -1.3961407e-3 0.17494190
vn -0.99724008 -6.6345283e-2 3.3324687e-2
vn -0.98457777 -0.14117069 -0.10333175
vn -0.92704382 -0.25187083 -0.27776040
vn -0.69787980 -0.44849837 -0.55840219
vn -0.66538177 -1.6217524e-2 0.74632707
vn -0.90425783 -5.9154141e-2 0.42286945
vn -0.96875968 -0.10573743 0.22433075
vn -0.98326758 -0.16278574 8.1765932e-2
vn -0.96875968 -0.24308863 -4.9118300e-2
vn -0.90425783 -0.37454165 -0.20502764
vn -0.66538177 -0.60838103 -0.43259639
vn -0.52083846 -0.39538509 0.75656985
vn -0.77196053 -0.36996306 0.51691805
vn -0.86267949 -0.37478541 0.33958798
vn -0.88580462 -0.41468560 0.20829315
vn -0.86267949 -0.49618633 9.7893926e-2
vn -0.77196053 -0.63555996 -1.1852149e-2
vn -0.52083846 -0.84298549 -0.13454655
vn -0.31899373 0.92778404 0.19354526
vn -0.31899373 0.92778404 0.19354526
vn 1.00000000 -7.7488050e-17 -1.1293573e-16
vn -0.31899373 0.39868703 -0.85982071
vn -0.31899373 0.39868703 -0.85982071
vn 1.00000000 -7.7488050e-17 -1.1293573e-16
vn -0.43649078 0.71838133 0.54166786
vn -0.43649078 0.71838133 0.54166786
vn 1.00000000 -7.7488050e-17 -1.1293573e-16
vn -0.43649078 -5.6014549e-3 -0.89969129
vn -0.43649078 -5.6014549e-3 -0.89969129
vn 1.00000000 -7.7488050e-17 -1.1293573e-16
vn -0.46871136 0.54432511 0.69571534
vn -0.46871136 0.54432511 0.69571534
vn 1.00000000 -7.7488050e-17 -1.1293573e-16
vn -0.46871136 -0.23310013 -0.85204107
vn -0.46871136 -0.23310013 -0.85204107
vn 1.00000000 -7.7488050e-17 -1.1293573e-16
vn -0.47598395 0.39474394 0.78588581
vn -0.47598395 0.39474394 0.78588581
vn 1.00000000 -7.7488050e-17 -1.1293573e-16
vn -0.47598395 -0.39474394 -0.78588581
vn -0.47598395 -0.39474394 -0.78588581
vn 1.00000000 -7.7488050e-17 -1.1293573e-16
vn -0.46871136 0.23310013 0.85204107
vn -0.46871136 0.23310013 0.85204107
vn 1.00000000 -7.7488050e-17 -1.1293573e-16
vn -0.46871136 -0.54432511 -0.69571534
vn -0.46871136 -0.54432511 -0.69571534
vn 1.00000000 -7.7488050e-17 -1.1293573e-16
vn -0.43649078 5.6014549e-3 0.89969129
vn -0.43649078 5.6014549e-3 0.89969129
vn 1.00000000 -7.7488050e-17 -1.1293573e-16
vn -0.43649078 -0.71838133 -0.54166786
vn -0.43649078 -0.71838133 -0.54166786
vn 1.00000000 -7.7488050e-17 -1.1293573e-16
vn -0.31899373 -0.39868703 0.85982071
vn -0.31899373 -0.39868703 0.85982071
vn 1.00000000 -7.7488050e-17 -1.1293573e-16
vn -0.31899373 -0.92778404 -0.19354526
vn -0.31899373 -0.92778404 -0.19354526
vn 1.00000000 -7.7488050e-17 -1.1293573e-16
vn -0.57994027 0.72798460 -0.36566064
vn -0.57994027 0.72798460 -0.36566064
vn -0.57994027 0.72798460 -0.36566064
vn -0.57994027 0.72798460 -0.36566064
vn -0.57994027 0.72798460 -0.36566064
vn -0.57994027 0.72798460 -0.36566064
vn -0.57994027 0.72798460 -0.36566064
vn -0.57994027 0.72798460 -0.36566064
vn 1.00000000 -7.7488050e-17 -1.1293573e-16
vn -0.57994027 -0.72798460 0.36566064
vn -0.57994027 -0.72798460 0.36566064
vn -0.57994027 -0.72798460 0.36566064
vn -0.57994027 -0.72798460 0.36566064
vn -0.57994027 -0.72798460 0.36566064
vn -0.57994027 -0.72798460 0.36566064
vn -0.57994027 -0.72798460 0.36566064
vn -0.57994027 -0.72798460 0.36566064
vn 1.00000000 -7.7488050e-17 -1.1293573e-16
g sphere4_copy13_default
usemtl default
f 66//159 129//201 67//110
f 67//110 76//117 75//165 66//160
f 67//110 129//202 68//111
f 68//111 77//118 76//117 67//110
f 68//111 129//203 69//112
f 69//112 78//119 77//118 68//111
f 69//112 129//204 70//113
f 70//113 79//120 78//119 69//112
f 70//113 129//205 71//114
f 71//114 80//121 79//120 70//113
f 71//114 129//206 72//115
f 72//115 81//122 80//121 71//114
f 72//115 129//207 73//116
f 73//116 82//123 81//122 72//115
f 73//116 129//208 74//162
f 74//163 83//168 82//123 73//116
f 75//167 84//173 93//179 102//185 111//191 120//197 130//218 128//200 119//194 110//188 101//182 92//176 83//170 74//164 129//209 66//161
f 76//117 85//124 84//171 75//166
f 77//118 86//125 85//124 76//117
f 78//119 87//126 86//125 77//118
f 79//120 88//127 87//126 78//119
f 80//121 89//128 88//127 79//120
f 81//122 90//129 89//128 80//121
f 82//123 91//130 90//129 81//122
f 83//169 92//174 91//130 82//123
f 85//124 94//131 93//177 84//172
f 86//125 95//132 94//131 85//124
f 87//126 96//133 95//132 86//125
f 88//127 97//134 96//133 87//126
f 89//128 98//135 97//134 88//127
f 90//129 99//136 98//135 89//128
f 91//130 100//137 99//136 90//129
f 92//175 101//180 100//137 91//130
f 94//131 103//138 102//183 93//178
f 95//132 104//139 103//138 94//131
f 96//133 105//140 104//139 95//132
f 97//134 106//141 105//140 96//133
f 98//135 107//142 106//141 97//134
f 99//136 108//143 107//142 98//135
f 100//137 109//144 108//143 99//136
f 101//181 110//186 109//144 100//137
f 103//138 112//145 111//189 102//184
f 104//139 113//146 112//145 103//138
f 105//140 114//147 113//146 104//139
f 106//141 115//148 114//147 105//140
f 107//142 116//149 115//148 106//141
f 108//143 117//150 116//149 107//142
f 109//144 118//151 117//150 108//143
f 110//187 119//192 118//151 109//144
f 112//145 121//152 120//196 111//190
f 113//146 122//153 121//152 112//145
f 114//147 123//154 122//153 113//146
f 115//148 124//155 123//154 114//147
f 116//149 125//156 124//155 115//148
f 117//150 126//157 125//156 116//149
f 118//151 127//158 126//157 117//150
f 119//193 128//199 127//158 118//151
f 121//152 130//210 120//195
f 122//153 130//211 121//152
f 123//154 130//212 122//153
f 124//155 130//213 123//154
f 125//156 130//214 124//155
f 126//157 130//215 125//156
f 127//158 130//216 126//157
f 128//198 130//217 127//158
o sphere6_copy12
#65 vertices, 65 faces
v -0.65722330 0.49257807 -0.54498298
v -0.66459448 0.50322733 -0.44742386
v -0.68558583 0.50833815 -0.36860519
v -0.71700161 0.50951856 -0.31815811
v -0.75405904 0.50951856 -0.30085487
v -0.79111648 0.50951856 -0.31815811
v -0.82253226 0.50833815 -0.36860519
v -0.84352361 0.50322733 -0.44742386
v -0.85089479 0.49257807 -0.54498298
v -0.84352361 0.47697664 -0.64745736
v -0.82253226 0.45941472 -0.73863427
v -0.79111648 0.44625188 -0.80097443
v -0.75405904 0.44235883 -0.82214170
v -0.71700161 0.44625188 -0.80097443
v -0.68558583 0.45941472 -0.73863427
v -0.66459448 0.47697664 -0.64745736
v -0.57512991 0.34723738 -0.56143704
v -0.58875008 0.36424436 -0.38382164
v -0.62753704 0.37673207 -0.23516229
v -0.68558583 0.38075554 -0.14011963
v -0.75405904 0.38075554 -0.10814740
v -0.82253226 0.38075554 -0.14011963
v -0.88058104 0.37673207 -0.23516229
v -0.91936800 0.36424436 -0.38382164
v -0.93298817 0.34723738 -0.56143704
v -0.91936800 0.31652084 -0.75265977
v -0.88058104 0.27937383 -0.92579453
v -0.82253226 0.24754458 -1.04843562
v -0.75405904 0.23459739 -1.09325849
v -0.68558583 0.24754458 -1.04843562
v -0.62753704 0.27937383 -0.92579453
v -0.58875008 0.31652084 -0.75265977
v -0.52027687 0.11209183 -0.60355866
v -0.53807248 0.14953273 -0.35638624
v -0.58875008 0.17210998 -0.15593886
v -0.66459448 0.17034160 -3.8732548e-2
v -0.75405904 0.16966870 2.3732948e-3
v -0.84352361 0.17034160 -3.8732548e-2
v -0.91936800 0.17210998 -0.15593886
v -0.97004561 0.14953273 -0.35638624
v -0.98784122 0.11209183 -0.60355866
v -0.97004561 7.1652174e-2 -0.85370746
v -0.91936800 1.9693055e-2 -1.08331760
v -0.84352361 -2.5876775e-2 -1.24750913
v -0.75405904 -5.2631006e-2 -1.31583758
v -0.66459448 -2.5876775e-2 -1.24750913
v -0.58875008 1.9693055e-2 -1.08331760
v -0.53807248 7.1652174e-2 -0.85370746
v -0.50101504 -0.17308162 -0.66098668
v -0.52027687 -0.12220431 -0.38317481
v -0.57512991 -0.10524506 -0.17363456
v -0.65722330 -0.10899918 -4.8597670e-2
v -0.75405904 -0.11041902 -4.7913687e-3
v -0.85089479 -0.10899918 -4.8597670e-2
v -0.93298817 -0.10524506 -0.17363456
v -0.98784122 -0.12220431 -0.38317481
v -1.00710304 -0.17308162 -0.66098668
v -0.98784122 -0.23396767 -0.94873265
v -0.93298817 -0.28248327 -1.18959394
v -0.85089479 -0.32500967 -1.36056623
v -0.75405904 -0.32500967 -1.40578179
v -0.65722330 -0.32500967 -1.36056623
v -0.57512991 -0.28248327 -1.18959394
v -0.52027687 -0.23396767 -0.94873265
v -0.75405904 0.53845365 -0.54432789
vn 0.67700076 0.73007071 -9.3095302e-2
vn 0.65129915 0.75769924 4.1246613e-2
vn 0.53027299 0.82886396 0.17831179
vn 0.30015828 0.90686542 0.29580419
vn 1.1611778e-16 0.93939131 0.34284686
vn -0.30015828 0.90686542 0.29580419
vn -0.53027299 0.82886396 0.17831179
vn -0.65129915 0.75769924 4.1246613e-2
vn -0.67700076 0.73007071 -9.3095302e-2
vn -0.62594136 0.74751235 -0.22231217
vn -0.50202568 0.79598227 -0.33820473
vn -0.29592105 0.85244290 -0.43101256
vn 1.8593426e-16 0.88201370 -0.47122377
vn 0.29592105 0.85244290 -0.43101256
vn 0.50202568 0.79598227 -0.33820473
vn 0.62594136 0.74751235 -0.22231217
vn 0.92829216 0.36881809 -4.7401327e-2
vn 0.91689501 0.38232088 0.11460490
vn 0.82578185 0.46086371 0.32509841
vn 0.54861146 0.59190232 0.59048887
vn 9.0720876e-17 0.67317096 0.73948689
vn -0.54861146 0.59190232 0.59048887
vn -0.82578185 0.46086371 0.32509841
vn -0.91689501 0.38232088 0.11460490
vn -0.92829216 0.36881809 -4.7401327e-2
vn -0.89088884 0.40531765 -0.20502362
vn -0.78484592 0.49013837 -0.37918500
vn -0.52184830 0.62278116 -0.58293909
vn -8.8702155e-17 0.71090279 -0.70329028
vn 0.52184830 0.62278116 -0.58293909
vn 0.78484592 0.49013837 -0.37918500
vn 0.89088884 0.40531765 -0.20502362
vn 0.98782029 0.15399539 -2.2282161e-2
vn 0.97907123 0.14517765 0.14262879
vn 0.90825908 0.16100573 0.38618986
vn 0.64542285 0.19825877 0.73764680
vn 6.2479584e-17 0.22998253 0.97319476
vn -0.64542285 0.19825877 0.73764680
vn -0.90825908 0.16100573 0.38618986
vn -0.97907123 0.14517765 0.14262879
vn -0.98782029 0.15399539 -2.2282161e-2
vn -0.96535536 0.19113001 -0.17764672
vn -0.89272665 0.26187708 -0.36668723
vn -0.65222149 0.38423107 -0.65343218
vn -1.7073839e-16 0.48445785 -0.87481461
vn 0.65222149 0.38423107 -0.65343218
vn 0.89272665 0.26187708 -0.36668723
vn 0.96535536 0.19113001 -0.17764672
vn 0.91842311 -0.39020502 6.5107867e-2
vn 0.88934590 -0.40447125 0.21322963
vn 0.80192844 -0.42014159 0.42472558
vn 0.54911593 -0.44020462 0.71041649
vn 1.3772744e-16 -0.46109082 0.88735295
vn -0.54911593 -0.44020462 0.71041649
vn -0.80192844 -0.42014159 0.42472558
vn -0.88934590 -0.40447125 0.21322963
vn -0.91842311 -0.39020502 6.5107867e-2
vn -0.92724592 -0.36636551 -7.7403645e-2
vn -0.90655171 -0.32659101 -0.26739915
vn -0.73449622 -0.26877511 -0.62311736
vn -1.5959080e-16 -0.24713846 -0.96898018
vn 0.73449622 -0.26877511 -0.62311736
vn 0.90655171 -0.32659101 -0.26739915
vn 0.92724592 -0.36636551 -7.7403645e-2
vn 2.2108586e-17 0.99328378 -0.11570364
g sphere6_copy12_default
usemtl default
f 131//219 147//235 162//250 146//234
f 131//219 195//283 132//220
f 132//220 148//236 147//235 131//219
f 132//220 195//283 133//221
f 133//221 149//237 148//236 132//220
f 133//221 195//283 134//222
f 134//222 150//238 149//237 133//221
f 134//222 195//283 135//223
f 135//223 151//239 150//238 134//222
f 135//223 195//283 136//224
f 136//224 152//240 151//239 135//223
f 136//224 195//283 137//225
f 137//225 153//241 152//240 136//224
f 137//225 195//283 138//226
f 138//226 154//242 153//241 137//225
f 138//226 195//283 139//227
f 139//227 155//243 154//242 138//226
f 139//227 195//283 140//228
f 140//228 156//244 155//243 139//227
f 140//228 195//283 141//229
f 141//229 157//245 156//244 140//228
f 141//229 195//283 142//230
f 142//230 158//246 157//245 141//229
f 142//230 195//283 143//231
f 143//231 159//247 158//246 142//230
f 143//231 195//283 144//232
f 144//232 160//248 159//247 143//231
f 144//232 195//283 145//233
f 145//233 161//249 160//248 144//232
f 145//233 195//283 146//234
f 146//234 162//250 161//249 145//233
f 146//234 195//283 131//219
f 147//235 163//251 178//266 162//250
f 148//236 164//252 163//251 147//235
f 149//237 165//253 164//252 148//236
f 150//238 166//254 165//253 149//237
f 151//239 167//255 166//254 150//238
f 152//240 168//256 167//255 151//239
f 153//241 169//257 168//256 152//240
f 154//242 170//258 169//257 153//241
f 155//243 171//259 170//258 154//242
f 156//244 172//260 171//259 155//243
f 157//245 173//261 172//260 156//244
f 158//246 174//262 173//261 157//245
f 159//247 175//263 174//262 158//246
f 160//248 176//264 175//263 159//247
f 161//249 177//265 176//264 160//248
f 162//250 178//266 177//265 161//249
f 163//251 179//267 194//282 178//266
f 164//252 180//268 179//267 163//251
f 165//253 181//269 180//268 164//252
f 166//254 182//270 181//269 165//253
f 167//255 183//271 182//270 166//254
f 168//256 184//272 183//271 167//255
f 169//257 185//273 184//272 168//256
f 170//258 186//274 185//273 169//257
f 171//259 187//275 186//274 170//258
f 172//260 188//276 187//275 171//259
f 173//261 189//277 188//276 172//260
f 174//262 190//278 189//277 173//261
f 175//263 191//279 190//278 174//262
f 176//264 192//280 191//279 175//263
f 177//265 193//281 192//280 176//264
f 178//266 194//282 193//281 177//265
f 180//268 181//269 182//270 183//271 184//272 185//273 186//274 187//275 188//276 189//277 190//278 191//279 192//280 193//281 194//282 179//267
o sphere6_copy11
#65 vertices, 65 faces
v -0.35273225 0.58782691 0.78535332
v -0.36010344 0.58782691 0.84224431
v -0.38109479 0.58782691 0.89047416
v -0.41251056 0.58782691 0.92270032
v -0.44956800 0.58782691 0.93401664
v -0.48662544 0.58782691 0.92270032
v -0.51804121 0.58782691 0.89047416
v -0.53903256 0.58782691 0.84224431
v -0.54640375 0.58782691 0.78535332
v -0.53903256 0.58782691 0.72846232
v -0.51804121 0.58782691 0.68023247
v -0.48662544 0.58782691 0.64800631
v -0.44956800 0.58782691 0.63668999
v -0.41251056 0.58782691 0.64800631
v -0.38109479 0.58782691 0.68023247
v -0.36010344 0.58782691 0.72846232
v -0.27063887 0.45906389 0.78535332
v -0.28425904 0.45906389 0.89047416
v -0.32304600 0.45906389 0.97959132
v -0.38109479 0.45906389 1.03913749
v -0.44956800 0.45906389 1.06004733
v -0.51804121 0.45906389 1.03913749
v -0.57609000 0.45906389 0.97959132
v -0.61487696 0.45906389 0.89047416
v -0.62849713 0.45906389 0.78535332
v -0.61487696 0.45906389 0.68023247
v -0.57609000 0.45906389 0.59111532
v -0.51804121 0.45906389 0.53156914
v -0.44956800 0.45906389 0.51065930
v -0.38109479 0.45906389 0.53156914
v -0.32304600 0.45906389 0.59111532
v -0.28425904 0.45906389 0.68023247
v -0.21578583 0.26635642 0.78535332
v -0.23358144 0.26635642 0.92270032
v -0.28425904 0.26635642 1.03913749
v -0.36010344 0.26635642 1.11693832
v -0.44956800 0.26635642 1.14425834
v -0.53903256 0.26635642 1.11693832
v -0.61487696 0.26635642 1.03913749
v -0.66555456 0.26635642 0.92270032
v -0.68335017 0.26635642 0.78535332
v -0.66555456 0.26635642 0.64800631
v -0.61487696 0.26635642 0.53156914
v -0.53903256 0.26635642 0.45376831
v -0.44956800 0.26635642 0.42644829
v -0.36010344 0.26635642 0.45376831
v -0.28425904 0.26635642 0.53156914
v -0.23358144 0.26635642 0.64800631
v -0.19652400 3.9042466e-2 0.78535332
v -0.21578583 3.9042466e-2 0.93401664
v -0.27063887 3.9042466e-2 1.06004733
v -0.35273225 3.9042466e-2 1.14425834
v -0.44956800 3.9042466e-2 1.17382932
v -0.54640375 3.9042466e-2 1.14425834
v -0.62849713 3.9042466e-2 1.06004733
v -0.68335017 3.9042466e-2 0.93401664
v -0.70261200 3.9042466e-2 0.78535332
v -0.68335017 3.9042466e-2 0.63668999
v -0.62849713 3.9042466e-2 0.51065930
v -0.54640375 3.9042466e-2 0.42644829
v -0.44956800 3.9042466e-2 0.39687732
v -0.35273225 3.9042466e-2 0.42644829
v -0.27063887 3.9042466e-2 0.51065930
v -0.21578583 3.9042466e-2 0.63668999
v -0.44956800 0.63304247 0.78535332
vn 0.65892374 0.75220974 -1.7046024e-16
vn 0.62180762 0.76451654 0.16991097
vn 0.50298875 0.79774391 0.33257626
vn 0.28957537 0.83730436 0.46375372
vn -1.4520032e-17 0.85605025 0.51689261
vn -0.28957537 0.83730436 0.46375372
vn -0.50298875 0.79774391 0.33257626
vn -0.62180762 0.76451654 0.16991097
vn -0.65892374 0.75220974 -1.6683342e-16
vn -0.62180762 0.76451654 -0.16991097
vn -0.50298875 0.79774391 -0.33257626
vn -0.28957537 0.83730436 -0.46375372
vn 2.6862058e-16 0.85605025 -0.51689261
vn 0.28957537 0.83730436 -0.46375372
vn 0.50298875 0.79774391 -0.33257626
vn 0.62180762 0.76451654 -0.16991097
vn 0.91203694 0.41010806 -3.2478751e-16
vn 0.87268147 0.42514908 0.24015683
vn 0.73458410 0.46911028 0.49022623
vn 0.44532987 0.52876101 0.72256010
vn 5.8181617e-17 0.56021969 0.82834407
vn -0.44532987 0.52876101 0.72256010
vn -0.73458410 0.46911028 0.49022623
vn -0.87268147 0.42514908 0.24015683
vn -0.91203694 0.41010806 -3.7774200e-16
vn -0.87268147 0.42514908 -0.24015683
vn -0.73458410 0.46911028 -0.49022623
vn -0.44532987 0.52876101 -0.72256010
vn 4.3636213e-17 0.56021969 -0.82834407
vn 0.44532987 0.52876101 -0.72256010
vn 0.73458410 0.46911028 -0.49022623
vn 0.87268147 0.42514908 -0.24015683
vn 0.98367327 0.17996358 -3.9351990e-16
vn 0.94674796 0.18795399 0.26142224
vn 0.81155517 0.21229106 0.54434429
vn 0.50522471 0.24784135 0.82663333
vn 0.0000000e+0 0.26780203 0.96347396
vn -0.50522471 0.24784135 0.82663333
vn -0.81155517 0.21229106 0.54434429
vn -0.94674796 0.18795399 0.26142224
vn -0.98367327 0.17996358 -4.1460133e-16
vn -0.94674796 0.18795399 -0.26142224
vn -0.81155517 0.21229106 -0.54434429
vn -0.50522471 0.24784135 -0.82663333
vn -1.1680717e-16 0.26780203 -0.96347396
vn 0.50522471 0.24784135 -0.82663333
vn 0.81155517 0.21229106 -0.54434429
vn 0.94674796 0.18795399 -0.26142224
vn 0.92158026 -0.38818787 -4.2708125e-16
vn 0.88923136 -0.38584305 0.24574933
vn 0.76813703 -0.37919595 0.51592241
vn 0.48330787 -0.37149107 0.79272182
vn -5.4366886e-17 -0.36877343 0.92951932
vn -0.48330787 -0.37149107 0.79272182
vn -0.76813703 -0.37919595 0.51592241
vn -0.88923136 -0.38584305 0.24574933
vn -0.92158026 -0.38818787 -3.7531383e-16
vn -0.88923136 -0.38584305 -0.24574933
vn -0.76813703 -0.37919595 -0.51592241
vn -0.48330787 -0.37149107 -0.79272182
vn 2.7183443e-17 -0.36877343 -0.92951932
vn 0.48330787 -0.37149107 -0.79272182
vn 0.76813703 -0.37919595 -0.51592241
vn 0.88923136 -0.38584305 -0.24574933
vn 1.8310129e-16 1.00000000 -6.1796687e-16
g sphere6_copy11_default
usemtl default
f 196//284 212//300 227//315 211//299
f 196//284 260//348 197//285
f 197//285 213//301 212//300 196//284
f 197//285 260//348 198//286
f 198//286 214//302 213//301 197//285
f 198//286 260//348 199//287
f 199//287 215//303 214//302 198//286
f 199//287 260//348 200//288
f 200//288 216//304 215//303 199//287
f 200//288 260//348 201//289
f 201//289 217//305 216//304 200//288
f 201//289 260//348 202//290
f 202//290 218//306 217//305 201//289
f 202//290 260//348 203//291
f 203//291 219//307 218//306 202//290
f 203//291 260//348 204//292
f 204//292 220//308 219//307 203//291
f 204//292 260//348 205//293
f 205//293 221//309 220//308 204//292
f 205//293 260//348 206//294
f 206//294 222//310 221//309 205//293
f 206//294 260//348 207//295
f 207//295 223//311 222//310 206//294
f 207//295 260//348 208//296
f 208//296 224//312 223//311 207//295
f 208//296 260//348 209//297
f 209//297 225//313 224//312 208//296
f 209//297 260//348 210//298
f 210//298 226//314 225//313 209//297
f 210//298 260//348 211//299
f 211//299 227//315 226//314 210//298
f 211//299 260//348 196//284
f 212//300 228//316 243//331 227//315
f 213//301 229//317 228//316 212//300
f 214//302 230//318 229//317 213//301
f 215//303 231//319 230//318 214//302
f 216//304 232//320 231//319 215//303
f 217//305 233//321 232//320 216//304
f 218//306 234//322 233//321 217//305
f 219//307 235//323 234//322 218//306
f 220//308 236//324 235//323 219//307
f 221//309 237//325 236//324 220//308
f 222//310 238//326 237//325 221//309
f 223//311 239//327 238//326 222//310
f 224//312 240//328 239//327 223//311
f 225//313 241//329 240//328 224//312
f 226//314 242//330 241//329 225//313
f 227//315 243//331 242//330 226//314
f 228//316 244//332 259//347 243//331
f 229//317 245//333 244//332 228//316
f 230//318 246//334 245//333 229//317
f 231//319 247//335 246//334 230//318
f 232//320 248//336 247//335 231//319
f 233//321 249//337 248//336 232//320
f 234//322 250//338 249//337 233//321
f 235//323 251//339 250//338 234//322
f 236//324 252//340 251//339 235//323
f 237//325 253//341 252//340 236//324
f 238//326 254//342 253//341 237//325
f 239//327 255//343 254//342 238//326
f 240//328 256//344 255//343 239//327
f 241//329 257//345 256//344 240//328
f 242//330 258//346 257//345 241//329
f 243//331 259//347 258//346 242//330
f 245//333 246//334 247//335 248//336 249//337 250//338 251//339 252//340 253//341 254//342 255//343 256//344 257//345 258//346 259//347 244//332
o sphere6_copy10
#65 vertices, 65 faces
v 0.52182775 0.58782691 0.78535332
v 0.51445656 0.58782691 0.84224431
v 0.49346521 0.58782691 0.89047416
v 0.46204944 0.58782691 0.92270032
v 0.42499200 0.58782691 0.93401664
v 0.38793456 0.58782691 0.92270032
v 0.35651879 0.58782691 0.89047416
v 0.33552744 0.58782691 0.84224431
v 0.32815625 0.58782691 0.78535332
v 0.33552744 0.58782691 0.72846232
v 0.35651879 0.58782691 0.68023247
v 0.38793456 0.58782691 0.64800631
v 0.42499200 0.58782691 0.63668999
v 0.46204944 0.58782691 0.64800631
v 0.49346521 0.58782691 0.68023247
v 0.51445656 0.58782691 0.72846232
v 0.60392113 0.45906389 0.78535332
v 0.59030096 0.45906389 0.89047416
v 0.55151400 0.45906389 0.97959132
v 0.49346521 0.45906389 1.03913749
v 0.42499200 0.45906389 1.06004733
v 0.35651879 0.45906389 1.03913749
v 0.29847000 0.45906389 0.97959132
v 0.25968304 0.45906389 0.89047416
v 0.24606287 0.45906389 0.78535332
v 0.25968304 0.45906389 0.68023247
v 0.29847000 0.45906389 0.59111532
v 0.35651879 0.45906389 0.53156914
v 0.42499200 0.45906389 0.51065930
v 0.49346521 0.45906389 0.53156914
v 0.55151400 0.45906389 0.59111532
v 0.59030096 0.45906389 0.68023247
v 0.65877417 0.26635642 0.78535332
v 0.64097856 0.26635642 0.92270032
v 0.59030096 0.26635642 1.03913749
v 0.51445656 0.26635642 1.11693832
v 0.42499200 0.26635642 1.14425834
v 0.33552744 0.26635642 1.11693832
v 0.25968304 0.26635642 1.03913749
v 0.20900544 0.26635642 0.92270032
v 0.19120983 0.26635642 0.78535332
v 0.20900544 0.26635642 0.64800631
v 0.25968304 0.26635642 0.53156914
v 0.33552744 0.26635642 0.45376831
v 0.42499200 0.26635642 0.42644829
v 0.51445656 0.26635642 0.45376831
v 0.59030096 0.26635642 0.53156914
v 0.64097856 0.26635642 0.64800631
v 0.67803600 3.9042466e-2 0.78535332
v 0.65877417 3.9042466e-2 0.93401664
v 0.60392113 3.9042466e-2 1.06004733
v 0.52182775 3.9042466e-2 1.14425834
v 0.42499200 3.9042466e-2 1.17382932
v 0.32815625 3.9042466e-2 1.14425834
v 0.24606287 3.9042466e-2 1.06004733
v 0.19120983 3.9042466e-2 0.93401664
v 0.17194800 3.9042466e-2 0.78535332
v 0.19120983 3.9042466e-2 0.63668999
v 0.24606287 3.9042466e-2 0.51065930
v 0.32815625 3.9042466e-2 0.42644829
v 0.42499200 3.9042466e-2 0.39687732
v 0.52182775 3.9042466e-2 0.42644829
v 0.60392113 3.9042466e-2 0.51065930
v 0.65877417 3.9042466e-2 0.63668999
v 0.42499200 0.63304247 0.78535332
vn 0.65892374 0.75220974 -1.6683342e-16
vn 0.62180762 0.76451654 0.16991097
vn 0.50298875 0.79774391 0.33257626
vn 0.28957537 0.83730436 0.46375372
vn 0.0000000e+0 0.85605025 0.51689261
vn -0.28957537 0.83730436 0.46375372
vn -0.50298875 0.79774391 0.33257626
vn -0.62180762 0.76451654 0.16991097
vn -0.65892374 0.75220974 -1.4869935e-16
vn -0.62180762 0.76451654 -0.16991097
vn -0.50298875 0.79774391 -0.33257626
vn -0.28957537 0.83730436 -0.46375372
vn 2.0328044e-16 0.85605025 -0.51689261
vn 0.28957537 0.83730436 -0.46375372
vn 0.50298875 0.79774391 -0.33257626
vn 0.62180762 0.76451654 -0.16991097
vn 0.91203694 0.41010806 -3.2831781e-16
vn 0.87268147 0.42514908 0.24015683
vn 0.73458410 0.46911028 0.49022623
vn 0.44532987 0.52876101 0.72256010
vn 5.8181617e-17 0.56021969 0.82834407
vn -0.44532987 0.52876101 0.72256010
vn -0.73458410 0.46911028 0.49022623
vn -0.87268147 0.42514908 0.24015683
vn -0.91203694 0.41010806 -3.6362080e-16
vn -0.87268147 0.42514908 -0.24015683
vn -0.73458410 0.46911028 -0.49022623
vn -0.44532987 0.52876101 -0.72256010
vn 1.4545404e-16 0.56021969 -0.82834407
vn 0.44532987 0.52876101 -0.72256010
vn 0.73458410 0.46911028 -0.49022623
vn 0.87268147 0.42514908 -0.24015683
vn 0.98367327 0.17996358 -4.2162847e-16
vn 0.94674796 0.18795399 0.26142224
vn 0.81155517 0.21229106 0.54434429
vn 0.50522471 0.24784135 0.82663333
vn -1.4600896e-17 0.26780203 0.96347396
vn -0.50522471 0.24784135 0.82663333
vn -0.81155517 0.21229106 0.54434429
vn -0.94674796 0.18795399 0.26142224
vn -0.98367327 0.17996358 -4.1460133e-16
vn -0.94674796 0.18795399 -0.26142224
vn -0.81155517 0.21229106 -0.54434429
vn -0.50522471 0.24784135 -0.82663333
vn -7.3004482e-17 0.26780203 -0.96347396
vn 0.50522471 0.24784135 -0.82663333
vn 0.81155517 0.21229106 -0.54434429
vn 0.94674796 0.18795399 -0.26142224
vn 0.92158026 -0.38818787 -4.7750481e-16
vn 0.88923136 -0.38584305 0.24574933
vn 0.76813703 -0.37919595 0.51592241
vn 0.48330787 -0.37149107 0.79272182
vn -1.0873377e-16 -0.36877343 0.92951932
vn -0.48330787 -0.37149107 0.79272182
vn -0.76813703 -0.37919595 0.51592241
vn -0.88923136 -0.38584305 0.24574933
vn -0.92158026 -0.38818787 -3.6102810e-16
vn -0.88923136 -0.38584305 -0.24574933
vn -0.76813703 -0.37919595 -0.51592241
vn -0.48330787 -0.37149107 -0.79272182
vn 0.0000000e+0 -0.36877343 -0.92951932
vn 0.48330787 -0.37149107 -0.79272182
vn 0.76813703 -0.37919595 -0.51592241
vn 0.88923136 -0.38584305 -0.24574933
vn -3.7367611e-18 1.00000000 -6.8102471e-16
g sphere6_copy10_default
usemtl default
f 261//349 277//365 292//380 276//364
f 261//349 325//413 262//350
f 262//350 278//366 277//365 261//349
f 262//350 325//413 263//351
f 263//351 279//367 278//366 262//350
f 263//351 325//413 264//352
f 264//352 280//368 279//367 263//351
f 264//352 325//413 265//353
f 265//353 281//369 280//368 264//352
f 265//353 325//413 266//354
f 266//354 282//370 281//369 265//353
f 266//354 325//413 267//355
f 267//355 283//371 282//370 266//354
f 267//355 325//413 268//356
f 268//356 284//372 283//371 267//355
f 268//356 325//413 269//357
f 269//357 285//373 284//372 268//356
f 269//357 325//413 270//358
f 270//358 286//374 285//373 269//357
f 270//358 325//413 271//359
f 271//359 287//375 286//374 270//358
f 271//359 325//413 272//360
f 272//360 288//376 287//375 271//359
f 272//360 325//413 273//361
f 273//361 289//377 288//376 272//360
f 273//361 325//413 274//362
f 274//362 290//378 289//377 273//361
f 274//362 325//413 275//363
f 275//363 291//379 290//378 274//362
f 275//363 325//413 276//364
f 276//364 292//380 291//379 275//363
f 276//364 325//413 261//349
f 277//365 293//381 308//396 292//380
f 278//366 294//382 293//381 277//365
f 279//367 295//383 294//382 278//366
f 280//368 296//384 295//383 279//367
f 281//369 297//385 296//384 280//368
f 282//370 298//386 297//385 281//369
f 283//371 299//387 298//386 282//370
f 284//372 300//388 299//387 283//371
f 285//373 301//389 300//388 284//372
f 286//374 302//390 301//389 285//373
f 287//375 303//391 302//390 286//374
f 288//376 304//392 303//391 287//375
f 289//377 305//393 304//392 288//376
f 290//378 306//394 305//393 289//377
f 291//379 307//395 306//394 290//378
f 292//380 308//396 307//395 291//379
f 293//381 309//397 324//412 308//396
f 294//382 310//398 309//397 293//381
f 295//383 311//399 310//398 294//382
f 296//384 312//400 311//399 295//383
f 297//385 313//401 312//400 296//384
f 298//386 314//402 313//401 297//385
f 299//387 315//403 314//402 298//386
f 300//388 316//404 315//403 299//387
f 301//389 317//405 316//404 300//388
f 302//390 318//406 317//405 301//389
f 303//391 319//407 318//406 302//390
f 304//392 320//408 319//407 303//391
f 305//393 321//409 320//408 304//392
f 306//394 322//410 321//409 305//393
f 307//395 323//411 322//410 306//394
f 308//396 324//412 323//411 307//395
f 310//398 311//399 312//400 313//401 314//402 315//403 316//404 317//405 318//406 319//407 320//408 321//409 322//410 323//411 324//412 309//397
o sphere6_cut7
#65 vertices, 65 faces
v 0.82182775 0.49257807 -0.54498298
v 0.81445656 0.50322733 -0.44742386
v 0.79346521 0.50833815 -0.36860519
v 0.76204944 0.50951856 -0.31815811
v 0.72499200 0.50951856 -0.30085487
v 0.68793456 0.50951856 -0.31815811
v 0.65651879 0.50833815 -0.36860519
v 0.63552744 0.50322733 -0.44742386
v 0.62815625 0.49257807 -0.54498298
v 0.63552744 0.47697664 -0.64745736
v 0.65651879 0.45941472 -0.73863427
v 0.68793456 0.44625188 -0.80097443
v 0.72499200 0.44235883 -0.82214170
v 0.76204944 0.44625188 -0.80097443
v 0.79346521 0.45941472 -0.73863427
v 0.81445656 0.47697664 -0.64745736
v 0.90392113 0.34723738 -0.56143704
v 0.89030096 0.36424436 -0.38382164
v 0.85151400 0.37673207 -0.23516229
v 0.79346521 0.38075554 -0.14011963
v 0.72499200 0.38075554 -0.10814740
v 0.65651879 0.38075554 -0.14011963
v 0.59847000 0.37673207 -0.23516229
v 0.55968304 0.36424436 -0.38382164
v 0.54606287 0.34723738 -0.56143704
v 0.55968304 0.31652084 -0.75265977
v 0.59847000 0.27937383 -0.92579453
v 0.65651879 0.24754458 -1.04843562
v 0.72499200 0.23459739 -1.09325849
v 0.79346521 0.24754458 -1.04843562
v 0.85151400 0.27937383 -0.92579453
v 0.89030096 0.31652084 -0.75265977
v 0.95877417 0.11209183 -0.60355866
v 0.94097856 0.14953273 -0.35638624
v 0.89030096 0.17210998 -0.15593886
v 0.81445656 0.17034160 -3.8732548e-2
v 0.72499200 0.16966870 2.3732948e-3
v 0.63552744 0.17034160 -3.8732548e-2
v 0.55968304 0.17210998 -0.15593886
v 0.50900544 0.14953273 -0.35638624
v 0.49120983 0.11209183 -0.60355866
v 0.50900544 7.1652174e-2 -0.85370746
v 0.55968304 1.9693055e-2 -1.08331760
v 0.63552744 -2.5876775e-2 -1.24750913
v 0.72499200 -5.2631006e-2 -1.31583758
v 0.81445656 -2.5876775e-2 -1.24750913
v 0.89030096 1.9693055e-2 -1.08331760
v 0.94097856 7.1652174e-2 -0.85370746
v 0.97803600 -0.17308162 -0.66098668
v 0.95877417 -0.12220431 -0.38317481
v 0.90392113 -0.10524506 -0.17363456
v 0.82182775 -0.10899918 -4.8597670e-2
v 0.72499200 -0.11041902 -4.7913687e-3
v 0.62815625 -0.10899918 -4.8597670e-2
v 0.54606287 -0.10524506 -0.17363456
v 0.49120983 -0.12220431 -0.38317481
v 0.47194800 -0.17308162 -0.66098668
v 0.49120983 -0.23396767 -0.94873265
v 0.54606287 -0.28248327 -1.18959394
v 0.62815625 -0.32500967 -1.36056623
v 0.72499200 -0.32500967 -1.40578179
v 0.82182775 -0.32500967 -1.36056623
v 0.90392113 -0.28248327 -1.18959394
v 0.95877417 -0.23396767 -0.94873265
v 0.72499200 0.53845365 -0.54432789
vn 0.67700076 0.73007071 -9.3095302e-2
vn 0.65129915 0.75769924 4.1246613e-2
vn 0.53027299 0.82886396 0.17831179
vn 0.30015828 0.90686542 0.29580419
vn 2.9029445e-17 0.93939131 0.34284686
vn -0.30015828 0.90686542 0.29580419
vn -0.53027299 0.82886396 0.17831179
vn -0.65129915 0.75769924 4.1246613e-2
vn -0.67700076 0.73007071 -9.3095302e-2
vn -0.62594136 0.74751235 -0.22231217
vn -0.50202568 0.79598227 -0.33820473
vn -0.29592105 0.85244290 -0.43101256
vn 3.5756588e-17 0.88201370 -0.47122377
vn 0.29592105 0.85244290 -0.43101256
vn 0.50202568 0.79598227 -0.33820473
vn 0.62594136 0.74751235 -0.22231217
vn 0.92829216 0.36881809 -4.7401327e-2
vn 0.91689501 0.38232088 0.11460490
vn 0.82578185 0.46086371 0.32509841
vn 0.54861146 0.59190232 0.59048887
vn 1.3608131e-16 0.67317096 0.73948689
vn -0.54861146 0.59190232 0.59048887
vn -0.82578185 0.46086371 0.32509841
vn -0.91689501 0.38232088 0.11460490
vn -0.92829216 0.36881809 -4.7401327e-2
vn -0.89088884 0.40531765 -0.20502362
vn -0.78484592 0.49013837 -0.37918500
vn -0.52184830 0.62278116 -0.58293909
vn -1.3305323e-16 0.71090279 -0.70329028
vn 0.52184830 0.62278116 -0.58293909
vn 0.78484592 0.49013837 -0.37918500
vn 0.89088884 0.40531765 -0.20502362
vn 0.98782029 0.15399539 -2.2282161e-2
vn 0.97907123 0.14517765 0.14262879
vn 0.90825908 0.16100573 0.38618986
vn 0.64542285 0.19825877 0.73764680
vn -4.6859688e-17 0.22998253 0.97319476
vn -0.64542285 0.19825877 0.73764680
vn -0.90825908 0.16100573 0.38618986
vn -0.97907123 0.14517765 0.14262879
vn -0.98782029 0.15399539 -2.2282161e-2
vn -0.96535536 0.19113001 -0.17764672
vn -0.89272665 0.26187708 -0.36668723
vn -0.65222149 0.38423107 -0.65343218
vn -1.7073839e-16 0.48445785 -0.87481461
vn 0.65222149 0.38423107 -0.65343218
vn 0.89272665 0.26187708 -0.36668723
vn 0.96535536 0.19113001 -0.17764672
vn 0.91842311 -0.39020502 6.5107867e-2
vn 0.88934590 -0.40447125 0.21322963
vn 0.80192844 -0.42014159 0.42472558
vn 0.54911593 -0.44020462 0.71041649
vn -1.1057655e-16 -0.46109082 0.88735295
vn -0.54911593 -0.44020462 0.71041649
vn -0.80192844 -0.42014159 0.42472558
vn -0.88934590 -0.40447125 0.21322963
vn -0.91842311 -0.39020502 6.5107867e-2
vn -0.92724592 -0.36636551 -7.7403645e-2
vn -0.90655171 -0.32659101 -0.26739915
vn -0.73449622 -0.26877511 -0.62311736
vn -1.5959080e-16 -0.24713846 -0.96898018
vn 0.73449622 -0.26877511 -0.62311736
vn 0.90655171 -0.32659101 -0.26739915
vn 0.92724592 -0.36636551 -7.7403645e-2
vn -1.2896675e-16 0.99328378 -0.11570364
g sphere6_cut7_default
usemtl default
f 326//414 342//430 357//445 341//429
f 326//414 390//478 327//415
f 327//415 343//431 342//430 326//414
f 327//415 390//478 328//416
f 328//416 344//432 343//431 327//415
f 328//416 390//478 329//417
f 329//417 345//433 344//432 328//416
f 329//417 390//478 330//418
f 330//418 346//434 345//433 329//417
f 330//418 390//478 331//419
f 331//419 347//435 346//434 330//418
f 331//419 390//478 332//420
f 332//420 348//436 347//435 331//419
f 332//420 390//478 333//421
f 333//421 349//437 348//436 332//420
f 333//421 390//478 334//422
f 334//422 350//438 349//437 333//421
f 334//422 390//478 335//423
f 335//423 351//439 350//438 334//422
f 335//423 390//478 336//424
f 336//424 352//440 351//439 335//423
f 336//424 390//478 337//425
f 337//425 353//441 352//440 336//424
f 337//425 390//478 338//426
f 338//426 354//442 353//441 337//425
f 338//426 390//478 339//427
f 339//427 355//443 354//442 338//426
f 339//427 390//478 340//428
f 340//428 356//444 355//443 339//427
f 340//428 390//478 341//429
f 341//429 357//445 356//444 340//428
f 341//429 390//478 326//414
f 342//430 358//446 373//461 357//445
f 343//431 359//447 358//446 342//430
f 344//432 360//448 359//447 343//431
f 345//433 361//449 360//448 344//432
f 346//434 362//450 361//449 345//433
f 347//435 363//451 362//450 346//434
f 348//436 364//452 363//451 347//435
f 349//437 365//453 364//452 348//436
f 350//438 366//454 365//453 349//437
f 351//439 367//455 366//454 350//438
f 352//440 368//456 367//455 351//439
f 353//441 369//457 368//456 352//440
f 354//442 370//458 369//457 353//441
f 355//443 371//459 370//458 354//442
f 356//444 372//460 371//459 355//443
f 357//445 373//461 372//460 356//444
f 358//446 374//462 389//477 373//461
f 359//447 375//463 374//462 358//446
f 360//448 376//464 375//463 359//447
f 361//449 377//465 376//464 360//448
f 362//450 378//466 377//465 361//449
f 363//451 379//467 378//466 362//450
f 364//452 380//468 379//467 363//451
f 365//453 381//469 380//468 364//452
f 366//454 382//470 381//469 365//453
f 367//455 383//471 382//470 366//454
f 368//456 384//472 383//471 367//455
f 369//457 385//473 384//472 368//456
f 370//458 386//474 385//473 369//457
f 371//459 387//475 386//474 370//458
f 372//460 388//476 387//475 371//459
f 373//461 389//477 388//476 372//460
f 375//463 376//464 377//465 378//466 379//467 380//468 381//469 382//470 383//471 384//472 385//473 386//474 387//475 388//476 389//477 374//462
o sphere3
#26 vertices, 32 faces
v 0.25031580 0.65496456 -1.07632640
v 0.17700000 0.65496456 -0.89932640
v -6.3297730e-17 0.65496456 -0.82601060
v -0.17700000 0.65496456 -0.89932640
v -0.25031580 0.65496456 -1.07632640
v -0.17700000 0.65496456 -1.25332640
v -1.2460539e-16 0.65496456 -1.32664220
v 0.17700000 0.65496456 -1.25332640
v 0.35400000 0.40464876 -1.07632640
v 0.25031580 0.40464876 -0.82601060
v -5.6949113e-17 0.40464876 -0.72232640
v -0.25031580 0.40464876 -0.82601060
v -0.35400000 0.40464876 -1.07632640
v -0.25031580 0.40464876 -1.32664220
v -1.4365124e-16 0.40464876 -1.43032640
v 0.25031580 0.40464876 -1.32664220
v 0.25031580 0.15433296 -1.07632640
v 0.17700000 0.15433296 -0.89932640
v -6.3297730e-17 0.15433296 -0.82601060
v -0.17700000 0.15433296 -0.89932640
v -0.25031580 0.15433296 -1.07632640
v -0.17700000 0.15433296 -1.25332640
v -1.2460539e-16 0.15433296 -1.32664220
v 0.17700000 0.15433296 -1.25332640
v -7.8624646e-17 0.75864876 -1.07632640
v -7.8624646e-17 5.0648758e-2 -1.07632640
vn 0.69887193 0.71524683 2.5012597e-16
vn 0.49417708 0.71524683 0.49417708
vn 0.0000000e+0 0.71524683 0.69887193
vn -0.49417708 0.71524683 0.49417708
vn -0.69887193 0.71524683 6.2531494e-17
vn -0.49417708 0.71524683 -0.49417708
vn -5.4715057e-16 0.71524683 -0.69887193
vn 0.49417708 0.71524683 -0.49417708
vn 1.00000000 -1.1258482e-16 1.7691901e-16
vn 0.70710678 -1.9300256e-16 0.70710678
vn -1.6083546e-17 -1.1258482e-16 1.00000000
vn -0.70710678 -6.4334185e-17 0.70710678
vn -1.00000000 -1.1258482e-16 2.7342029e-16
vn -0.70710678 9.6501278e-17 -0.70710678
vn -4.8250639e-16 -1.6083546e-17 -1.00000000
vn 0.70710678 -1.9300256e-16 -0.70710678
vn 0.69887193 -0.71524683 1.5632873e-16
vn 0.49417708 -0.71524683 0.49417708
vn -1.5632873e-17 -0.71524683 0.69887193
vn -0.49417708 -0.71524683 0.49417708
vn -0.69887193 -0.71524683 2.0322735e-16
vn -0.49417708 -0.71524683 -0.49417708
vn -3.9082184e-16 -0.71524683 -0.69887193
vn 0.49417708 -0.71524683 -0.49417708
vn -6.0835008e-17 1.00000000 9.5054700e-17
vn -9.1252512e-17 -1.00000000 6.8439384e-17
g sphere3_default
usemtl default
f 391//479 399//487 406//494 398//486
f 391//479 415//503 392//480
f 392//480 400//488 399//487 391//479
f 392//480 415//503 393//481
f 393//481 401//489 400//488 392//480
f 393//481 415//503 394//482
f 394//482 402//490 401//489 393//481
f 394//482 415//503 395//483
f 395//483 403//491 402//490 394//482
f 395//483 415//503 396//484
f 396//484 404//492 403//491 395//483
f 396//484 415//503 397//485
f 397//485 405//493 404//492 396//484
f 397//485 415//503 398//486
f 398//486 406//494 405//493 397//485
f 398//486 415//503 391//479
f 399//487 407//495 414//502 406//494
f 400//488 408//496 407//495 399//487
f 401//489 409//497 408//496 400//488
f 402//490 410//498 409//497 401//489
f 403//491 411//499 410//498 402//490
f 404//492 412//500 411//499 403//491
f 405//493 413//501 412//500 404//492
f 406//494 414//502 413//501 405//493
f 407//495 416//504 414//502
f 408//496 416//504 407//495
f 409//497 416//504 408//496
f 410//498 416//504 409//497
f 411//499 416//504 410//498
f 412//500 416//504 411//499
f 413//501 416//504 412//500
f 414//502 416//504 413//501
o sphere2
#114 vertices, 128 faces
v 0.38268343 1.92408385 -7.7084278e-4
v 0.35355339 1.92408385 0.14567577
v 0.27059805 1.92408385 0.26982721
v 0.14644661 1.92408385 0.35278255
v -9.8981608e-17 1.92408385 0.38191259
v -0.14644661 1.92408385 0.35278255
v -0.27059805 1.92408385 0.26982721
v -0.35355339 1.92408385 0.14567577
v -0.38268343 1.92408385 -7.7084278e-4
v -0.35355339 1.92408385 -0.14721745
v -0.27059805 1.92408385 -0.27136889
v -0.14644661 1.92408385 -0.35432423
v -1.9270892e-16 1.92408385 -0.38345428
v 0.14644661 1.92408385 -0.35432423
v 0.27059805 1.92408385 -0.27136889
v 0.35355339 1.92408385 -0.14721745
v 0.70710678 1.70731109 -7.7084278e-4
v 0.65328148 1.70731109 0.26982721
v 0.50000000 1.70731109 0.49922916
v 0.27059805 1.70731109 0.65251064
v -7.9117064e-17 1.70731109 0.70633594
v -0.27059805 1.70731109 0.65251064
v -0.50000000 1.70731109 0.49922916
v -0.65328148 1.70731109 0.26982721
v -0.70710678 1.70731109 -7.7084278e-4
v -0.65328148 1.70731109 -0.27136889
v -0.50000000 1.70731109 -0.50077084
v -0.27059805 1.70731109 -0.65405233
v -2.5230255e-16 1.70731109 -0.70787762
v 0.27059805 1.70731109 -0.65405233
v 0.50000000 1.70731109 -0.50077084
v 0.65328148 1.70731109 -0.27136889
v 0.92387953 1.38288775 -7.7084278e-4
v 0.85355339 1.38288775 0.35278255
v 0.65328148 1.38288775 0.65251064
v 0.35355339 1.38288775 0.85278255
v -6.5843999e-17 1.38288775 0.92310869
v -0.35355339 1.38288775 0.85278255
v -0.65328148 1.38288775 0.65251064
v -0.85355339 1.38288775 0.35278255
v -0.92387953 1.38288775 -7.7084278e-4
v -0.85355339 1.38288775 -0.35432423
v -0.65328148 1.38288775 -0.65405233
v -0.35355339 1.38288775 -0.85432423
v -2.9212175e-16 1.38288775 -0.92465038
v 0.35355339 1.38288775 -0.85432423
v 0.65328148 1.38288775 -0.65405233
v 0.85355339 1.38288775 -0.35432423
v 1.00000000 1.00020431 -7.7084278e-4
v 0.92387953 1.00020431 0.38191259
v 0.70710678 1.00020431 0.70633594
v 0.38268343 1.00020431 0.92310869
v -6.1183119e-17 1.00020431 0.99922916
v -0.38268343 1.00020431 0.92310869
v -0.70710678 1.00020431 0.70633594
v -0.92387953 1.00020431 0.38191259
v -1.00000000 1.00020431 -7.7084278e-4
v -0.92387953 1.00020431 -0.38345428
v -0.70710678 1.00020431 -0.70787762
v -0.38268343 1.00020431 -0.92465038
v -3.0610439e-16 1.00020431 -1.00077084
v 0.38268343 1.00020431 -0.92465038
v 0.70710678 1.00020431 -0.70787762
v 0.92387953 1.00020431 -0.38345428
v 0.92387953 0.61752088 -7.7084278e-4
v 0.85355339 0.61752088 0.35278255
v 0.65328148 0.61752088 0.65251064
v 0.35355339 0.61752088 0.85278255
v -6.5843999e-17 0.61752088 0.92310869
v -0.35355339 0.61752088 0.85278255
v -0.65328148 0.61752088 0.65251064
v -0.85355339 0.61752088 0.35278255
v -0.92387953 0.61752088 -7.7084278e-4
v -0.85355339 0.61752088 -0.35432423
v -0.65328148 0.61752088 -0.65405233
v -0.35355339 0.61752088 -0.85432423
v -2.9212175e-16 0.61752088 -0.92465038
v 0.35355339 0.61752088 -0.85432423
v 0.65328148 0.61752088 -0.65405233
v 0.85355339 0.61752088 -0.35432423
v 0.70710678 0.29309753 -7.7084278e-4
v 0.65328148 0.29309753 0.26982721
v 0.50000000 0.29309753 0.49922916
v 0.27059805 0.29309753 0.65251064
v -7.9117064e-17 0.29309753 0.70633594
v -0.27059805 0.29309753 0.65251064
v -0.50000000 0.29309753 0.49922916
v -0.65328148 0.29309753 0.26982721
v -0.70710678 0.29309753 -7.7084278e-4
v -0.65328148 0.29309753 -0.27136889
v -0.50000000 0.29309753 -0.50077084
v -0.27059805 0.29309753 -0.65405233
v -2.5230255e-16 0.29309753 -0.70787762
v 0.27059805 0.29309753 -0.65405233
v 0.50000000 0.29309753 -0.50077084
v 0.65328148 0.29309753 -0.27136889
v 0.38268343 7.6324781e-2 -7.7084278e-4
v 0.35355339 7.6324781e-2 0.14567577
v 0.27059805 7.6324781e-2 0.26982721
v 0.14644661 7.6324781e-2 0.35278255
v -9.8981608e-17 7.6324781e-2 0.38191259
v -0.14644661 7.6324781e-2 0.35278255
v -0.27059805 7.6324781e-2 0.26982721
v -0.35355339 7.6324781e-2 0.14567577
v -0.38268343 7.6324781e-2 -7.7084278e-4
v -0.35355339 7.6324781e-2 -0.14721745
v -0.27059805 7.6324781e-2 -0.27136889
v -0.14644661 7.6324781e-2 -0.35432423
v -1.9270892e-16 7.6324781e-2 -0.38345428
v 0.14644661 7.6324781e-2 -0.35432423
v 0.27059805 7.6324781e-2 -0.27136889
v 0.35355339 7.6324781e-2 -0.14721745
v -1.2241344e-16 2.00020431 -7.7084278e-4
v -1.2241344e-16 2.0431325e-4 -7.7084278e-4
vn 0.38219484 0.92408176 -1.0648471e-17
vn 0.35310199 0.92408176 0.14625963
vn 0.27025256 0.92408176 0.27025256
vn 0.14625963 0.92408176 0.35310199
vn 1.7037554e-16 0.92408176 0.38219484
vn -0.14625963 0.92408176 0.35310199
vn -0.27025256 0.92408176 0.27025256
vn -0.35310199 0.92408176 0.14625963
vn -0.38219484 0.92408176 -3.5494904e-18
vn -0.35310199 0.92408176 -0.14625963
vn -0.27025256 0.92408176 -0.27025256
vn -0.14625963 0.92408176 -0.35310199
vn 7.0989809e-18 0.92408176 -0.38219484
vn 0.14625963 0.92408176 -0.35310199
vn 0.27025256 0.92408176 -0.27025256
vn 0.35310199 0.92408176 -0.14625963
vn 0.70658450 0.70762868 -5.0010264e-17
vn 0.65279895 0.70762868 0.27039818
vn 0.49963069 0.70762868 0.49963069
vn 0.27039818 0.70762868 0.65279895
vn 2.3576268e-16 0.70762868 0.70658450
vn -0.27039818 0.70762868 0.65279895
vn -0.49963069 0.70762868 0.49963069
vn -0.65279895 0.70762868 0.27039818
vn -0.70658450 0.70762868 1.4288647e-17
vn -0.65279895 0.70762868 -0.27039818
vn -0.49963069 0.70762868 -0.49963069
vn -0.27039818 0.70762868 -0.65279895
vn 7.1443235e-18 0.70762868 -0.70658450
vn 0.27039818 0.70762868 -0.65279895
vn 0.49963069 0.70762868 -0.49963069
vn 0.65279895 0.70762868 -0.27039818
vn 0.92368212 0.38315969 -1.7254869e-16
vn 0.85337100 0.38315969 0.35347784
vn 0.65314189 0.38315969 0.65314189
vn 0.35347784 0.38315969 0.85337100
vn 7.1895288e-17 0.38315969 0.92368212
vn -0.35347784 0.38315969 0.85337100
vn -0.65314189 0.38315969 0.65314189
vn -0.85337100 0.38315969 0.35347784
vn -0.92368212 0.38315969 5.0326702e-17
vn -0.85337100 0.38315969 -0.35347784
vn -0.65314189 0.38315969 -0.65314189
vn -0.35347784 0.38315969 -0.85337100
vn 0.0000000e+0 0.38315969 -0.92368212
vn 0.35347784 0.38315969 -0.85337100
vn 0.65314189 0.38315969 -0.65314189
vn 0.85337100 0.38315969 -0.35347784
vn 1.00000000 1.4416425e-17 -2.2345459e-16
vn 0.92387953 2.8832850e-17 0.38268343
vn 0.70710678 7.2082126e-17 0.70710678
vn 0.38268343 4.3249275e-17 0.92387953
vn 1.4416425e-17 7.2082126e-18 1.00000000
vn -0.38268343 5.0457488e-17 0.92387953
vn -0.70710678 6.4873913e-17 0.70710678
vn -0.92387953 7.2082126e-18 0.38268343
vn -1.00000000 2.1624638e-17 1.0091498e-16
vn -0.92387953 5.7665700e-17 -0.38268343
vn -0.70710678 1.0091498e-16 -0.70710678
vn -0.38268343 -3.6041063e-17 -0.92387953
vn 0.0000000e+0 0.0000000e+0 -1.00000000
vn 0.38268343 1.0091498e-16 -0.92387953
vn 0.70710678 0.0000000e+0 -0.70710678
vn 0.92387953 0.0000000e+0 -0.38268343
vn 0.92368212 -0.38315969 -1.8692775e-16
vn 0.85337100 -0.38315969 0.35347784
vn 0.65314189 -0.38315969 0.65314189
vn 0.35347784 -0.38315969 0.85337100
vn 7.1895288e-18 -0.38315969 0.92368212
vn -0.35347784 -0.38315969 0.85337100
vn -0.65314189 -0.38315969 0.65314189
vn -0.85337100 -0.38315969 0.35347784
vn -0.92368212 -0.38315969 1.2941152e-16
vn -0.85337100 -0.38315969 -0.35347784
vn -0.65314189 -0.38315969 -0.65314189
vn -0.35347784 -0.38315969 -0.85337100
vn 0.0000000e+0 -0.38315969 -0.92368212
vn 0.35347784 -0.38315969 -0.85337100
vn 0.65314189 -0.38315969 -0.65314189
vn 0.85337100 -0.38315969 -0.35347784
vn 0.70658450 -0.70762868 -1.4645863e-16
vn 0.65279895 -0.70762868 0.27039818
vn 0.49963069 -0.70762868 0.49963069
vn 0.27039818 -0.70762868 0.65279895
vn 0.0000000e+0 -0.70762868 0.70658450
vn -0.27039818 -0.70762868 0.65279895
vn -0.49963069 -0.70762868 0.49963069
vn -0.65279895 -0.70762868 0.27039818
vn -0.70658450 -0.70762868 4.2865941e-17
vn -0.65279895 -0.70762868 -0.27039818
vn -0.49963069 -0.70762868 -0.49963069
vn -0.27039818 -0.70762868 -0.65279895
vn -8.5731882e-17 -0.70762868 -0.70658450
vn 0.27039818 -0.70762868 -0.65279895
vn 0.49963069 -0.70762868 -0.49963069
vn 0.65279895 -0.70762868 -0.27039818
vn 0.38219484 -0.92408176 -9.2286751e-17
vn 0.35310199 -0.92408176 0.14625963
vn 0.27025256 -0.92408176 0.27025256
vn 0.14625963 -0.92408176 0.35310199
vn 0.0000000e+0 -0.92408176 0.38219484
vn -0.14625963 -0.92408176 0.35310199
vn -0.27025256 -0.92408176 0.27025256
vn -0.35310199 -0.92408176 0.14625963
vn -0.38219484 -0.92408176 -3.9044395e-17
vn -0.35310199 -0.92408176 -0.14625963
vn -0.27025256 -0.92408176 -0.27025256
vn -0.14625963 -0.92408176 -0.35310199
vn -1.6327656e-16 -0.92408176 -0.38219484
vn 0.14625963 -0.92408176 -0.35310199
vn 0.27025256 -0.92408176 -0.27025256
vn 0.35310199 -0.92408176 -0.14625963
vn 1.2390280e-17 1.00000000 -1.6372870e-17
vn -8.8501998e-18 -1.00000000 1.1062750e-17
g sphere2_default
usemtl default
f 417//505 433//521 448//536 432//520
f 417//505 529//617 418//506
f 418//506 434//522 433//521 417//505
f 418//506 529//617 419//507
f 419//507 435//523 434//522 418//506
f 419//507 529//617 420//508
f 420//508 436//524 435//523 419//507
f 420//508 529//617 421//509
f 421//509 437//525 436//524 420//508
f 421//509 529//617 422//510
f 422//510 438//526 437//525 421//509
f 422//510 529//617 423//511
f 423//511 439//527 438//526 422//510
f 423//511 529//617 424//512
f 424//512 440//528 439//527 423//511
f 424//512 529//617 425//513
f 425//513 441//529 440//528 424//512
f 425//513 529//617 426//514
f 426//514 442//530 441//529 425//513
f 426//514 529//617 427//515
f 427//515 443//531 442//530 426//514
f 427//515 529//617 428//516
f 428//516 444//532 443//531 427//515
f 428//516 529//617 429//517
f 429//517 445//533 444//532 428//516
f 429//517 529//617 430//518
f 430//518 446//534 445//533 429//517
f 430//518 529//617 431//519
f 431//519 447//535 446//534 430//518
f 431//519 529//617 432//520
f 432//520 448//536 447//535 431//519
f 432//520 529//617 417//505
f 433//521 449//537 464//552 448//536
f 434//522 450//538 449//537 433//521
f 435//523 451//539 450//538 434//522
f 436//524 452//540 451//539 435//523
f 437//525 453//541 452//540 436//524
f 438//526 454//542 453//541 437//525
f 439//527 455//543 454//542 438//526
f 440//528 456//544 455//543 439//527
f 441//529 457//545 456//544 440//528
f 442//530 458//546 457//545 441//529
f 443//531 459//547 458//546 442//530
f 444//532 460//548 459//547 443//531
f 445//533 461//549 460//548 444//532
f 446//534 462//550 461//549 445//533
f 447//535 463//551 462//550 446//534
f 448//536 464//552 463//551 447//535
f 449//537 465//553 480//568 464//552
f 450//538 466//554 465//553 449//537
f 451//539 467//555 466//554 450//538
f 452//540 468//556 467//555 451//539
f 453//541 469//557 468//556 452//540
f 454//542 470//558 469//557 453//541
f 455//543 471//559 470//558 454//542
f 456//544 472//560 471//559 455//543
f 457//545 473//561 472//560 456//544
f 458//546 474//562 473//561 457//545
f 459//547 475//563 474//562 458//546
f 460//548 476//564 475//563 459//547
f 461//549 477//565 476//564 460//548
f 462//550 478//566 477//565 461//549
f 463//551 479//567 478//566 462//550
f 464//552 480//568 479//567 463//551
f 465//553 481//569 496//584 480//568
f 466//554 482//570 481//569 465//553
f 467//555 483//571 482//570 466//554
f 468//556 484//572 483//571 467//555
f 469//557 485//573 484//572 468//556
f 470//558 486//574 485//573 469//557
f 471//559 487//575 486//574 470//558
f 472//560 488//576 487//575 471//559
f 473//561 489//577 488//576 472//560
f 474//562 490//578 489//577 473//561
f 475//563 491//579 490//578 474//562
f 476//564 492//580 491//579 475//563
f 477//565 493//581 492//580 476//564
f 478//566 494//582 493//581 477//565
f 479//567 495//583 494//582 478//566
f 480//568 496//584 495//583 479//567
f 481//569 497//585 512//600 496//584
f 482//570 498//586 497//585 481//569
f 483//571 499//587 498//586 482//570
f 484//572 500//588 499//587 483//571
f 485//573 501//589 500//588 484//572
f 486//574 502//590 501//589 485//573
f 487//575 503//591 502//590 486//574
f 488//576 504//592 503//591 487//575
f 489//577 505//593 504//592 488//576
f 490//578 506//594 505//593 489//577
f 491//579 507//595 506//594 490//578
f 492//580 508//596 507//595 491//579
f 493//581 509//597 508//596 492//580
f 494//582 510//598 509//597 493//581
f 495//583 511//599 510//598 494//582
f 496//584 512//600 511//599 495//583
f 497//585 513//601 528//616 512//600
f 498//586 514//602 513//601 497//585
f 499//587 515//603 514//602 498//586
f 500//588 516//604 515//603 499//587
f 501//589 517//605 516//604 500//588
f 502//590 518//606 517//605 501//589
f 503//591 519//607 518//606 502//590
f 504//592 520//608 519//607 503//591
f 505//593 521//609 520//608 504//592
f 506//594 522//610 521//609 505//593
f 507//595 523//611 522//610 506//594
f 508//596 524//612 523//611 507//595
f 509//597 525//613 524//612 508//596
f 510//598 526//614 525//613 509//597
f 511//599 527//615 526//614 510//598
f 512//600 528//616 527//615 511//599
f 513//601 530//618 528//616
f 514//602 530//618 513//601
f 515//603 530//618 514//602
f 516//604 530//618 515//603
f 517//605 530//618 516//604
f 518//606 530//618 517//605
f 519//607 530//618 518//606
f 520//608 530//618 519//607
f 521//609 530//618 520//608
f 522//610 530//618 521//609
f 523//611 530//618 522//610
f 524//612 530//618 523//611
f 525//613 530//618 524//612
f 526//614 530//618 525//613
f 527//615 530//618 526//614
f 528//616 530//618 527//615
o sphere1
#114 vertices, 128 faces
v 0.28854331 2.81503170 0.95567360
v 0.26657926 2.81503170 1.06609435
v 0.20403093 2.81503170 1.15970453
v 0.11042074 2.81503170 1.22225286
v -1.7464600e-16 2.81503170 1.24421691
v -0.11042074 2.81503170 1.22225286
v -0.20403093 2.81503170 1.15970453
v -0.26657926 2.81503170 1.06609435
v -0.28854331 2.81503170 0.95567360
v -0.26657926 2.81503170 0.84525286
v -0.20403093 2.81503170 0.75164267
v -0.11042074 2.81503170 0.68909435
v -2.4531640e-16 2.81503170 0.66713029
v 0.11042074 2.81503170 0.68909435
v 0.20403093 2.81503170 0.75164267
v 0.26657926 2.81503170 0.84525286
v 0.53315851 2.65158505 0.95567360
v 0.49257424 2.65158505 1.15970453
v 0.37700000 2.65158505 1.33267360
v 0.20403093 2.65158505 1.44824784
v -1.5966814e-16 2.65158505 1.48883211
v -0.20403093 2.65158505 1.44824784
v -0.37700000 2.65158505 1.33267360
v -0.49257424 2.65158505 1.15970453
v -0.53315851 2.65158505 0.95567360
v -0.49257424 2.65158505 0.75164267
v -0.37700000 2.65158505 0.57867360
v -0.20403093 2.65158505 0.46309936
v -2.9025000e-16 2.65158505 0.42251509
v 0.20403093 2.65158505 0.46309936
v 0.37700000 2.65158505 0.57867360
v 0.49257424 2.65158505 0.75164267
v 0.69660517 2.40696984 0.95567360
v 0.64357926 2.40696984 1.22225286
v 0.49257424 2.40696984 1.44824784
v 0.26657926 2.40696984 1.59925286
v -1.4966025e-16 2.40696984 1.65227877
v -0.26657926 2.40696984 1.59925286
v -0.49257424 2.40696984 1.44824784
v -0.64357926 2.40696984 1.22225286
v -0.69660517 2.40696984 0.95567360
v -0.64357926 2.40696984 0.68909435
v -0.49257424 2.40696984 0.46309936
v -0.26657926 2.40696984 0.31209435
v -3.2027367e-16 2.40696984 0.25906843
v 0.26657926 2.40696984 0.31209435
v 0.49257424 2.40696984 0.46309936
v 0.64357926 2.40696984 0.68909435
v 0.75400000 2.11842654 0.95567360
v 0.69660517 2.11842654 1.24421691
v 0.53315851 2.11842654 1.48883211
v 0.28854331 2.11842654 1.65227877
v -1.4614594e-16 2.11842654 1.70967360
v -0.28854331 2.11842654 1.65227877
v -0.53315851 2.11842654 1.48883211
v -0.69660517 2.11842654 1.24421691
v -0.75400000 2.11842654 0.95567360
v -0.69660517 2.11842654 0.66713029
v -0.53315851 2.11842654 0.42251509
v -0.28854331 2.11842654 0.25906843
v -3.3081658e-16 2.11842654 0.20167360
v 0.28854331 2.11842654 0.25906843
v 0.53315851 2.11842654 0.42251509
v 0.69660517 2.11842654 0.66713029
v 0.69660517 1.82988323 0.95567360
v 0.64357926 1.82988323 1.22225286
v 0.49257424 1.82988323 1.44824784
v 0.26657926 1.82988323 1.59925286
v -1.4966025e-16 1.82988323 1.65227877
v -0.26657926 1.82988323 1.59925286
v -0.49257424 1.82988323 1.44824784
v -0.64357926 1.82988323 1.22225286
v -0.69660517 1.82988323 0.95567360
v -0.64357926 1.82988323 0.68909435
v -0.49257424 1.82988323 0.46309936
v -0.26657926 1.82988323 0.31209435
v -3.2027367e-16 1.82988323 0.25906843
v 0.26657926 1.82988323 0.31209435
v 0.49257424 1.82988323 0.46309936
v 0.64357926 1.82988323 0.68909435
v 0.53315851 1.58526802 0.95567360
v 0.49257424 1.58526802 1.15970453
v 0.37700000 1.58526802 1.33267360
v 0.20403093 1.58526802 1.44824784
v -1.5966814e-16 1.58526802 1.48883211
v -0.20403093 1.58526802 1.44824784
v -0.37700000 1.58526802 1.33267360
v -0.49257424 1.58526802 1.15970453
v -0.53315851 1.58526802 0.95567360
v -0.49257424 1.58526802 0.75164267
v -0.37700000 1.58526802 0.57867360
v -0.20403093 1.58526802 0.46309936
v -2.9025000e-16 1.58526802 0.42251509
v 0.20403093 1.58526802 0.46309936
v 0.37700000 1.58526802 0.57867360
v 0.49257424 1.58526802 0.75164267
v 0.28854331 1.42182137 0.95567360
v 0.26657926 1.42182137 1.06609435
v 0.20403093 1.42182137 1.15970453
v 0.11042074 1.42182137 1.22225286
v -1.7464600e-16 1.42182137 1.24421691
v -0.11042074 1.42182137 1.22225286
v -0.20403093 1.42182137 1.15970453
v -0.26657926 1.42182137 1.06609435
v -0.28854331 1.42182137 0.95567360
v -0.26657926 1.42182137 0.84525286
v -0.20403093 1.42182137 0.75164267
v -0.11042074 1.42182137 0.68909435
v -2.4531640e-16 1.42182137 0.66713029
v 0.11042074 1.42182137 0.68909435
v 0.20403093 1.42182137 0.75164267
v 0.26657926 1.42182137 0.84525286
v -1.9231360e-16 2.87242654 0.95567360
v -1.9231360e-16 1.36442654 0.95567360
vn 0.38219484 0.92408176 8.4832821e-16
vn 0.35310199 0.92408176 0.14625963
vn 0.27025256 0.92408176 0.27025256
vn 0.14625963 0.92408176 0.35310199
vn -1.0648471e-17 0.92408176 0.38219484
vn -0.14625963 0.92408176 0.35310199
vn -0.27025256 0.92408176 0.27025256
vn -0.35310199 0.92408176 0.14625963
vn -0.38219484 0.92408176 4.2593885e-17
vn -0.35310199 0.92408176 -0.14625963
vn -0.27025256 0.92408176 -0.27025256
vn -0.14625963 0.92408176 -0.35310199
vn -3.5494904e-18 0.92408176 -0.38219484
vn 0.14625963 0.92408176 -0.35310199
vn 0.27025256 0.92408176 -0.27025256
vn 0.35310199 0.92408176 -0.14625963
vn 0.70658450 0.70762868 0.0000000e+0
vn 0.65279895 0.70762868 0.27039818
vn 0.49963069 0.70762868 0.49963069
vn 0.27039818 0.70762868 0.65279895
vn -1.2859782e-16 0.70762868 0.70658450
vn -0.27039818 0.70762868 0.65279895
vn -0.49963069 0.70762868 0.49963069
vn -0.65279895 0.70762868 0.27039818
vn -0.70658450 0.70762868 1.1430918e-16
vn -0.65279895 0.70762868 -0.27039818
vn -0.49963069 0.70762868 -0.49963069
vn -0.27039818 0.70762868 -0.65279895
vn -2.1432970e-17 0.70762868 -0.70658450
vn 0.27039818 0.70762868 -0.65279895
vn 0.49963069 0.70762868 -0.49963069
vn 0.65279895 0.70762868 -0.27039818
vn 0.92368212 0.38315969 -7.1895288e-17
vn 0.85337100 0.38315969 0.35347784
vn 0.65314189 0.38315969 0.65314189
vn 0.35347784 0.38315969 0.85337100
vn -1.3660105e-16 0.38315969 0.92368212
vn -0.35347784 0.38315969 0.85337100
vn -0.65314189 0.38315969 0.65314189
vn -0.85337100 0.38315969 0.35347784
vn -0.92368212 0.38315969 1.7254869e-16
vn -0.85337100 0.38315969 -0.35347784
vn -0.65314189 0.38315969 -0.65314189
vn -0.35347784 0.38315969 -0.85337100
vn -4.3137173e-17 0.38315969 -0.92368212
vn 0.35347784 0.38315969 -0.85337100
vn 0.65314189 0.38315969 -0.65314189
vn 0.85337100 0.38315969 -0.35347784
vn 1.00000000 -1.0812319e-16 -2.8832850e-17
vn 0.92387953 -1.0091498e-16 0.38268343
vn 0.70710678 -1.7299710e-16 0.70710678
vn 0.38268343 -1.8020531e-16 0.92387953
vn -4.3249275e-17 -7.9290338e-17 1.00000000
vn -0.38268343 -9.3706763e-17 0.92387953
vn -0.70710678 -1.2974783e-16 0.70710678
vn -0.92387953 -1.2974783e-16 0.38268343
vn -1.00000000 -7.2082126e-17 1.8020531e-16
vn -0.92387953 -8.6498551e-17 -0.38268343
vn -0.70710678 -9.3706763e-17 -0.70710678
vn -0.38268343 -5.0457488e-17 -0.92387953
vn -4.3249275e-17 -8.6498551e-17 -1.00000000
vn 0.38268343 -1.3695604e-16 -0.92387953
vn 0.70710678 -1.2253961e-16 -0.70710678
vn 0.92387953 -8.6498551e-17 -0.38268343
vn 0.92368212 -0.38315969 2.8758115e-17
vn 0.85337100 -0.38315969 0.35347784
vn 0.65314189 -0.38315969 0.65314189
vn 0.35347784 -0.38315969 0.85337100
vn -3.5947644e-17 -0.38315969 0.92368212
vn -0.35347784 -0.38315969 0.85337100
vn -0.65314189 -0.38315969 0.65314189
vn -0.85337100 -0.38315969 0.35347784
vn -0.92368212 -0.38315969 8.6274346e-17
vn -0.85337100 -0.38315969 -0.35347784
vn -0.65314189 -0.38315969 -0.65314189
vn -0.35347784 -0.38315969 -0.85337100
vn -3.5947644e-17 -0.38315969 -0.92368212
vn 0.35347784 -0.38315969 -0.85337100
vn 0.65314189 -0.38315969 -0.65314189
vn 0.85337100 -0.38315969 -0.35347784
vn 0.70658450 -0.70762868 1.0002053e-16
vn 0.65279895 -0.70762868 0.27039818
vn 0.49963069 -0.70762868 0.49963069
vn 0.27039818 -0.70762868 0.65279895
vn -2.5005132e-17 -0.70762868 0.70658450
vn -0.27039818 -0.70762868 0.65279895
vn -0.49963069 -0.70762868 0.49963069
vn -0.65279895 -0.70762868 0.27039818
vn -0.70658450 -0.70762868 1.6431944e-16
vn -0.65279895 -0.70762868 -0.27039818
vn -0.49963069 -0.70762868 -0.49963069
vn -0.27039818 -0.70762868 -0.65279895
vn -4.6438103e-17 -0.70762868 -0.70658450
vn 0.27039818 -0.70762868 -0.65279895
vn 0.49963069 -0.70762868 -0.49963069
vn 0.65279895 -0.70762868 -0.27039818
vn 0.38219484 -0.92408176 -2.6976127e-16
vn 0.35310199 -0.92408176 0.14625963
vn 0.27025256 -0.92408176 0.27025256
vn 0.14625963 -0.92408176 0.35310199
vn -1.0648471e-17 -0.92408176 0.38219484
vn -0.14625963 -0.92408176 0.35310199
vn -0.27025256 -0.92408176 0.27025256
vn -0.35310199 -0.92408176 0.14625963
vn -0.38219484 -0.92408176 5.3597305e-16
vn -0.35310199 -0.92408176 -0.14625963
vn -0.27025256 -0.92408176 -0.27025256
vn -0.14625963 -0.92408176 -0.35310199
vn -2.8395923e-17 -0.92408176 -0.38219484
vn 0.14625963 -0.92408176 -0.35310199
vn 0.27025256 -0.92408176 -0.27025256
vn 0.35310199 -0.92408176 -0.14625963
vn -2.4780559e-17 1.00000000 -2.4780559e-17
vn -3.8940879e-17 -1.00000000 -2.9648169e-17
g sphere1_default
usemtl default
f 531//619 547//635 562//650 546//634
f 531//619 643//731 532//620
f 532//620 548//636 547//635 531//619
f 532//620 643//731 533//621
f 533//621 549//637 548//636 532//620
f 533//621 643//731 534//622
f 534//622 550//638 549//637 533//621
f 534//622 643//731 535//623
f 535//623 551//639 550//638 534//622
f 535//623 643//731 536//624
f 536//624 552//640 551//639 535//623
f 536//624 643//731 537//625
f 537//625 553//641 552//640 536//624
f 537//625 643//731 538//626
f 538//626 554//642 553//641 537//625
f 538//626 643//731 539//627
f 539//627 555//643 554//642 538//626
f 539//627 643//731 540//628
f 540//628 556//644 555//643 539//627
f 540//628 643//731 541//629
f 541//629 557//645 556//644 540//628
f 541//629 643//731 542//630
f 542//630 558//646 557//645 541//629
f 542//630 643//731 543//631
f 543//631 559//647 558//646 542//630
f 543//631 643//731 544//632
f 544//632 560//648 559//647 543//631
f 544//632 643//731 545//633
f 545//633 561//649 560//648 544//632
f 545//633 643//731 546//634
f 546//634 562//650 561//649 545//633
f 546//634 643//731 531//619
f 547//635 563//651 578//666 562//650
f 548//636 564//652 563//651 547//635
f 549//637 565//653 564//652 548//636
f 550//638 566//654 565//653 549//637
f 551//639 567//655 566//654 550//638
f 552//640 568//656 567//655 551//639
f 553//641 569//657 568//656 552//640
f 554//642 570//658 569//657 553//641
f 555//643 571//659 570//658 554//642
f 556//644 572//660 571//659 555//643
f 557//645 573//661 572//660 556//644
f 558//646 574//662 573//661 557//645
f 559//647 575//663 574//662 558//646
f 560//648 576//664 575//663 559//647
f 561//649 577//665 576//664 560//648
f 562//650 578//666 577//665 561//649
f 563//651 579//667 594//682 578//666
f 564//652 580//668 579//667 563//651
f 565//653 581//669 580//668 564//652
f 566//654 582//670 581//669 565//653
f 567//655 583//671 582//670 566//654
f 568//656 584//672 583//671 567//655
f 569//657 585//673 584//672 568//656
f 570//658 586//674 585//673 569//657
f 571//659 587//675 586//674 570//658
f 572//660 588//676 587//675 571//659
f 573//661 589//677 588//676 572//660
f 574//662 590//678 589//677 573//661
f 575//663 591//679 590//678 574//662
f 576//664 592//680 591//679 575//663
f 577//665 593//681 592//680 576//664
f 578//666 594//682 593//681 577//665
f 579//667 595//683 610//698 594//682
f 580//668 596//684 595//683 579//667
f 581//669 597//685 596//684 580//668
f 582//670 598//686 597//685 581//669
f 583//671 599//687 598//686 582//670
f 584//672 600//688 599//687 583//671
f 585//673 601//689 600//688 584//672
f 586//674 602//690 601//689 585//673
f 587//675 603//691 602//690 586//674
f 588//676 604//692 603//691 587//675
f 589//677 605//693 604//692 588//676
f 590//678 606//694 605//693 589//677
f 591//679 607//695 606//694 590//678
f 592//680 608//696 607//695 591//679
f 593//681 609//697 608//696 592//680
f 594//682 610//698 609//697 593//681
f 595//683 611//699 626//714 610//698
f 596//684 612//700 611//699 595//683
f 597//685 613//701 612//700 596//684
f 598//686 614//702 613//701 597//685
f 599//687 615//703 614//702 598//686
f 600//688 616//704 615//703 599//687
f 601//689 617//705 616//704 600//688
f 602//690 618//706 617//705 601//689
f 603//691 619//707 618//706 602//690
f 604//692 620//708 619//707 603//691
f 605//693 621//709 620//708 604//692
f 606//694 622//710 621//709 605//693
f 607//695 623//711 622//710 606//694
f 608//696 624//712 623//711 607//695
f 609//697 625//713 624//712 608//696
f 610//698 626//714 625//713 609//697
f 611//699 627//715 642//730 626//714
f 612//700 628//716 627//715 611//699
f 613//701 629//717 628//716 612//700
f 614//702 630//718 629//717 613//701
f 615//703 631//719 630//718 614//702
f 616//704 632//720 631//719 615//703
f 617//705 633//721 632//720 616//704
f 618//706 634//722 633//721 617//705
f 619//707 635//723 634//722 618//706
f 620//708 636//724 635//723 619//707
f 621//709 637//725 636//724 620//708
f 622//710 638//726 637//725 621//709
f 623//711 639//727 638//726 622//710
f 624//712 640//728 639//727 623//711
f 625//713 641//729 640//728 624//712
f 626//714 642//730 641//729 625//713
f 627//715 644//732 642//730
f 628//716 644//732 627//715
f 629//717 644//732 628//716
f 630//718 644//732 629//717
f 631//719 644//732 630//718
f 632//720 644//732 631//719
f 633//721 644//732 632//720
f 634//722 644//732 633//721
f 635//723 644//732 634//722
f 636//724 644//732 635//723
f 637//725 644//732 636//724
f 638//726 644//732 637//725
f 639//727 644//732 638//726
f 640//728 644//732 639//727
f 641//729 644//732 640//728
f 642//730 644//732 641//729
