# Exported from Wings 3D 0.98.29b
mtllib row.mtl
o sphere1_cut2
#74 vertices, 75 faces
v 0.76536686 1.4126744e-2 8.47023861
v 0.70710678 1.4126744e-2 8.76313183
v 0.54119610 1.4126744e-2 9.01143471
v 0.29289322 1.4126744e-2 9.17734539
v 9.0688249e-17 1.4126744e-2 9.23560547
v -0.29289322 1.4126744e-2 9.17734539
v -0.54119610 1.4126744e-2 9.01143471
v -0.70710678 1.4126744e-2 8.76313183
v -0.76536686 1.4126744e-2 8.47023861
v 1.41421356 -0.26831390 8.23466043
v 1.30656296 -0.26831390 8.77585653
v 1.00000000 -0.26831390 9.23466043
v 0.54119610 -0.26831390 9.54122339
v 1.3041734e-16 -0.26831390 9.64887399
v -0.54119610 -0.26831390 9.54122339
v -1.00000000 -0.26831390 9.23466043
v -1.30656296 -0.26831390 8.77585653
v -1.41421356 -0.26831390 8.23466043
v 1.84775907 -0.56856493 8.01578312
v 1.70710678 -0.56856493 8.72288990
v 1.30656296 -0.56856493 9.32234608
v 0.70710678 -0.56856493 9.72288990
v 1.5696347e-16 -0.56856493 9.86354218
v -0.70710678 -0.56856493 9.72288990
v -1.30656296 -0.56856493 9.32234608
v -1.70710678 -0.56856493 8.72288990
v -1.84775907 -0.56856493 8.01578312
v 2.00000000 -0.73408604 7.92087681
v 1.84775907 -0.73408604 8.68624367
v 1.41421356 -0.73408604 9.33509037
v 0.76536686 -0.73408604 9.76863587
v 1.6628523e-16 -0.73408604 9.92087681
v -0.76536686 -0.73408604 9.76863587
v -1.41421356 -0.73408604 9.33509037
v -1.84775907 -0.73408604 8.68624367
v -2.00000000 -0.73408604 7.92087681
v 4.3824593e-17 0.17609135 8.57418771
v 0.76536686 1.4126744e-2 -8.40557528
v 0.70710678 1.4126744e-2 -8.69846850
v 0.54119610 1.4126744e-2 -8.94677138
v 0.29289322 1.4126744e-2 -9.11268206
v 9.0688249e-17 1.4126744e-2 -9.17094214
v -0.29289322 1.4126744e-2 -9.11268206
v -0.54119610 1.4126744e-2 -8.94677138
v -0.70710678 1.4126744e-2 -8.69846850
v -0.76536686 1.4126744e-2 -8.40557528
v 1.41421356 -0.26831390 -8.16999709
v 1.30656296 -0.26831390 -8.71119320
v 1.00000000 -0.26831390 -9.16999709
v 0.54119610 -0.26831390 -9.47656006
v 1.3041734e-16 -0.26831390 -9.58421066
v -0.54119610 -0.26831390 -9.47656006
v -1.00000000 -0.26831390 -9.16999709
v -1.30656296 -0.26831390 -8.71119320
v -1.41421356 -0.26831390 -8.16999709
v 1.84775907 -0.56856493 -7.95111978
v 1.70710678 -0.56856493 -8.65822657
v 1.30656296 -0.56856493 -9.25768275
v 0.70710678 -0.56856493 -9.65822657
v 1.5696347e-16 -0.56856493 -9.79887885
v -0.70710678 -0.56856493 -9.65822657
v -1.30656296 -0.56856493 -9.25768275
v -1.70710678 -0.56856493 -8.65822657
v -1.84775907 -0.56856493 -7.95111978
v 2.00000000 -0.73408604 -7.85621348
v 1.84775907 -0.73408604 -8.62158034
v 1.41421356 -0.73408604 -9.27042704
v 0.76536686 -0.73408604 -9.70397254
v 1.6628523e-16 -0.73408604 -9.85621348
v -0.76536686 -0.73408604 -9.70397254
v -1.41421356 -0.73408604 -9.27042704
v -1.84775907 -0.73408604 -8.62158034
v -2.00000000 -0.73408604 -7.85621348
v 4.3824593e-17 0.17609135 -8.50952438
vn 0.31241168 0.94941415 3.1807573e-2
vn 0.31087224 0.94119030 0.13236040
vn 0.26036267 0.92853146 0.26465186
vn 0.15030579 0.91771267 0.36771133
vn 2.4774661e-17 0.91334673 0.40718269
vn -0.15030579 0.91771267 0.36771133
vn -0.26036267 0.92853146 0.26465186
vn -0.31087224 0.94119030 0.13236040
vn -0.31241168 0.94941415 3.1807573e-2
vn 0.50278813 0.86287319 5.1516619e-2
vn 0.51221523 0.83026296 0.21977029
vn 0.43897045 0.77894695 0.44782429
vn 0.25668507 0.73354345 0.62930659
vn 2.8459002e-17 0.71496729 0.69915790
vn -0.25668507 0.73354345 0.62930659
vn -0.43897045 0.77894695 0.44782429
vn -0.51221523 0.83026296 0.21977029
vn -0.50278813 0.86287319 5.1516619e-2
vn 0.67642842 0.73326673 6.9025307e-2
vn 0.68343361 0.66908297 0.29196999
vn 0.57509668 0.57257870 0.58430937
vn 0.33011403 0.49147450 0.80590170
vn 2.8472089e-17 0.45946827 0.88819419
vn -0.33011403 0.49147450 0.80590170
vn -0.57509668 0.57257870 0.58430937
vn -0.68343361 0.66908297 0.29196999
vn -0.67642842 0.73326673 6.9025307e-2
vn 0.90226079 -0.42132016 9.1732179e-2
vn 0.91748879 7.6485621e-2 0.39033867
vn 0.70138505 -5.9666403e-2 0.71028088
vn 0.37547955 -0.15479187 0.91381321
vn 5.8703284e-17 -0.18857841 0.98205814
vn -0.37547955 -0.15479187 0.91381321
vn -0.70138505 -5.9666403e-2 0.71028088
vn -0.91748879 7.6485621e-2 0.39033867
vn -0.90226079 -0.42132016 9.1732179e-2
vn -2.8279649e-18 0.99241573 0.12292690
vn 0.31241168 0.94941415 -3.1807573e-2
vn 0.31087224 0.94119030 -0.13236040
vn 0.26036267 0.92853146 -0.26465186
vn 0.15030579 0.91771267 -0.36771133
vn 4.6010085e-17 0.91334673 -0.40718269
vn -0.15030579 0.91771267 -0.36771133
vn -0.26036267 0.92853146 -0.26465186
vn -0.31087224 0.94119030 -0.13236040
vn -0.31241168 0.94941415 -3.1807573e-2
vn 0.50278813 0.86287319 -5.1516619e-2
vn 0.51221523 0.83026296 -0.21977029
vn 0.43897045 0.77894695 -0.44782429
vn 0.25668507 0.73354345 -0.62930659
vn 9.2491756e-17 0.71496729 -0.69915790
vn -0.25668507 0.73354345 -0.62930659
vn -0.43897045 0.77894695 -0.44782429
vn -0.51221523 0.83026296 -0.21977029
vn -0.50278813 0.86287319 -5.1516619e-2
vn 0.67642842 0.73326673 -6.9025307e-2
vn 0.68343361 0.66908297 -0.29196999
vn 0.57509668 0.57257870 -0.58430937
vn 0.33011403 0.49147450 -0.80590170
vn 4.2708134e-17 0.45946827 -0.88819419
vn -0.33011403 0.49147450 -0.80590170
vn -0.57509668 0.57257870 -0.58430937
vn -0.68343361 0.66908297 -0.29196999
vn -0.67642842 0.73326673 -6.9025307e-2
vn 0.90226079 -0.42132016 -9.1732179e-2
vn 0.91748879 7.6485621e-2 -0.39033867
vn 0.70138505 -5.9666403e-2 -0.71028088
vn 0.37547955 -0.15479187 -0.91381321
vn 0.0000000e+0 -0.18857841 -0.98205814
vn -0.37547955 -0.15479187 -0.91381321
vn -0.70138505 -5.9666403e-2 -0.71028088
vn -0.91748879 7.6485621e-2 -0.39033867
vn -0.90226079 -0.42132016 -9.1732179e-2
vn 2.8279649e-18 0.99241573 -0.12292690
g sphere1_cut2_dirt
usemtl dirt
f 1//1 37//37 2//2
f 1//1 38//38 74//74 37//37
f 2//2 11//11 10//10 1//1
f 2//2 37//37 3//3
f 3//3 12//12 11//11 2//2
f 3//3 37//37 4//4
f 4//4 13//13 12//12 3//3
f 4//4 37//37 5//5
f 5//5 14//14 13//13 4//4
f 5//5 37//37 6//6
f 6//6 15//15 14//14 5//5
f 6//6 37//37 7//7
f 7//7 16//16 15//15 6//6
f 7//7 37//37 8//8
f 8//8 17//17 16//16 7//7
f 8//8 37//37 9//9
f 9//9 18//18 17//17 8//8
f 9//9 46//46 55//55 18//18
f 10//10 47//47 38//38 1//1
f 11//11 20//20 19//19 10//10
f 12//12 21//21 20//20 11//11
f 13//13 22//22 21//21 12//12
f 14//14 23//23 22//22 13//13
f 15//15 24//24 23//23 14//14
f 16//16 25//25 24//24 15//15
f 17//17 26//26 25//25 16//16
f 18//18 27//27 26//26 17//17
f 18//18 55//55 64//64 27//27
f 19//19 56//56 47//47 10//10
f 20//20 29//29 28//28 19//19
f 21//21 30//30 29//29 20//20
f 22//22 31//31 30//30 21//21
f 23//23 32//32 31//31 22//22
f 24//24 33//33 32//32 23//23
f 25//25 34//34 33//33 24//24
f 26//26 35//35 34//34 25//25
f 27//27 36//36 35//35 26//26
f 27//27 64//64 73//73 36//36
f 28//28 65//65 56//56 19//19
f 29//29 30//30 31//31 32//32 33//33 34//34 35//35 36//36 28//28
f 36//36 73//73 65//65 28//28
f 37//37 74//74 46//46 9//9
f 38//38 47//47 48//48 39//39
f 39//39 48//48 49//49 40//40
f 39//39 74//74 38//38
f 40//40 49//49 50//50 41//41
f 40//40 74//74 39//39
f 41//41 50//50 51//51 42//42
f 41//41 74//74 40//40
f 42//42 51//51 52//52 43//43
f 42//42 74//74 41//41
f 43//43 52//52 53//53 44//44
f 43//43 74//74 42//42
f 44//44 53//53 54//54 45//45
f 44//44 74//74 43//43
f 45//45 54//54 55//55 46//46
f 45//45 74//74 44//44
f 46//46 74//74 45//45
f 47//47 56//56 57//57 48//48
f 48//48 57//57 58//58 49//49
f 49//49 58//58 59//59 50//50
f 50//50 59//59 60//60 51//51
f 51//51 60//60 61//61 52//52
f 52//52 61//61 62//62 53//53
f 53//53 62//62 63//63 54//54
f 54//54 63//63 64//64 55//55
f 56//56 65//65 66//66 57//57
f 57//57 66//66 67//67 58//58
f 58//58 67//67 68//68 59//59
f 59//59 68//68 69//69 60//60
f 60//60 69//69 70//70 61//61
f 61//61 70//70 71//71 62//62
f 62//62 71//71 72//72 63//63
f 63//63 72//72 73//73 64//64
f 65//65 73//73 72//72 71//71 70//70 69//69 68//68 67//67 66//66
